4188
-108
2104
3168
-2394
-4084
-8430
-5527
1098
-5879
-1501
1215
9285
-3566
9759
-5232
-4943
1311
-9152
-3040
-2479
-6241
-7702
2727
9588
6765
5926
5479
6139
7243
538
-5135
7465
-4671
-4212
185
2135
2363
7617
6963
-1633
9911
-969
-979
-6296
9827
-4122
-6073
9031
3721
-1045
5782
4863
-936
910
6037
5349
-1241
-723
410
-1376
1136
5398
-2028
829
8185
3146
-2950
5626
1199
-9039
-8124
-9084
5126
6137
-6269
248
5539
1221
853
-2403
5478
-1067
2491
-8920
-6692
-5711
4181
-6239
-2673
395
-6234
-2233
7999
7845
-9425
1755
-5483
6742
-6130
-8847
8777
5075
-9150
5595
-3010
7510
-591
-1331
6701
-5398
6292
1279
5432
4026
-2552
1935
-4046
2655
4074
-5332
2844
-8921
5254
-1465
-4868
686
-3962
1371
579
7499
8451
4876
-1309
-3409
2172
8109
-8546
6356
1413
2157
3611
2783
5133
-20
-2508
460
-1278
-7682
1368
-680
7098
3112
4893
3879
-8484
-4011
-9713
-4756
5317
-2861
3795
-4809
7570
9354
8352
-3605
7670
-3059
-4597
-6861
-1079
1909
-8434
-7139
-5435
8137
-5921
430
5855
2027
7909
4283
-1503
5754
-3034
-3646
-8862
2339
2011
6218
-2383
-9478
-1293
3931
3235
1834
-9419
5757
4603
2279
-6137
2311
-7562
6664
-6308
-387
-2789
-5085
-5407
92
8643
-3416
-7998
-7141
1770
2295
-3830
-9708
-5320
8997
4972
1557
6019
9670
7929
-7334
-6038
-2442
-9820
7438
2561
9950
-7793
-5937
-3670
7264
8777
-2133
9281
9363
-1139
2547
-9108
-6975
7221
9280
-1930
-8088
7944
-4038
-309
-6377
-9710
-2686
8146
-2908
-1883
-9351
-8961
-1940
5518
1799
5354
-9665
3361
1047
-3667
6201
4108
-133
-6285
-9386
5597
5833
-809
-9292
8379
5317
-9409
4671
-4242
1341
-9273
-7823
866
-2490
1787
2323
911
7946
9802
4469
-4880
7920
-2087
-7703
15
130
-7921
-7832
-6707
-2369
-1682
3037
-4136
-4087
-3312
7111
601
3889
-6030
-2032
-4180
6365
4372
-4029
-8272
-998
5557
-382
-1096
-9085
5904
-4187
9233
9712
-1822
2110
-8174
9122
4611
-391
-901
-9681
-1080
-3571
1520
4655
1854
-1366
-6587
7676
8678
-2061
-3213
2154
-737
-6279
-4656
1342
4532
-9390
-3409
2689
-3422
-7687
6427
7029
-6001
7388
7624
8516
8908
-6727
1285
-3406
7506
-8817
-1313
-7162
-7746
6395
-185
-7266
415
5898
4468
-4737
-8903
-1404
-8032
1644
897
-8006
-3671
8678
6908
3688
-4837
-8217
5023
6001
2627
8230
-8602
-2240
9433
-8017
5373
8467
6197
-1880
-6685
7040
373
7106
4503
9758
-8463
-3095
-7339
266
4967
-5555
9591
8204
-704
7044
1108
2456
378
9052
9598
8
-9360
-656
-7521
-7924
779
-8755
1266
5398
9061
8039
-7902
8533
-7701
-5559
-4715
456
-7768
-2794
-1150
1960
1154
-3435
-1047
9087
-8556
4197
-1220
2232
-4927
3203
-3341
-5418
1260
-9167
-5955
9183
3045
-4267
-5476
-4778
6916
-1998
-3936
-9033
3523
2597
512
-6620
2067
4430
-3317
2510
-3879
-3024
-3641
-7423
-5540
-4716
-3811
1031
-3112
8998
2625
1930
2095
-8687
-8002
547
2270
5753
3226
-7521
7484
-5736
-3150
-7646
-8207
-2732
747
-5206
2540
9229
323
3405
4562
-8335
-1122
-7629
1718
9667
-7470
9569
9687
7707
-6702
-9769
5960
-4225
-6230
5693
-4352
-2064
-2661
3192
5034
1922
-970
-563
8735
582
-6248
-6736
-9162
-6131
-8895
840
-4376
3490
8906
-9392
-755
1427
1202
4564
-9856
8226
-9251
-2452
3088
-2677
843
6750
9350
7590
-3148
37
3835
-2091
-6108
3482
8958
-5271
3884
-3915
-5460
6475
2538
2771
-6782
7056
-5181
-4457
-8334
4840
6073
7032
-687
-6812
5220
-9239
-1662
3915
-3730
8008
1366
-3926
-5066
2517
6611
8966
-1797
1086
4118
-9439
-3506
-9293
-8667
272
-9656
-9041
1364
-1434
-3390
4221
-6830
-5129
2753
5596
-775
-9928
-7980
9493
-6603
99
-2810
467
9331
3152
6066
2138
8004
-5349
-2020
-29
2011
1215
-2685
-8843
-6288
-2182
7463
8025
-5477
-9313
-3461
-9843
3463
-7344
4859
4779
-5541
7324
-6592
-4962
-6005
-6247
-7648
-8616
3360
4365
-801
-7411
-6972
-4691
-2741
9786
-9352
724
-3138
9468
-1310
240
4082
9502
-7079
-7579
-5225
-3994
8730
-3999
-4711
-1689
-1270
-4534
5498
4275
2104
7818
4632
-1173
3876
-6611
-4119
4912
520
5071
-8133
-2084
7339
7627
-177
-7891
2504
1484
-7351
885
2887
-6041
-9959
-8756
7584
-5139
2487
7424
6467
-6793
-9846
8609
-6844
-2952
-1443
-8773
4447
9396
-6580
7686
-8387
9841
8187
-9731
-7218
-6415
-545
1398
324
7541
-2108
-322
2186
-3450
5258
-5160
2029
-8168
1720
4159
9401
-1437
-8125
-2110
-1768
9731
-7186
-8073
-383
9426
-6985
-7808
3171
-9719
6933
-2911
-9867
-3008
-3020
1941
-9044
689
-8156
2446
-9653
7359
-1805
2934
-6583
7638
1341
-339
-1859
4963
-300
9331
-8711
-5552
-2217
8731
-2267
5741
-7093
2596
6269
9798
-8085
3749
9094
1593
5973
-7946
6551
8734
-6143
-3126
3995
-660
-2899
1515
3399
-8377
-5941
-2516
8753
2369
-5903
1451
1353
-8210
-1953
8460
-1217
8193
6522
-8873
9632
7540
3807
6559
-4997
93
1768
180
7315
-751
-4373
-1195
-2810
-3915
1362
4091
-107
-2768
-6790
-8113
-5644
3383
-1143
-7013
9735
-8886
-86
-3502
-2773
-8412
5617
-1757
8100
-3622
-1074
-6442
2897
2771
-4156
6330
1213
-1197
-8793
-5701
6747
1699
7142
-5631
8026
2505
-5973
-8857
1688
-5635
-2006
6822
-7769
-7729
3938
1341
9825
8044
8420
-2184
-3912
5892
-7009
-9680
-3385
-8905
-4784
8498
8675
-2787
-7970
6680
2582
-4338
-1976
-6072
6108
-4433
-90
5829
-7299
-8458
-2369
-1083
6329
-7653
2439
4157
8476
4364
-7219
7304
6031
-9630
9896
-9244
-7137
-3668
6840
-5911
-7695
-3229
6929
8594
3033
-7315
654
-5102
6576
5109
-6306
2137
-8869
2124
-7097
-7770
3427
-2598
2020
-6672
-1956
4388
-5690
2928
-8141
1782
-4515
-7089
-9692
3165
7005
-3655
-8412
6488
7159
-950
-4802
7578
5395
-2365
1956
-4117
-6083
169
-5908
-9577
-153
-4356
6027
-792
-8912
4000
-810
-3635
9525
-153
-2564
7781
-3688
-232
3651
-1694
-4281
-4226
2595
1332
-3590
5472
260
5118
-8039
-6607
-4178
9186
-3905
-2762
8649
8951
-7705
7893
9946
-3013
-7630
2646
-3792
5308
3999
-2669
-9971
-5317
3416
5045
2719
4103
-3887
6568
2696
6464
5827
-9240
3831
-5095
65
-7994
-1255
8351
-1014
-3831
-6594
-5448
3772
6492
-8471
4147
439
-3399
9854
-9630
5500
8942
-1240
-4541
1094
4002
-3462
-2835
-1169
8042
258
6477
-5959
5327
-8725
-8776
5065
-5442
9260
9234
-4139
-1399
5080
9496
-5606
1655
-155
27
4231
8620
-4815
7190
2137
-2290
-1934
2721
661
9235
2416
-8036
-8574
1043
9359
-364
-7829
4161
8037
-2082
-1389
-8936
-179
-4296
-9224
3290
-9904
7611
2749
-4775
-6094
6628
-5436
-3564
4374
-4724
5504
-3700
-3849
6715
-772
-8518
31
9452
-7244
9390
9491
-2887
-6140
8870
4988
-1758
-5722
3139
7750
126
-162
9405
1153
5382
2809
4597
4862
-9646
-3348
-2705
-5436
-9650
-1171
-7800
8447
-1695
3467
5416
-9490
-9320
-7628
6291
-9727
7228
-9719
-5267
8744
9729
-1775
-8317
-8795
8857
-2522
4830
-1176
-1927
5810
-8347
3222
8751
7635
-2480
681
1720
-9890
-2113
-3924
-3043
-1616
458
506
-4600
-5077
5774
1146
4689
-9833
2751
-2993
4059
4831
9546
-9874
-7270
7716
-531
-1880
833
7156
-3327
-8951
2245
-906
7055
-6719
-5350
-9734
6006
9291
3739
1084
-3430
-8709
5690
9540
-888
6096
4825
4823
-3299
-1113
-8088
-2656
-784
-7796
2539
438
3537
83
-5182
-1691
-2728
-831
-9119
4564
-978
1370
-2295
-3718
9551
-4046
-697
-454
5052
-7175
-5440
4238
-3759
3349
2829
-1847
5182
245
-7164
-6481
-4519
3826
9535
-7343
-9124
8370
-1704
3682
-7676
9384
-3942
-7931
-5738
244
-4866
-651
7033
-5026
6866
-3614
-5647
2846
-434
5308
-7801
-9917
-2006
1669
8670
-5976
-9885
-3731
-6882
6045
-9090
-5215
7239
-9175
2765
2541
-9116
1675
7268
1620
-9105
4319
4218
-1986
-7342
-5223
213
-2368
862
-9042
1425
1710
-1456
-7870
2948
-5476
-8433
-4432
-9375
9307
-441
-4476
281
1907
3604
6068
-5934
-4107
6116
6408
-6156
7757
-1134
4960
-2354
-3683
-8497
-3244
-3324
6491
4718
7693
7629
-5531
-222
-1308
-2097
8516
-752
2970
9700
-2206
-7428
-9501
3190
-9951
-5531
-4922
-1506
-1622
-5779
1544
1679
7053
-502
-6682
-9134
6942
-304
3732
-4881
2123
-9396
-1382
1058
-8930
-5223
2041
9879
-1875
118
2396
999
-6026
2934
1739
-2420
-2559
1149
-2231
-6086
-4827
-1643
-5155
-5014
-9360
-9959
8154
-5543
-635
9584
-6589
-1063
3401
-6455
3394
-6411
4850
3217
2229
-3042
-4485
-7337
-1580
-8635
7828
2112
8500
-712
-9207
87
-5422
5870
3877
-2430
-8925
3016
1724
-6777
8685
-8509
-7017
-80
-3164
4035
-2310
9721
-122
4712
-599
-3002
-3207
-2496
-9433
-2507
9349
683
2717
-5068
-520
-7464
-3433
-3854
-6954
8706
1415
718
4220
-8185
-1885
-8196
-7598
-109
-4724
-8977
1848
-8176
-5390
-7743
-6810
5149
-2052
-3334
-4538
4417
-4109
-5599
7567
6758
-3976
-2744
-1221
5416
-2763
911
-604
-8327
-4076
5399
-5315
944
-270
8120
-2094
-197
4940
4966
1547
7199
4809
-7974
9800
5459
-2238
-7152
-133
4366
-3151
4407
4856
-4834
4796
-1338
-3147
-9618
-7433
-4003
-4882
-9961
3649
1872
-8499
5236
1126
8643
-7254
5948
41
-9247
7739
1538
3736
3452
-3383
9654
9540
-7331
8244
2024
6573
-3181
2736
-5880
-3602
-9883
6477
9728
5876
1336
-1446
1213
-9157
1985
-463
1518
9018
-6477
6244
4999
-8850
-5516
9402
685
400
-4689
5058
-6186
1812
-8817
5148
9310
5987
1268
7792
-5666
4145
-3348
3697
6093
-4686
8495
-8527
5850
654
-6895
-8295
358
4792
-8857
7331
-2068
-508
-5463
-3861
-2062
-8849
6527
141
9697
-9675
7795
-3850
-373
8821
4778
-7994
-6109
7959
-4960
-6213
-2066
-9880
-1038
-9341
-6032
5029
-2966
6165
2803
-7970
-2331
7376
7394
89
1748
6634
-7963
-1559
6981
-5437
-6642
-7560
7694
7549
7097
-8362
-6201
-1907
8096
3
-3531
2206
21
-8099
7454
4490
-3942
1597
-6054
8536
2113
9025
1603
8021
-9929
9912
4580
2114
-9845
-5402
3303
7778
-1246
6532
8268
-8915
-9194
8843
1265
9829
4350
-4666
-5778
-9438
8927
898
-9782
-5477
-801
-4425
-8694
-899
-9495
6308
-6668
-5987
-5960
1012
-698
4801
-4115
-9405
9678
-9911
-3635
-3620
-9461
-6367
4032
-7282
-1346
7387
2005
7539
-3654
-2445
-6487
7260
-1673
2070
8173
6650
-2205
5008
-9115
9159
-326
-8970
1145
-1323
5161
1369
2226
9818
3646
-8283
-3196
560
-4419
-8076
8496
-1574
-6980
7665
-2766
9388
3336
4947
-9584
7304
-4013
-210
-8421
887
2241
-2509
-6409
5132
3439
8521
-5648
4568
4565
-8592
9578
6839
6902
-3104
-571
6845
5954
-7760
-6409
-5960
9058
9621
-7113
-1525
-9194
8517
4537
4796
3832
8257
-7063
7616
-2456
-5936
-1871
-3426
7972
7537
-9885
4869
8254
868
8721
-8818
-8902
2945
5957
-8405
-7872
-4870
619
-4442
-3846
4601
-6639
7857
-2837
-5989
-5463
-2790
7231
-2441
6815
1324
9592
5732
-85
-1860
6705
-6441
-4262
3429
5473
533
8809
-3910
8639
4358
-917
4149
3898
5110
-7960
6926
425
-8321
4459
1710
-3713
-1896
3310
7003
9583
-6137
-65
8556
-8796
9204
2005
-680
-2289
-5672
-8260
-92
-844
9461
-9642
-7698
8495
1879
6081
-3769
6827
5378
5698
5055
1783
-2022
-1742
-4035
-4794
-5642
-6509
-2111
-9379
-8990
-2718
-192
1036
4090
-8153
-8048
3248
2684
-783
-7083
6090
3454
3232
6819
-3011
-3410
7430
-3669
3659
-2486
-5931
9843
-4022
4010
2964
3952
-3232
4176
7922
-3903
9708
7091
-6773
6415
7527
-4884
2999
2744
-5678
4399
-7793
8170
2106
8509
9634
6671
3602
8984
-9579
9107
750
6187
8490
-810
1649
-5990
-2214
7051
7322
-7237
-4837
-3350
-5850
6032
7633
2456
-2190
-674
1891
-9203
221
-9000
-4950
-8376
-7757
-725
-7905
7691
-8219
3061
7766
-219
-508
8869
8409
9020
-7619
-8741
-7211
-9666
9392
-9923
-40
-5369
-7520
4170
6973
-8358
-8360
-1709
-454
-9883
3082
-2395
4755
7621
5922
2509
6454
8280
-5272
-4601
1224
3523
-7261
-9464
-4389
-1695
-6254
-1578
-6236
3202
-649
-3208
-1252
1453
-7230
1843
-9560
-790
326
-4681
8320
-2860
-2567
5758
-1637
2041
-2862
5540
-140
8180
-3790
9236
-9796
-136
6234
3373
-6537
-923
5361
2879
-7910
5042
-9905
-4748
129
6131
5931
-33
1058
8819
-9344
-2344
3651
3250
-5258
-8737
5303
-9564
9613
9719
-6252
-7757
-3645
-6438
5376
-7932
5036
-8508
-8847
-8549
7940
7059
-406
-4135
-1273
5427
-9627
1545
-5988
1618
1805
4448
-6189
3696
-9211
-7698
-7024
-2995
4767
-8817
6994
8877
-8167
-803
2454
7188
7297
-8454
4941
624
-7074
3645
-4662
3770
8418
-8053
-775
5877
3889
-4284
3495
-1381
-3285
-2713
-692
-4807
-3469
3132
-8858
-9207
8067
3621
8012
-7215
-6902
-4578
4765
7839
-9988
7240
8911
-7159
-7680
-2997
-8395
-3471
-4115
6480
118
-302
-1270
8071
3609
3113
-3004
-2373
-6085
-5544
5967
-2911
8847
8187
5995
-8791
6666
-4394
9781
-6287
-2693
6229
9670
21
8501
6246
-8589
-3996
-6962
4896
-5648
-4783
7170
5485
-2933
-9280
9617
4156
-7853
-8234
5576
6568
4217
-9456
-9155
334
1193
9649
-2602
9358
-9632
-2945
3662
5146
-1855
2081
-9718
-297
5044
3289
-4766
-5191
6082
7106
-8954
-6706
-9310
-5287
-8873
9290
6064
3891
-7654
6588
3164
-7585
-3417
6793
5513
53
5263
2369
7570
7387
7788
3533
1638
1332
7265
2516
-9921
-313
5132
-6089
3107
-49
-11
5586
-8513
1321
5384
-8868
-1839
2984
-3694
-8241
-6801
6686
-5241
-6625
2379
7073
1117
2732
-8675
-621
9800
5572
4298
-9204
-4662
9164
-382
9217
-1924
-8116
-7913
1041
-2496
3200
6937
-1697
-4417
-1055
9474
-5291
2495
-1291
-48
-72
2868
-5033
-5846
2049
1781
6763
6775
-807
6786
-5237
-3165
2998
-5326
-1012
2256
9126
-147
5782
4175
-7195
5024
-3702
598
1168
-5847
-4763
-6214
-1694
2836
5668
6035
-6188
-8240
3372
-5501
-8841
-4778
-7539
-2736
8256
-1396
-6993
-9875
9371
-3828
902
6312
4895
-6245
-9635
9883
3450
9593
322
-2408
-543
-8925
-2674
-6272
8489
5058
-327
-2214
2634
-4821
136
5739
8551
-9274
-2044
-7685
-7965
-1326
4690
-6165
4639
-7124
3112
9067
-9734
-7378
-6576
-1057
2610
-3462
-3037
-4904
8000
7168
3933
1899
2344
6626
8765
-3008
-4161
4321
-5616
1228
-5495
-5923
4978
631
-6203
9794
5765
28
-3783
-3599
7806
-8994
-7742
-4104
-3881
5166
1989
7141
103
-2169
3195
-7596
6763
6984
-8785
-6337
-790
-2360
5525
7390
5642
-7292
-1439
7732
7308
8073
-6614
4931
-2170
-8217
-1398
-1639
-9126
-4947
1188
-8327
-1691
-3683
1005
1328
6783
-1452
4273
9194
7081
4854
-2397
4876
-2304
7652
-1017
-5863
-8314
2672
7672
-4002
4235
655
-9013
-6978
7212
-3202
-7227
-3208
6604
-9190
5692
3749
8886
8961
-2566
5329
-6845
3516
-430
702
-2702
-5307
-2940
488
-1457
-4375
-3801
5416
1356
1734
-648
-4799
-986
-7472
-4100
9776
9054
6013
-9419
7578
-2597
3796
-7257
3679
1105
8347
3053
4364
-4561
3017
-2209
4137
7553
100
5086
-3843
-4085
2558
-7616
7741
-7596
-9014
-192
8870
2318
-1032
307
-6521
-3611
-2777
4145
883
8489
9689
-7333
7819
-7083
-6746
4294
314
-4119
6823
4285
9056
-2703
-4787
9019
1900
1016
-1389
5487
-7173
-5688
9359
7097
7911
707
-5631
-1954
5786
-5773
3681
248
2567
7610
-6443
9167
-618
-7702
5860
7876
-5598
-6287
4693
2318
668
-8131
-4187
4934
6030
4311
4822
8723
2144
-3866
5999
-734
-4220
-9927
-4773
8370
-2466
-1365
7726
-269
618
9743
-5903
-5653
-4515
7583
6611
-8544
-5141
1103
-8142
-668
8130
4084
-4559
-466
4068
2720
-139
8082
-3527
-676
-2385
7492
-1343
-5899
8129
4728
-472
820
-615
1880
-3423
6806
-7120
8716
-796
2805
-5925
-728
9610
4120
-490
-1780
-2148
815
6513
-2956
-7321
-8167
-8242
4857
-9552
-4430
-9150
-5762
627
7728
2744
8531
-1647
-3786
-13
-6164
1960
2362
8584
6227
-3376
-1985
9810
2788
3949
8686
-9711
-6400
-8206
-5430
6432
-8889
8591
3113
-5352
3158
-7887
9620
9643
-3618
3857
5602
9808
7915
-2827
-1451
-9215
4973
-307
-8671
-3765
4282
-1113
-5380
8229
6341
3204
-8467
-1227
-6925
-9230
75
8700
1692
-7472
6107
-9495
2436
7471
7125
7596
-6625
-6233
-4469
4112
1522
1525
-1057
6559
6307
-9475
4682
-8559
-1241
9243
5715
-8539
-2218
428
-3840
-3033
3511
2745
-4136
-967
-3045
-1874
-4348
-4117
-5001
-9961
7462
5331
378
9201
-3054
-7504
7259
-9869
9984
-5761
-5120
4463
-833
-365
4024
-4892
-8580
9210
4118
9060
-6204
4786
2305
-3857
-9151
-3529
165
5868
4073
-6347
8532
-4613
1566
-7144
6412
-2382
4357
6826
-3924
-9312
-5188
-3493
3155
-2800
-7998
-9689
-2036
5101
-803
3629
-7834
614
9347
5554
-6351
-1862
-4088
-504
1588
2008
-1590
9740
-6379
700
-5231
-3073
-2502
-4746
-4187
1997
-9274
674
1191
421
-6577
-8472
585
-3739
-8009
-8889
9199
-826
-5813
7346
-7635
6478
9802
-2038
479
-2856
-4620
2490
2600
-5132
-3735
9327
-5375
-6585
4799
-7698
6349
-1091
9545
-6849
610
-8977
-2821
3776
7208
-2182
6070
-4668
4594
-2532
-1463
9931
-7010
4149
-2632
-4796
-5887
5113
1479
1882
4708
-8716
-4599
328
3744
4666
-2225
3090
6457
-7539
-4784
7558
-7655
9949
-469
-4767
8753
-7911
8742
2325
6896
-2829
5310
-9856
2921
-4977
8550
-6891
-6918
6887
-7489
7298
9116
4513
5421
3027
-2369
1867
2315
1258
5532
4537
8536
5522
-7445
-947
8586
8566
-8593
7195
2133
-3932
-3699
-1163
6984
8527
1368
-9091
-2565
-3119
-8050
-160
5666
-2677
-6260
87
3695
-3437
7504
-7595
3893
-75
334
1998
7194
-8350
8355
9007
9854
9262
-9636
1512
-8015
1998
-2988
-5224
-5940
7076
6006
-537
1250
-3018
160
6346
-386
5939
-7768
5283
3088
-5561
8139
-7767
-4296
-3126
8443
-333
9529
-666
-3090
-7074
5630
-7964
-5463
7907
2661
-5928
7582
3925
5712
-3093
8935
9672
6644
-2566
3611
9910
-3619
-8543
1190
-4134
9476
-5925
-9303
3234
-8189
4724
6718
8314
3310
1551
9498
4971
-601
-7734
-3738
2973
-2816
6811
-3762
-8293
5430
-9067
-2363
2344
948
9119
-8757
-3738
8253
-9568
-7634
7819
4272
-8641
550
-4416
5290
6108
-5245
7655
-498
6665
615
3974
5222
2419
6004
1274
2236
-7643
1212
-5111
1666
1547
930
5593
8448
8083
6615
-521
9673
-3402
9866
-5906
-8057
193
127
-4889
-8620
-6155
3336
4330
-8971
-774
2037
2038
2142
-6522
-7930
-5420
-1802
2513
-3919
-8547
-6524
3291
-66
-4668
-8343
-1169
4496
-6901
-5874
4785
-7631
6336
-7473
-2947
-3264
-4333
-4386
-3884
7899
-5106
-3445
5769
1913
-1838
-6435
1357
5305
-3900
-5851
-4191
90
-4542
1160
534
4013
757
-2422
2629
-7561
6231
-3959
-140
320
1635
-844
-9470
-4608
-3519
6977
6646
6986
-6193
9245
5621
8845
-3156
-8335
-1656
8811
9731
7899
9538
-6508
-3100
1922
146
-8249
-5161
8980
-9186
-2637
4671
-2317
-9369
8150
-5745
574
-4114
-3337
4532
-3953
-126
5700
6420
-9459
6696
968
-8295
6771
9511
-7352
4291
-8990
-3180
-2129
6576
-9502
9177
-3112
9809
667
3077
-2862
-2984
1047
8790
1475
-7630
8658
-5397
-510
1905
-1870
-8872
4165
6969
8923
6297
35
-5906
1771
-5850
-6461
-7246
-1198
8638
1482
5951
4807
-2468
-706
-2349
743
-9216
-2829
5768
4758
-7162
-695
-185
-9063
-1062
9023
-1841
1420
1804
-9014
1555
3686
-3079
-9503
6703
-8504
-7807
-419
-3510
5386
904
9582
2019
-3401
5642
919
-4418
-3113
5259
-8023
3465
5955
-3004
1248
2810
8105
1464
9457
7685
133
9543
1695
-3860
-6291
-2950
3583
2184
7119
-4359
-48
-5490
3681
6500
-240
7162
7092
-2852
6751
-3450
7614
-8901
-8228
-6222
7196
5147
-271
1710
-3446
9635
1856
-7924
-7346
3402
2223
9523
-8782
6963
6388
6759
5553
4988
-385
-2306
-9574
-7668
2263
4020
7625
-3431
-9228
4714
-1442
4463
-5951
-2371
8344
9756
-2820
7735
-4119
5323
6990
7484
4682
4034
-2655
-8650
562
9531
-4048
8832
3841
-9349
-970
8035
-3794
1377
5342
-4647
5296
-8017
6913
-4059
3726
-3616
160
4309
3469
-4204
8258
4711
1413
9377
-6830
-3010
-2624
8860
4141
5076
1982
-3980
-1665
-7392
-1449
-613
-1147
2880
471
-257
5574
-1102
-6392
2700
5020
3283
-8216
1057
-3094
7587
2738
9665
7051
-4188
1729
-8828
9069
7957
495
2249
-9543
-4024
379
-3114
-7286
-3304
-9830
5725
9652
4160
-8443
8709
3193
7240
8112
-8057
-8197
7476
-2691
9153
3101
6823
-690
-6867
-717
-4712
1174
3154
1570
-5592
-9451
-9308
-1646
4118
-918
-2416
451
-2264
-7496
8395
6609
-7362
-8301
1783
2431
-7324
7062
4511
-3210
-7577
-2926
6111
1178
-6916
1230
2243
-482
5216
7381
406
-1415
4373
-6062
2971
-7428
2360
-1382
-637
-816
-1001
7064
-8253
9227
7134
7056
6751
-3160
-2933
-2956
9472
3293
5681
-8693
-4557
-6248
253
8329
-8744
-6624
-2768
3791
5179
-3112
-7733
-4902
-4647
-6016
-666
486
5069
1903
4011
2469
-7823
6039
8781
2733
-7275
-371
6712
3628
7825
4363
3953
9966
7028
5207
1149
-5888
1565
4728
-732
7172
-3540
-5043
-3760
9646
1742
-1945
7434
-4077
9949
1037
-4839
-1165
9559
4313
-9751
2793
2196
-1002
-7786
7016
5183
3742
3576
4009
-9575
8285
8633
-7350
-4370
7918
7290
-9860
4509
-9203
552
2529
8876
-1705
-4189
-329
-2556
-2467
-2689
-2831
3666
4761
9986
-4719
8088
-1535
-6673
2682
9445
1824
-3994
1657
-6838
-4338
1725
-9513
-4108
4954
2044
8673
-9578
4771
2930
-8841
-3511
-5281
8349
8749
-5
-5064
6416
-6233
-4403
1245
-8535
2241
-4197
2200
8837
7015
-6524
6610
8307
9673
4042
-3475
-3281
3522
8710
7726
-9215
-5358
-9329
7443
6931
-6435
2489
7305
6665
6229
4842
-1521
3136
-391
-5801
5483
7408
-5255
-9727
5362
-8583
7968
2777
9668
8643
-377
1446
-1833
3289
-1088
-6715
5208
-5984
-6684
6661
-7603
-693
1532
-6856
-5548
-1907
9992
4830
-844
-8555
4746
7501
-3240
9039
-7104
8014
9423
7488
701
8166
7086
-3235
-850
6629
-7443
5614
1956
-4424
-4329
-2766
5890
-716
-5925
-7631
-1243
-1758
-3573
8667
6510
-5798
2808
2247
7709
-866
-3373
310
-9139
-5823
2503
2091
8223
3453
5434
-508
8242
2022
7929
8481
8006
7238
3878
7660
-2990
8458
-9391
-8653
3974
-8722
3836
1120
9606
9401
4209
1991
9887
9755
8618
-2851
6884
4591
4704
8740
7040
8111
-7282
-8788
505
-5464
5363
8401
-655
9544
3307
-4014
7275
-2307
-8346
6757
-880
-5372
-8924
-2135
4232
-5120
6138
6282
-5067
3480
2952
-8313
-1687
-7173
-1557
4292
-2201
-5040
-5668
-640
9427
3856
364
9726
7088
2305
3344
3099
-9222
3625
-8781
-8234
2462
9719
-5216
8980
-4767
-6112
3471
-1504
-6848
-696
6238
1510
1606
2233
3775
8809
927
2832
-5974
-5089
-347
-4246
9447
5757
-1916
-2195
1498
-8163
-2393
-9416
5495
4544
6754
-7785
-2692
5209
1116
4282
-7741
-6612
-9099
7523
-3813
3887
-2633
2999
-1259
-9579
-2712
-5739
-143
7866
3245
372
1717
4861
6795
-283
607
3711
1375
-9871
-4302
-4355
2374
-7820
-4849
-4063
-7175
-672
3806
5713
4978
-8825
1310
-4985
347
-5799
4681
-4815
-6189
-1857
-4857
7744
969
-4458
-4546
1583
-7794
7037
-8959
659
-8259
5612
-4114
351
5470
-734
-7562
-7818
-2495
-6508
3760
3836
2023
-7554
5641
-5753
-5514
-9151
-3414
1957
-5850
-2577
-5574
9066
8544
-4928
-311
-7240
-292
3008
-2086
-8231
-8082
1720
5801
-3946
-8891
-7119
-633
-5409
7272
-6751
-3811
8343
2907
4111
-1572
-6656
-7090
-4056
-1590
2249
-5681
1767
4425
1844
7927
2052
794
-1368
7998
9042
-6712
5026
1205
-968
8704
4602
-8587
-2632
-4332
6416
-7009
-7116
-7339
-4342
-7872
5955
8846
-9298
2964
-2472
3418
5094
3338
5240
9997
7072
3576
7160
-5939
8956
975
3650
-6618
4051
2501
-6439
-5804
-321
-1287
2177
-939
-8485
3029
-4713
6331
6651
-7794
6194
5709
-9401
-3768
-9271
-488
6908
8882
8976
5089
-2787
3718
-8047
278
-5874
4630
6363
775
9835
-5175
1312
6056
-850
-6313
7049
-1289
-2674
7041
-2240
-8975
261
3075
7910
2169
7425
3547
4817
-440
6357
7920
8860
8698
1684
6625
-2825
7322
1272
8944
6665
-8378
7481
-9167
7837
-4922
2442
-1493
-7816
-6313
2868
4732
2812
5310
-7901
6487
467
5428
-5072
-4977
-4743
-3269
4213
2362
8200
5828
-2649
-8124
-3947
-3268
-4610
-5220
-2087
7848
-2062
-657
2772
-3107
-7103
-5018
-6583
-3584
-8275
-374
-6031
1593
-1936
-4606
-4056
-8557
444
5059
750
4830
8227
-294
-4592
-6553
4009
-3370
-7396
-4706
5440
5778
-3739
-5632
-5259
-7149
-598
-5192
5134
7706
2397
1144
-9970
-2166
-3439
189
2959
8346
-9443
4630
4144
2376
5295
3626
2985
-1326
6664
-8560
4879
-3101
4928
-8375
-4528
5255
4592
1283
5753
51
-801
7635
-2577
-7800
-8232
-2607
9459
-8169
3533
8409
-5892
8895
-8912
2583
3268
5023
5233
9183
4772
-131
-6390
-1424
-7908
-6190
-6482
-2248
729
-1911
1444
-8901
-98
3355
1382
2527
9033
8053
5327
8409
-4782
9219
6246
4643
-44
9976
6305
5767
1360
404
1300
9196
1440
1409
-3993
-6547
-2828
4881
-5451
-4303
8768
-2377
-5071
-9082
-1089
1412
-2529
-7195
2611
-2923
-6776
-5364
-972
6498
-9726
7438
-6305
3310
3398
-7769
2513
-9706
-4322
3321
-2733
-421
-577
463
6533
290
-1810
9054
5569
-2446
1661
9660
-5952
-3371
-9179
790
-8467
6435
-7885
2154
-2883
7838
-3798
9585
1872
-6204
9392
-2686
-9397
857
-5958
8506
2817
-5532
-2095
748
1966
4138
-8101
-420
6649
8829
-9312
266
7857
7684
1190
5642
-7728
-3193
-9647
-3847
-6794
8844
5432
-2803
-1995
-1095
-2416
-1645
-6472
-2325
-7383
9326
9816
618
1654
8154
6123
726
8722
8764
-6823
1545
-7592
6899
900
7060
-5714
-3816
1762
-4486
-1842
-623
6500
5328
-9012
-6208
1190
-6925
-1041
4397
-7554
5752
-9774
-6687
-9000
2673
9703
-9809
-6993
5822
604
4425
-6915
-8167
-7496
-2842
3494
3547
-3693
8735
-235
-5326
2793
-4413
4674
7079
-6697
9375
-277
-2893
-1376
-9104
-3985
-5451
5338
-8714
4987
-3986
7590
-6013
3458
2930
-3324
-7721
7180
-6241
-9136
-721
-7553
9776
-6494
9952
-3778
-5655
8742
-1980
1862
-3365
1030
-5475
-294
-7442
-2770
-576
-370
7992
-1874
2686
6141
-7592
-9962
-2753
5651
4558
6561
-7470
265
-3782
5506
4348
-7201
-5272
-3265
4646
3629
-9332
2882
2840
1643
-6955
-3153
-533
-1335
1134
-2600
2380
9661
-498
-2494
5910
-569
-9344
8621
4212
572
-1507
8682
1448
-2755
4829
1511
-6492
4558
1258
-9007
8628
-5604
9010
4662
7602
5034
643
8241
-1838
4159
9091
-4851
-7302
-7307
-7999
-6799
-6361
293
-7769
4455
6613
-7487
-938
3554
-2043
4236
8830
4942
-9842
-5555
8619
9984
6532
3206
2115
1277
-5296
3474
2823
3328
-2613
-2599
-3378
-3683
-1450
9759
2943
-7218
-6831
-497
1927
5861
9628
4555
3410
-7913
-4793
-5306
-7032
1769
-2833
-7379
-25
-4335
-5348
-5614
-6759
7845
-157
-3185
800
-8359
-9184
1859
-7749
-2009
3053
-4410
-5665
3725
-8251
-6974
-6495
-8951
2842
-930
-7233
-1113
-2836
511
-5604
1801
-918
-5564
-5081
2789
8770
-5737
4304
-7418
5476
-3691
-2619
9933
-1898
-3118
-7765
-5069
8983
2835
7741
457
6905
-3107
328
-4217
-3800
3186
-1287
557
191
8141
4572
7607
9330
7158
6999
8471
-3003
8531
9034
6976
-719
-7405
5737
-7014
8961
-3695
4955
-9004
8473
-8679
4321
-3587
1783
7055
-8978
6070
965
-698
-5548
-997
-371
-293
-3851
8443
2429
1722
6236
6725
-2410
4618
-8893
970
-2402
8689
3175
9396
-7745
-7936
308
-4429
-2273
2269
9836
1075
5468
4251
-9899
-4170
-4319
552
-8919
-279
1374
-889
-5133
-821
-8805
9458
6641
8022
1797
-960
7292
3127
-6095
-2022
9900
2391
-9935
2812
4106
4990
-3280
-2446
4675
2038
-1672
3869
3628
9567
-2881
-8688
-1140
-4887
-1529
3158
-3546
4220
8941
3834
-1264
3839
1686
9768
-4396
5815
-7737
7192
-7207
-4377
-3214
7532
-2535
8967
-6087
3924
-1127
-7948
2334
-9189
9851
-9945
-3756
-7326
-6520
-7221
-7317
-2338
8516
6441
-3299
7194
7070
-3791
2972
-6398
8435
-4622
5777
4412
-5828
3963
3199
4145
1202
2014
-4046
2252
-7872
1069
-3594
-648
-5150
-8999
-832
-7053
7330
8820
1080
-1443
-2565
1102
-4584
2498
-7253
-7728
2855
8513
-9286
7310
55
-7956
5566
9317
5561
-6870
5236
-125
2388
1769
-1177
-6693
-3268
-1990
-6820
-5266
-6894
3132
5777
6141
7623
-1984
256
-5216
3158
-9944
935
3827
-7150
1028
3034
6439
1660
4811
6491
1414
-319
6129
2970
942
5365
-699
-1953
9284
2107
-595
-6484
-5129
-2665
-2573
8420
-2253
-259
-4438
1594
9304
-2667
9268
-6603
-8115
6614
-1422
9814
-7904
-8429
-7252
8206
3610
0
-425
-9302
-7305
-5657
3506
8609
-7115
4268
-4876
9299
3997
-852
-1303
-4625
-4954
9911
-5819
-4481
-9347
1877
5366
5997
-3789
-7208
6867
-7569
8287
3637
9177
2492
3692
3684
-6713
-8013
3112
5795
4122
9067
3399
3216
-4420
-5617
6343
-5182
8972
-1470
1152
2252
1433
-7552
2908
-519
1148
-8765
9883
-7171
-7761
7368
-1117
8039
3712
-4580
9676
-306
-5903
7083
-2892
-2075
6193
2736
-7417
7555
-5117
3669
-4544
-4454
4939
-2173
9184
4093
-4425
-8949
7172
8781
-6283
5750
-1155
3818
9032
9364
7777
-258
232
6115
-9391
2873
4454
7302
-2049
-9638
9314
7715
6698
-173
696
-1236
-3123
-1576
-1577
2523
5566
2563
-3343
-4864
5490
6581
-3782
2855
6445
6330
-8048
-450
4078
-8047
-121
-9462
2365
-6967
-3950
-5579
-6308
8874
-8130
-8093
-6426
6832
9103
-1387
-4181
2390
1874
-2531
-1671
6170
2653
-4452
9776
-4954
4581
-9953
3001
-2761
-6575
-1402
-7725
-5419
9036
-9761
-1543
-975
8414
5072
8592
-4918
267
-6970
-5350
-5023
4470
-4850
9840
9187
-1134
-5635
-9590
-8613
-9435
-2939
-4256
-6084
9256
-8475
341
7556
5971
4865
7414
-2311
-7666
6141
5823
7833
-7453
145
-451
1147
3181
3650
2030
-9409
4308
-6057
6524
9316
-428
8041
-2045
-5773
2533
-9725
1826
-2288
-8049
-4279
-8640
5266
9561
-2459
-4720
-43
-9382
-2696
5642
-1347
-485
-826
-2485
9500
-9210
1190
537
5269
9138
-164
6148
-7002
1260
-2271
-6381
6830
-3037
8505
-6892
-2056
7368
7805
-5437
3158
3982
4784
-2435
2134
3949
4687
-877
1965
-5921
-266
-6068
-2465
-992
2952
-5244
6200
-2645
7592
9365
6125
-6214
-6681
-5133
-950
4619
9688
-9757
-9683
9951
7217
3627
-8347
6199
-3122
2050
5500
-407
-64
-1691
3631
-6703
1837
-7847
7317
-1266
6140
1085
-8501
5084
-2455
9877
-8774
-9933
6639
-2727
5023
9757
3261
3387
6937
5611
-9820
1945
-3360
-7279
4361
-2221
-4683
4998
-868
1881
-6031
-9857
-2673
3867
295
-9918
-7124
4797
-9464
-8942
-3766
-7888
-6589
1583
7725
-7175
-5237
-3775
2067
-8876
-6479
8474
-2783
2175
2306
6959
1187
-4769
9287
5796
1574
-4043
1828
2118
4268
-9469
-2995
1622
215
2078
9274
6461
2055
-6104
-8657
-1138
6085
-6780
-9264
-1421
-751
4382
-8400
2615
5677
-9203
-1027
-8401
-7140
-8500
-8981
8782
-6449
-109
-6314
4866
6350
9783
1774
-5378
-4819
7084
597
9813
-4094
-5865
-6816
-3035
-3028
-1832
9442
-1799
-9864
-4625
5727
8797
7253
-2346
-4079
5951
9575
471
8469
9905
-2903
-2925
-2283
-9217
-2725
6884
-7562
-7725
-5235
3992
-354
6818
-3176
5485
-2444
5974
-7350
8694
8005
4405
-852
-8489
-4310
-3787
-9500
-9484
-771
8329
4377
7993
-2587
7257
3773
-9259
-7116
-7368
-9851
-8869
-4965
-6051
-9040
4046
4141
-4768
2638
-7966
-503
6488
-1330
5439
-4253
558
-8315
-5667
-6290
-786
8349
-5380
-5400
3400
-3708
-7941
9893
-940
-6562
4759
3012
-7842
-8113
-2713
3519
-5577
775
7615
-271
-5275
-4388
-8029
1420
-9896
-4868
-8045
-9230
-4811
-8980
3434
6653
-941
-9357
-2774
-4801
-5444
-1524
7973
7681
6655
-1995
9443
-4119
-6300
2598
-7990
4472
8119
1256
-8761
-9699
1748
-6919
5263
9070
4901
2962
3011
1541
-1901
200
5390
3238
-9350
1633
-2835
-5519
1270
-8639
-1462
733
2492
-9776
-7654
7291
2804
-12
5273
6802
-1651
9503
-323
-6669
9395
3107
6338
-7522
5944
-4824
-2104
-6522
1480
8933
7681
6241
-5736
2523
-609
4023
1470
798
9221
-9356
3115
-2556
-5938
