3933
8432
6932
-2673
4037
-1650
2406
-9948
-4456
5737
-8345
-9711
6316
-4392
-1967
2565
-8731
281
7526
9470
3995
-4272
-124
8870
1176
-3290
14
-5588
8240
-4549
-2353
-3808
-220
5508
3043
3321
8865
-9698
-6820
5627
-4305
-6037
-6166
-2179
-2157
-8827
538
6205
-8004
-7858
4078
5394
100
-895
-5316
-9570
-8303
-8509
-6842
-1623
8560
-1661
-3100
-7338
7824
-1385
-5927
-6702
5366
-7280
-9820
-3357
2546
-8179
7835
-580
-3740
-4472
2782
3503
4783
-6989
6988
-9700
-9945
7821
3147
-3422
778
-7512
-6024
-2814
160
5359
-5606
4351
-2927
9266
5056
8104
-9881
-811
1582
7879
327
-5537
-4517
1435
-9913
-24
9963
3990
3469
-9671
6607
7829
-3759
1152
-2597
616
-7411
2535
678
-719
-9956
968
9191
5563
-5946
8256
-6028
9184
-676
8508
8444
-4928
6305
7647
3995
-7781
8130
3771
282
-6535
5758
-8711
-8531
-2143
7313
6878
-6979
243
1290
1179
2750
-3634
2773
-3507
4539
5937
-3247
7853
3467
1093
3349
2523
7068
3042
5964
-8804
-1006
-4105
-4711
3206
8559
3378
9645
-2459
2526
1498
-4755
1615
-6125
-1805
8730
-9367
-3561
-322
-1221
1704
-6016
2340
-6470
-983
-2387
-982
6288
8954
-3631
8849
-6822
7449
2472
-8869
-6652
5686
-5154
5240
-5160
4901
-7603
-8860
-2618
-3852
2006
7887
7106
6728
5237
1258
-2346
1414
-7517
-4231
7050
-6403
3627
1293
-9499
9231
-9772
9932
-4612
-5272
-4202
-5092
6782
8817
-1965
-9994
9194
8060
9588
5451
3488
5758
-7515
4068
6646
-5115
5379
219
6457
-2955
-7480
-6763
3213
-8453
-1376
6931
6171
-8673
-5136
-2743
3778
5782
7692
-8712
-6436
4482
-5520
-7528
131
-9714
7748
9410
7806
5566
-6731
-1543
8285
-8944
-3674
-5984
-6982
-6786
5217
-5328
5067
-6871
1340
-1869
5857
7584
-8804
-6546
8451
-8741
7225
5184
950
7931
1601
672
-8935
-1866
-102
-682
6097
-9148
-9925
385
1337
7688
-3749
-5286
4227
9317
6452
4814
-8251
-3881
8888
7798
4040
-2445
2202
-4027
-1394
8149
1800
1133
6295
-8144
6508
-9725
2826
1153
-2331
-7180
-2299
2391
-3762
2452
6175
4685
2530
-9742
9350
-3884
7966
-9894
2396
-1983
-1516
-7925
1676
-4174
5289
5218
7706
-6747
140
7059
2845
5474
-396
3969
98
-3403
-4455
3927
-7424
-3208
7572
-8841
1906
5355
-2763
-9253
8316
-2692
-6522
584
5086
3251
-5814
7846
-4252
4853
9649
-2300
3668
1628
280
3048
-9457
-1384
-6799
-4132
2830
-879
96
3035
3362
1818
2241
2555
-957
-2625
-2385
-303
5027
-3880
-202
-3215
-9250
-4612
-1363
-4730
-6189
-7202
-1373
4173
4025
-9943
2555
-4884
-8179
-9202
5137
897
2668
-4500
4222
1939
2425
-3270
5612
2890
-2815
-1259
-8418
-9687
5654
6882
2944
1624
-7894
-5666
9800
5289
-6450
-3652
-2917
-7212
-3890
5493
7585
-6025
-7585
5310
7389
9193
4384
4327
6388
3862
3907
-2392
127
-5750
7690
8732
-1789
6761
1940
-8382
9254
-2693
7581
-1451
2702
-7844
7328
8561
3752
-2772
2226
-1470
-734
-1190
7151
8299
-318
5497
-7705
729
-5139
-1534
-9220
7692
161
5202
1356
3866
-6783
-9564
-498
1614
-8504
7207
-9756
-7751
-3838
-9052
-8262
-8306
8618
9858
9829
1845
-7244
6041
-9240
-7152
8103
-6452
1693
6066
-3052
1873
6888
-7288
-8109
6448
1089
-1148
-550
-8772
-8875
4019
9979
2775
1716
-2384
4536
91
2148
-4971
-4735
-126
6699
-6332
7466
3100
-6337
8055
8719
5474
-4728
2641
-6760
1692
-5983
1212
-1852
-8542
-415
-7452
2379
3794
-4927
-6591
-1320
-4574
-8883
-7998
-5543
8877
-7739
-2289
8241
-3566
1114
6230
5049
7190
2784
-6874
-3812
-3801
4548
-6591
-3155
7028
-6078
9897
8294
2119
2000
-1076
-9414
8834
-1619
8378
-3661
-6569
-1028
-9862
6568
9983
-1344
-3420
5434
-3185
7031
-773
-7615
9066
7348
-3557
-2635
2819
-3707
6677
-2372
3510
-4604
-6049
-6920
-615
-6366
3014
1245
-650
5160
-6875
2584
3816
6148
-8659
2263
-3008
-9652
-1000
-4577
-445
-5741
-1729
9566
1798
9680
-345
9928
9017
3952
5823
-8554
-6695
6311
2373
4500
-1091
-7402
1875
-9379
-8082
9901
4019
-954
-737
7781
-8279
-4571
6909
3332
693
-159
2590
3631
-1651
2898
-5459
1006
6758
5985
-5559
4077
3992
-5605
138
-9324
-1681
673
-8298
7496
-9458
9547
2964
-4234
1203
-4539
9987
-7806
1386
9172
7688
138
8572
746
6411
7189
-7716
2872
-8696
2253
-1819
683
9102
-2252
3809
2035
-682
-9322
4414
-4309
9766
98
-7014
3925
-9970
-2103
5158
790
649
4825
6654
-2427
-9256
-5621
8570
-7016
2199
-6646
4186
7165
-5274
9852
9855
5830
-7221
-3004
2083
-6355
-7253
-6258
-6892
-5517
-3253
-6982
-1929
204
-1962
-8285
-1705
-660
-7761
-2839
-2745
-7589
8473
301
-1525
1540
4969
-2903
7915
8623
-5166
6539
-2686
8499
-600
-3764
-484
1442
8947
4577
1985
-7310
3571
2382
512
-4127
-9434
6218
-8469
-8139
8973
651
-1463
-5091
-3220
7341
5758
3918
-8275
-4876
-9469
8248
2825
-2845
4758
-5347
6443
8689
-4592
4838
8081
2229
-5886
1515
9098
-4480
6833
-5054
6117
2288
-4123
1670
-9808
5642
8680
-7531
2586
-332
-9587
-2506
4589
6048
754
-6809
9826
9440
-848
-2257
9332
7807
7367
9664
-8033
2131
3365
-2403
5757
-6377
6320
8453
-611
-4015
-984
5766
7248
5299
897
415
-3640
736
-7222
-8121
-1038
-4433
2429
-264
-9331
-150
9293
-7663
829
-6298
-3984
-7582
-904
3152
4756
-2135
-9800
-569
6981
-67
7537
6849
6885
-9064
5411
4534
-9355
8726
9626
2844
6374
6286
-3346
6628
-7031
1288
-7344
4339
9904
-7279
-4573
4564
-5306
9494
4659
-349
9775
-594
-1064
9904
-3496
-4090
1455
-8793
-9738
-5130
-9251
-6070
7824
-6222
-2505
1675
-4257
-8103
4038
-5375
6819
1370
9332
-5823
-9290
-3479
-1254
-6900
4169
-8569
5564
-1476
6714
4329
8986
-6097
8208
1391
2035
463
-3662
-7721
2032
8664
-6001
-4924
6173
-4147
-738
-786
-4805
7550
3919
-8402
-742
-3266
-9481
-6690
1930
7946
-7653
2142
-9548
1258
6003
9629
3522
-5144
-7990
352
1440
4410
5310
6003
7627
-7556
4589
-2998
5493
-8510
-3007
-9566
46
-8810
3148
-5324
9769
1295
-3691
-1775
1040
102
-1029
3159
-5282
-9016
-9459
2045
2512
-1557
-9627
1227
9377
-475
-8042
3130
7385
6416
-3910
-4455
6420
-8259
3505
-3192
-2484
-712
794
-7613
5756
9853
7305
-9422
1446
-5645
5333
2865
533
4517
-8974
-2071
-1636
5268
-733
7392
4362
2266
-7777
-3898
-454
3112
-1730
-9954
3584
-8646
5712
1002
-6341
8724
-6000
-1424
3429
-7085
4065
-2527
7223
5700
8985
-9260
1863
9422
6291
8104
-3429
8535
-5873
-7340
9989
7383
-5202
8832
-7380
5355
-8615
-72
2791
-3783
5700
4467
4818
-303
9228
-2857
9086
-9708
2561
2411
-4450
777
3436
-3411
-5513
6053
8635
7734
1356
-3275
807
1760
-3795
-8790
-2296
7820
2296
-9799
8378
6442
-6455
7914
8560
-206
5761
887
-4283
5025
2887
-3085
-6743
-1082
-3905
4285
2868
-5210
-8987
-5390
-5846
-8818
6320
1267
-8459
-4159
5572
-32
9870
-1737
-6671
-2149
2095
-595
6567
-6727
-4776
8079
2828
-354
3931
193
7619
-6375
5196
9140
-4580
-9583
-8161
-6471
904
7182
-1932
-8126
-9919
9222
5894
2937
4547
3068
-2274
5166
6430
5590
-2515
8928
-3680
-1087
288
1297
-7925
-2839
9029
-5367
2469
2976
-4917
7471
6366
-725
-10
9036
-4500
4811
-4936
7161
-3084
953
-3273
-6518
-261
-8588
-3231
-538
-9825
6704
8805
2169
8516
-9195
-5139
9648
2417
8635
-689
-7665
1789
-9959
1358
9159
2457
-1690
1751
4825
-1976
-468
4619
8191
2415
-7198
1144
774
-813
686
8156
9118
-2119
-5591
1839
5060
-7347
-1189
-5625
-6066
3778
8468
9678
-7716
-1127
8202
3293
3921
-2712
8733
1055
-4064
-1384
1424
1339
-5239
4122
4761
-3538
6481
-1373
-324
288
-4744
9516
-9226
1092
9052
-485
6242
-8565
2913
230
424
96
-3551
-5284
9963
5058
-5441
8919
-3044
1036
-1837
-5656
-9331
-9717
-4817
-2825
-6837
1154
-8879
-7238
3551
-4617
-6744
-1413
649
2004
2849
3706
4412
-6359
-4327
8139
-7187
-957
2767
-8204
2742
4815
564
9274
-8997
-1259
2301
-5772
-5406
7299
-8846
-5048
8337
818
9546
-8469
-7821
1061
-1119
4031
-9403
8155
9149
-8831
-7823
6425
8982
-689
-1341
-8031
3137
-7168
9677
8793
6743
-1465
1943
4832
-6611
9254
9725
4361
7610
-5279
-2698
-872
-8553
1380
-6584
6932
-619
7119
-7197
-6526
6380
-8307
494
881
9663
9132
885
-5242
6402
4560
-4577
-9625
-3176
4528
-9678
8304
-5069
7403
8841
-106
7599
8278
-8571
-6214
6819
-8470
-8585
6172
9610
-6657
-5983
9438
-4557
-3552
1975
6598
-8049
9722
2488
-7819
6342
6503
-3047
-5826
-7935
7133
-2427
6180
-1848
-6339
-6978
-5895
-7865
-2401
-873
-2507
-3528
5243
-75
2105
-6855
-691
9471
-2704
-8560
491
5428
9489
-145
8068
1705
1349
-5339
4738
-637
5121
-5121
7664
2455
-1775
-3775
-4959
8692
9321
5064
-4528
3511
3893
7500
-3897
586
-210
8382
4639
1809
5255
425
-9698
-4583
-5372
-5472
9178
-7798
181
-1027
-9335
-3331
2546
-2561
3273
2477
6647
3514
-9393
9689
-4678
2935
-8844
5086
-1462
-6213
9269
6239
2594
-328
8864
5007
-9294
1137
-3718
-3195
-5922
6623
4220
8236
851
5793
4775
-2391
-743
-4708
6337
319
814
-183
6488
4296
-337
9850
1014
9414
-5160
1477
7761
9221
-6213
-6584
-6689
-6694
7415
-8266
-9709
4310
-276
-6336
3666
-5155
8249
8526
5430
-3557
5622
5974
8861
-4740
6951
-411
-4097
7302
3016
-2662
4167
-203
-4971
-520
3719
-5334
3109
-812
8004
-4870
-2254
1535
8159
-2941
1105
2398
-4557
3011
3436
452
2617
8753
-1342
-7373
-8134
-397
2852
6197
4173
-2947
-499
9213
3131
-5055
-3886
-5054
-5324
-1194
-1632
-4155
3560
-7982
9849
7762
-2791
-1874
8252
-3827
8068
9846
-7894
-7281
-3269
-7749
-3899
-7400
-218
103
-2412
-8848
-1251
-2503
2008
-8560
9465
-8338
835
-6238
4824
-7727
2005
2640
8079
2547
-111
-2729
8770
-903
-492
7285
-1197
3762
-1965
-2676
2333
-7435
-4500
-8921
-147
4393
-3792
-1659
4223
5239
-7455
6995
-5584
-7488
-6375
6036
-8707
8401
-7305
-4661
9040
-8737
-767
-6704
-4292
9611
-5631
-5641
6790
-5353
1547
-4893
-3068
-5945
-1709
-315
6518
-7592
9452
-6725
2357
1595
-2445
-4266
4559
-1499
1558
-3410
-4593
-3476
-8092
7325
196
2593
6668
7181
-5069
-8080
-8687
4693
-8796
9041
2965
8740
-5258
-4395
-1117
97
-9181
-7193
8460
-2676
-2904
9635
8258
-752
2450
6750
320
440
-1034
276
-4490
-4273
-6531
-211
5610
-4870
-5077
425
-9366
1639
-5613
-9681
-8930
712
5459
-8572
-1260
-7334
-5219
4406
4471
6950
4584
-3761
5981
-9267
-7737
-6824
5152
3295
5506
897
-9667
-7485
-4156
8839
6300
-70
8252
6247
2271
-3043
-9994
3850
-3443
-3681
-1965
-3137
5459
-9984
-9180
2603
-6465
-2042
8197
-855
-7514
9850
-9564
153
6818
7035
6577
5529
-4238
627
-8738
7401
-6976
-2299
9098
6758
-1355
8173
-3815
7192
-9508
-8351
9430
-822
-3140
-4326
6129
-9201
6217
-5284
-1451
-997
5303
2594
1317
9210
-7446
205
-6993
516
-9683
-4922
7517
-1272
-3693
9629
-4232
146
-7517
960
-6343
5257
7772
6575
-1595
-6627
-9944
7668
-7921
-3176
2312
4409
-1484
-3577
-1930
6147
-2188
-1311
-7971
-6495
-8830
9710
3230
9068
8152
-9414
-9866
-1293
-1786
4957
-342
-3516
8906
-9513
-4418
2744
4269
2974
-4452
7154
-1397
-5632
-9457
-3726
-6741
-5971
5851
-1249
7019
6423
8300
269
4260
-2233
-8961
5106
9347
-807
-5856
-8531
-9443
4652
7016
3770
2314
8031
6841
6559
-9331
5844
-3702
-7979
-6397
9402
-6729
5829
5239
3502
-4515
-5437
886
-2576
-6224
1968
-1437
-1549
-846
-8885
1820
-1867
847
4732
8603
-2847
5213
-2920
1301
5925
-1321
-2828
-5659
4972
-8185
-4498
7336
-8389
-3798
4125
-5760
-2354
898
3525
-8154
-3456
-8837
-1314
-5287
7929
8450
1545
-2281
-7711
7825
-2662
-7631
9395
6540
-1747
-1527
-9738
-4126
-529
-1108
4284
7236
9794
1815
-9195
3095
-8027
2383
7417
3456
-3772
-6539
6159
-570
4608
3979
3084
6847
3492
2513
-3234
-5057
6878
-6410
-3118
7760
4088
-5237
5367
-677
2066
-6433
9436
7409
-5329
5195
-1638
-4527
-812
4153
3996
-2718
-6233
6073
8843
4763
8522
9525
4801
5892
7809
-8102
813
6548
-8550
8250
8226
-2057
-1301
7582
-1018
-508
286
-2985
-6377
-4026
-8910
-8823
-6359
-2683
8826
1415
5826
-408
2609
7447
-4954
-3474
-710
-7321
6278
2337
5214
-6325
-3239
-1309
-3620
-5899
-5286
-8714
-9124
3958
-7569
-5123
4155
6060
8368
-558
-187
3392
-4583
4787
6424
3430
-9334
6028
-5535
8411
-4239
8208
-3653
4204
6321
4727
7413
-5341
-6068
-8682
5970
-6829
4841
4959
-3545
-1317
-4199
-4544
-8609
9475
-663
-3715
5013
4809
-1702
924
-5765
-8117
-7360
-9004
-8867
-6494
210
3391
5186
571
7649
4977
-6795
-7433
-2421
5485
236
-702
3876
1930
5672
-2546
8117
-8848
5383
6744
7128
-8989
2895
-7881
-5842
-4645
-9533
-9110
4295
-7016
-5617
6623
-1479
6703
-2152
5223
194
-5040
-402
-7090
-7197
5569
-3358
-9358
-1594
-1201
-4459
5022
2521
5284
-1805
-8161
-6921
-6752
-4698
-4871
-1439
9000
-6476
2031
3645
4905
804
1658
9387
-226
-1592
-5150
9397
8080
-2076
-9104
-6516
6464
-3163
7204
5881
-1375
7198
-1664
-3559
-6968
-1464
1979
-9936
1826
8330
1163
2182
3784
-8758
4362
6222
9430
1679
-1850
-7233
2189
-6537
-9350
9517
5864
-5050
-1685
-3796
5799
-1597
-6650
9178
8765
8281
4683
6768
4884
4761
-8584
-1703
-6136
-4053
4457
7241
-2661
-4874
-562
2131
-689
7839
1920
7535
-2542
7623
-5389
1924
9537
-1008
-4561
-827
1137
-8419
5323
-3856
3705
286
4840
-9957
-4898
2860
-9813
6131
-1161
8596
545
8921
2712
-407
1324
-1904
2719
-465
-9266
-5819
3957
3999
-9231
-1595
-3391
-8969
7917
6154
-7813
1019
3774
4142
-7113
-9070
1211
7614
-4828
9436
7895
-4137
-2316
6819
5660
1799
-6925
6204
-8370
4511
-6421
1288
4924
2466
-9100
9687
-8517
9461
2449
818
8667
-4604
8007
-7492
-8730
9614
-6456
-8488
-9023
-4170
-7733
-297
2475
-5474
6857
-136
1130
-8729
-8573
-7089
-487
7499
6892
1771
3051
4111
-718
6263
8706
-2387
6879
8000
4771
-6454
-783
4711
-5181
2621
8535
-714
4234
1201
-7300
465
-6037
9698
7433
9296
2766
9971
5304
8281
6711
5951
-920
-1342
2541
-9530
7846
5265
-9749
-4304
5746
8222
9372
-5413
-4801
5917
-6610
6400
9172
4811
7149
589
-9617
8118
3264
-9699
-819
-2379
-4737
-789
6491
-9246
-2444
-6414
-6695
8488
5330
-4802
4038
8684
1059
-9836
7508
4245
-1436
3758
6308
-4231
-9568
1912
3057
4329
-9908
6370
282
-8376
-4071
-7604
-358
1885
-8410
-4608
-4282
-7140
-6008
5993
9811
1538
8511
1938
-38
-5545
9477
9391
-5184
2059
-6711
6484
-8918
-7999
-8610
-2607
6907
-2885
787
-3380
-3121
506
-9088
9993
8219
-7700
-2613
1436
-7626
-9525
-4403
-7306
1254
1675
-22
-3008
-6665
6938
-1482
-3026
-8906
-8002
6233
2295
8438
2184
6230
2904
4395
7844
2457
-9717
-2380
-2160
-5647
-9152
-4741
-4152
358
3217
9213
-2952
4603
-5819
-6972
-8772
-933
6992
-6548
-7585
2133
-9978
-7876
-5152
-6278
3757
-5105
459
-3041
9886
8973
-6037
-3033
7351
-8619
-1766
-1663
-2743
-3875
4898
4670
-9021
-7935
2844
-4081
3976
8603
844
2203
1587
-7866
-428
6487
2471
2627
-7034
-7393
398
6766
9276
-9866
-4292
-8286
-1961
-7033
-5956
-8078
-9177
4669
-8132
-9713
-9175
-9658
5760
4533
-814
-7863
-4317
-142
4359
-6448
1107
-308
4988
-3780
-6617
-2153
6389
2169
7632
7375
6134
-5605
-6786
-5868
5136
-962
-7025
-3659
7254
-6356
8474
5404
2609
-2362
-9169
-2289
7680
3568
-4973
2406
-1345
649
9244
5876
3630
5718
233
-9876
-6046
-8986
682
-740
-4685
2975
5278
6023
5173
1837
-1664
8534
-5319
-2188
7818
6402
-9534
-3531
8104
4882
-5528
-6745
-3081
-4065
8523
-4942
-9268
5845
4329
-4608
-2771
489
-599
8953
-6485
1377
4627
1229
4359
8298
283
9245
-3935
7656
-6258
750
-1607
9558
-5557
782
-426
1232
9468
6985
7497
9531
-3465
-1993
-5987
-8890
-9718
-7070
-1402
-4762
2493
3917
2753
-8681
7142
-859
-2957
808
-2814
-1497
9031
1567
1555
837
2237
1582
-1954
7959
-6268
8553
-9413
8323
-8814
-7980
-2107
-8961
-1079
5497
4526
-416
6893
7513
-4868
3836
-3384
-7495
7931
8853
-6404
-4820
4539
9360
7204
5301
-291
11
5744
3698
6847
3204
-3001
4951
-7013
-1378
2735
7289
307
-8349
9355
6108
441
1430
6297
3892
2462
3539
8834
6401
-4196
7182
2518
-7351
-4684
2225
2831
4514
7240
-2447
-4542
729
-7900
8945
-9850
-445
3314
2039
4282
-5372
8849
-6058
-9044
9272
-2772
5640
914
-4036
8995
-3348
-2419
9725
48
3140
-9902
6888
-5845
1299
-9387
3946
-1365
8843
-1129
-4826
-654
-774
9736
-7782
-1065
-4430
7397
-5945
-4180
-5743
-6221
1504
396
1750
-1918
-3091
9714
-7518
9394
-3351
-7830
-9549
4948
-8154
9731
2731
-7122
878
6806
9140
-9765
6293
2037
-902
-5482
-1767
-7826
4049
133
-3348
-4391
1829
-29
-4536
7263
7932
-3341
3088
6191
-2074
8107
6008
-7377
5073
7575
-5429
-7881
7753
9763
3586
-8909
2346
1350
-5805
147
9019
-3120
-1968
-444
186
-919
-105
4562
-5570
-3548
-9091
-2568
2262
339
621
7701
4353
8769
-6489
2558
7717
4916
-6950
-4850
831
-5613
-5199
-9770
-5220
-2624
8904
3779
-5750
-733
-8101
-3961
9575
6412
7987
5843
-993
-7420
656
8279
-1011
-4054
-3031
-2669
-492
-3424
8940
557
-8632
9896
-965
3784
-7191
-6980
163
361
-6062
-2378
4459
1784
-762
-4394
-329
-5740
719
-8055
-2809
-703
-2669
2834
1536
-4547
9804
-3269
-2486
3097
4396
-9210
-1632
4368
-6200
5977
5880
6468
9046
-9730
1684
-1987
-7725
1357
-2013
-4627
7023
-2269
5452
8765
46
173
6158
-3689
-3356
-5505
-9648
-1649
-9883
-9323
7142
-5941
-4811
-6327
-8646
-2352
-4900
-3290
1371
-7502
2574
-750
-3804
8076
-4033
-1391
-6218
-3272
3630
6807
7314
5255
-8068
2338
-8734
-319
5298
305
4831
-9384
-9687
-6197
-3167
1427
-9891
4403
-6840
1694
186
282
5556
-5616
-7767
-3240
-1184
-3187
-1319
5957
-7606
-7380
7456
9763
-7991
-5182
3715
-6533
6942
8474
-6595
-3839
9593
-4383
-7968
8456
-4772
4684
1330
-1987
1951
-7803
6327
9073
-6419
-4784
5811
3457
-8602
9828
346
7345
4708
-6982
3673
712
-5331
-6832
-4275
-5574
-8992
7892
-1525
3778
7094
6944
9434
6623
5223
2690
-8128
9302
-8990
958
-4338
-5798
3517
1021
8204
9037
-4007
-4932
-9074
-125
-8972
4703
3620
7374
3520
4888
-3710
-1027
-5004
4133
-3932
-1626
-6405
-6102
-4523
-1780
5548
9802
-2510
1771
-4067
2648
-7282
-4924
9198
-1863
-5451
2406
-6693
-9198
-821
4603
5151
9885
9195
2510
9590
-7334
1765
5807
-505
4256
-4568
1335
105
-8034
-6832
4400
-2652
-3016
-6426
1545
6847
6532
6931
-6051
-1949
-4440
8366
6855
6152
-1384
6436
2355
3464
9812
2253
342
1406
-8471
1552
-4378
-5524
1044
151
-2095
-1642
-1674
-8148
-4146
-4237
-2081
7041
-3699
5614
-6788
171
-4535
-6079
-7678
4714
241
7910
1397
5371
-5486
-989
-6616
-1000
-2018
4712
8088
8111
-6851
4622
2866
-6206
-152
-8251
-7676
8471
-3892
6512
126
-6766
-813
8036
-3635
-750
-8789
4913
9849
-1672
160
-4011
6325
3764
8821
582
-9234
9381
1849
7171
4772
-8010
-5780
-330
8545
-9454
-6868
-8695
967
-6162
9826
7480
1074
-2193
-2240
-8937
9479
-6552
9269
-3776
9324
-3239
-5879
-9729
-7142
-6724
-9809
-3202
-7995
1488
-886
8072
9068
1833
-2195
9726
7214
-9134
-9397
-3362
9413
3901
-3886
-4707
9290
3628
7898
4997
-2398
-2963
8766
7962
-5951
-1464
-5278
-3417
5718
3212
-3507
5184
-9363
-9057
-5899
-6962
7759
9415
3073
5617
3185
2126
9658
1899
-3548
-3978
6811
-3102
-9524
2674
-7260
-9289
-5939
-3209
-573
-2002
-3190
-3714
-168
-4855
-7110
-699
-636
6261
-7693
-4705
9733
-6269
6159
-355
-8558
4206
5810
4256
-5072
6741
-5001
-9767
9801
6155
-1381
-7082
6595
1835
2217
4513
6116
9775
-7760
4897
-2243
-5971
8594
7454
-9991
2621
8378
-6584
-6049
-7436
-7640
5595
-6380
-1262
4345
389
5941
-7729
-2414
-4482
-2692
5413
-7890
229
3886
-8012
2199
-5448
-1594
5164
-5816
-5339
-2575
7615
1292
2543
9994
3012
-5454
9896
-8867
-7598
6456
8519
1666
-5844
7811
-7496
9813
2007
6843
1078
-803
-7910
-5146
5267
-6938
6961
2637
6320
5106
2276
-1942
9405
3552
53
6658
2164
7059
-8578
-5550
4439
-1471
-8726
-5199
2872
6040
7450
9863
2070
-1085
7842
-9006
-7399
1273
-9741
2380
-4623
-4472
1944
-2594
-8183
-6166
-1693
8216
9654
-3168
-6285
5580
5411
-4092
1151
8290
6251
7684
2075
9226
6326
-2350
-7020
-1353
-4302
-6454
990
4334
-6474
8590
7226
-7038
1476
9573
3719
7358
8143
-4450
-2638
-9685
762
-906
2648
7142
-3357
4009
-6088
6439
-6556
-9135
-2719
-8706
-5205
-5100
-7193
-8335
-4227
9616
7954
-7269
-8679
-6257
-4879
3724
-36
-703
-2123
7073
-4971
-5880
3291
8668
6060
3494
-8954
-3388
-5748
2409
3890
8054
-2582
-7520
-1355
1527
2446
-4250
-7972
-4361
-3890
-8679
-8526
4102
8749
-9831
-2533
-8240
-400
8527
1013
-3417
-2659
856
-2475
8623
5004
9685
-3311
8431
4436
1519
6844
4692
-7730
5512
-8087
-6345
6732
-5241
-891
-8623
2589
8810
-3511
3912
137
-9546
769
240
-6590
-243
-2051
-1885
-7385
-5919
1895
3913
-3682
3990
-587
4205
-30
-8078
-5821
8919
9177
-7056
6527
-6159
-1600
5139
-8787
3631
-1187
876
1093
-4346
-7354
9630
-8897
9535
-4426
-1938
3927
-2166
3566
3658
6480
9025
6131
4580
-5440
-4309
3968
-9827
-7976
7931
-4200
-5823
334
4930
-3486
5806
4536
-4033
-3267
2615
-7505
6338
-7461
-6522
-4319
-6684
3325
28
-8175
-7424
-4386
565
2427
-3435
1137
-8346
-8559
-7222
-1339
9598
5326
2159
665
-3536
9293
-4313
8473
-6570
9639
-9383
-7690
-1883
7967
-3010
-3547
-8178
9447
-322
3843
7683
4355
1587
-604
-8571
-209
-385
6725
2602
-3214
-3512
-840
-3898
6925
8887
2575
-8666
2178
-4973
-4960
-517
-8224
-6645
6152
-1872
813
-1878
7668
-3163
6658
-2753
6146
7412
-8717
3266
-1706
-1918
-9641
-898
-9868
-7798
3205
-3044
-7770
8956
-8365
-9135
4991
-3985
289
-8740
343
-7704
-3772
3352
9159
2736
-8681
-9764
-2622
6349
-2541
6297
-2013
-6107
-8377
-3104
948
2112
-4509
-3840
8579
-2227
2647
-3579
56
6612
-4672
9918
-4568
-138
2161
-3671
6915
4103
-1363
8046
-6831
9044
2705
9304
-9048
-7866
9467
-5134
7747
-984
852
9384
-1216
-5582
-1056
9491
2430
9364
4854
-2789
9018
-2504
-984
5568
9866
-4216
-6734
-4954
-4299
3101
337
2997
6597
3843
2097
-2737
-782
-6784
-5639
-142
-8664
5810
3114
7008
8518
9749
4709
-2266
-6677
4931
817
-5262
3454
-4192
-2067
-1360
2112
-3335
719
-669
-8923
-9512
8686
-3243
-4909
1291
6471
-2506
-5281
-5825
-549
-6832
4075
7374
8429
-7857
-304
6270
-154
6816
7316
-9496
-8763
-4521
4432
2328
-4382
-125
-1773
-3204
-7004
7450
-9124
2523
2395
728
7162
5588
-6387
-4683
-7008
8439
4272
-7208
-2394
-9202
-5103
5004
7193
-9899
2302
2333
3043
5367
-24
-31
-6478
-9785
2994
3546
-4098
-1705
4623
8256
1405
-2422
1867
4032
4844
-1350
-1921
3478
-1169
6596
2159
-1065
1771
6084
-4093
-9610
8750
4870
-6237
6898
4842
-7759
-7479
-9212
1561
-4197
2454
6074
8859
2536
5905
-9576
-2535
8179
4519
-6631
-674
-7214
-7850
-7362
-2440
9681
6832
-4867
-8479
85
-7655
9410
7483
6269
-2532
2511
914
-7557
-563
5546
2428
-5592
-3060
9636
-3753
6576
-2388
-3311
7365
-1931
5126
-2121
-8401
8374
-8211
6857
-8698
7489
3975
-5641
-1203
-4580
9798
-3764
-595
1601
1053
-2076
6459
6078
4825
-5120
-8191
1125
4023
-9218
-2971
4579
-9301
3085
2952
4248
1142
-988
-1892
-3460
7599
4090
248
1868
7822
-9860
9434
-5600
765
-171
5943
-5668
4377
996
-8178
-2789
-220
5430
-9033
-3366
-5004
-5958
9383
-5760
-8990
3188
-5378
4032
3038
5383
1387
6825
779
1667
8930
-4976
2736
-7331
5056
7959
-8139
-9317
-8531
-6364
-7641
-3932
-4360
4033
843
7840
-4486
-2009
-1060
-9450
-4902
8211
8981
-2651
-8659
7099
9635
-7353
5711
-128
4082
6786
-2517
2818
9792
9918
9960
9580
-3975
-7437
5801
8955
-7199
6316
2983
-5948
-6532
9736
9179
-5560
-8182
1646
8959
-9466
-5644
6927
5666
-7459
8432
8344
-2263
5089
7770
-7999
-2081
-6926
-1638
-6245
3024
-5784
9724
-757
-8259
9547
-769
1121
8505
4253
465
-6279
2577
8203
-9449
7500
-6843
-1944
-4116
-6455
3768
-9086
940
1784
-7856
3340
-9424
-4291
-4601
8868
2687
-8951
-5408
2215
-4830
-3758
-2420
9032
-1272
8428
4579
6289
-4525
357
-3018
293
-7894
715
-3335
6860
6031
3306
444
-8708
-6986
-1108
2287
-5391
-4349
7637
-5501
-3156
3475
-207
8371
8255
7512
7565
-5373
-5053
4755
-7886
-5549
-3355
1407
-3838
-6911
1303
-2430
4949
-353
3695
-9310
-3948
-858
-6686
-9815
2080
-4162
-9325
-8467
-662
-9520
496
-5529
-9789
8329
-4740
7057
7444
-277
3295
-5004
-5656
-9625
-8180
-6088
6589
4791
7213
1239
-1479
2846
2394
3878
-416
-3022
4235
-2008
-4886
-4575
-7201
-1903
-334
5558
-1510
-5962
-9127
-9413
-6673
-3530
-2933
2764
-1900
-5821
2939
-3233
8499
9829
-5978
-2053
190
4696
3027
1983
5303
7457
8914
-5243
983
7314
-7036
4282
-5611
-2485
-4723
-9824
7945
1747
-193
307
3659
2977
6325
-779
-4049
1914
3745
-1657
8735
650
757
-5853
-5610
-4103
-3039
7145
9710
-4170
-9500
-8009
-2801
4704
-3319
-3102
8680
-9791
-3890
9267
-7250
-41
616
-6398
7484
5585
547
7652
-4444
5529
-2017
-6732
-9882
-9030
-3001
-512
6751
-6756
-5689
7185
-734
5649
-8525
6921
-4703
7716
-6746
-5353
1413
-4188
5877
-6468
-3147
394
3589
4414
-17
7275
-7760
-7765
-7704
-2109
4622
-8704
951
1947
-6159
-1662
-7191
-5320
8190
-885
410
-9468
-6101
1535
3508
5242
473
6447
8503
-877
-2447
-4300
2566
-4266
-8188
-3578
9212
-7779
-2178
-9727
-2229
246
7741
-3083
433
-237
1257
-7890
7482
-8239
-558
2495
3802
754
-6010
-8412
-2060
2841
-3204
-5599
-1277
1066
-6138
-8193
-6129
-3817
-7716
-75
38
7982
-631
4722
4352
-9947
8890
-2498
3827
9071
-8904
3027
-9116
8742
-9751
-1157
-9257
7969
6361
1617
9617
-6925
-3795
4433
1369
-5352
-7236
7460
4710
-8936
-7970
-6255
3052
-7270
-8657
1713
-5265
-6194
4453
-3552
-7359
-8534
5055
2898
-884
6660
2754
-3992
4597
-5089
-6735
4969
-3459
-9167
8078
1946
-1049
5905
-2051
9107
-7704
-4602
-785
-7883
8504
7435
-7658
-6936
-3516
4874
8015
-8682
9796
8926
7684
6880
72
-7587
2673
-2416
7230
-9906
-1178
8815
730
-6327
2046
-7544
4855
-120
-5680
308
-4593
1481
9253
-3414
5225
-6910
1825
3800
1592
6337
-2278
-3007
-184
-7714
4363
-7748
-5756
-7157
7902
-2708
422
7533
8270
4171
-9713
7147
-2138
7237
6027
-8442
8482
3004
-2311
-4526
-4069
-7098
4553
-7096
1865
4682
-8974
-1195
8641
-6190
-6013
-5321
4295
2181
508
-6181
2136
-1619
-7700
-8557
-7803
916
6429
-4862
253
-6022
-9355
1836
-5765
3786
-4040
-1025
7504
-7091
9260
-479
3874
9715
4273
-6739
-9863
708
545
-9995
8494
-5499
6944
4320
-6519
-1981
8759
5942
-4225
7813
-4442
-4815
-1199
-7591
793
-1519
3052
5165
-6496
-4389
7829
1447
7475
7216
348
-1325
-6094
8886
8215
-6622
-151
-3620
2772
-4531
6622
5514
-1935
-3311
9896
9769
-6991
-2469
6295
-1177
-7212
-5041
-9853
2075
-419
1840
-1621
2612
2462
8244
-8386
9114
1604
4623
5115
-4098
-7094
7396
4550
4598
-4272
-1456
-1590
4843
8652
-7415
-8571
-4018
5964
-3344
-8454
-3090
1071
-7604
6633
-3012
2120
1971
6711
7402
9781
4806
2302
-614
-2479
6433
274
3386
-9390
6382
4779
-8409
1735
8151
-7231
-4897
8262
1002
-8878
-3334
9013
721
-4462
9959
-3055
4471
122
7321
8115
-6553
-8997
9171
-2904
6319
-2698
459
4271
6300
8484
-7878
1473
-4867
-1689
-1128
8934
8459
2560
-1475
8773
-1262
213
-7354
-1931
-5778
5880
3475
7997
-4434
-4906
-2127
4645
-4849
-6575
5464
1758
-1463
5436
-4770
-3933
-7729
126
-7582
1747
-2228
5746
-3990
-7787
-2859
-1153
-4139
-5457
-6522
-154
8187
4822
-4368
-9385
8282
980
-4668
8314
91
3907
-6763
4123
3759
-2716
9678
5519
4261
1890
5753
6409
6942
-8848
890
-9311
9074
-8800
4145
-8315
463
-8982
-1800
2482
-9291
-4012
7425
258
5855
-8329
4339
-8485
3034
3709
2396
4520
-1946
4453
7326
-9725
7999
7242
-5953
3925
-1436
5233
1700
4915
-5902
-6746
-4529
-4066
-2631
-1653
-9439
-1657
-4519
-2470
-8897
-5137
-1345
-268
4721
-936
9321
-7042
-7874
-4386
-9560
7440
313
-4732
-6025
869
7850
4198
3168
-7260
1166
-1442
-4469
1450
1929
2051
7374
9998
-2704
6818
-4656
3913
7197
-3938
5458
8579
-4184
647
-3901
2141
-2003
-8726
-2305
-5089
5622
-7171
9006
6508
3791
8231
7507
-2029
2161
-4726
9698
7568
-7076
-8099
-3871
-3629
3610
-7092
-4595
-7665
307
4119
1693
-9755
-5186
-1058
988
-1171
-2070
-3450
2856
6143
282
-9021
-3580
-375
-8058
6066
-7985
8150
-7396
-7575
-6738
-9918
-4794
-456
8206
-6597
7575
8638
-7248
1960
9106
-13
4764
-4766
2398
-7711
-6950
8143
-6542
-9031
-8191
2144
-1744
-2644
-1757
9147
8333
1324
-1348
5788
-6393
6252
-3330
-2857
-3342
-2954
6194
-3809
-476
-509
1156
-1831
1368
-7653
4391
7397
-6602
2371
8735
-1733
-4001
-3163
-5139
1756
-7659
8140
2416
4212
-7514
762
3730
6040
-7381
2053
2616
-5423
-4947
5276
-5226
-2396
6440
-4175
785
1785
-6013
9669
-2061
3788
-7580
6895
-7151
-9087
-1873
-7462
-6666
2772
1060
1982
-4992
5895
9918
8826
-4251
-928
1572
9356
9501
-1134
-8169
9711
9795
-8110
1361
9309
-7099
3321
-2012
-2739
-9253
-471
-5495
-2744
4499
-3171
9837
-9164
-8863
8052
561
-1076
-2595
3952
-324
7194
-1777
-2574
25
2095
-112
-4863
-9138
1229
-7625
3296
-2234
-5654
-426
2213
8560
-689
1465
-2331
-9234
1218
8062
-3728
-178
2175
-8647
-3365
1505
4326
8534
-1439
6841
-666
-2481
8379
3307
3787
-6050
153
2222
1916
7960
-320
8971
-5511
8388
-8938
67
5949
-7614
4057
-967
-9403
9133
4505
1731
2985
-2179
-155
-9035
-2199
-7933
7051
63
49
-4314
-8685
-4338
-2291
7943
-9697
-9039
-4135
-9576
-8882
-7470
-6119
2147
4865
6067
5296
4769
7197
-499
-6077
-4511
2287
5451
8972
1716
2417
-684
7125
8616
-4346
-5932
-9965
8283
74
8393
2068
-2347
-5420
-9135
4974
-8858
-6473
-382
-6328
-6415
-4733
4337
507
-814
3113
-4629
-5872
3035
-8649
-6630
-6570
-6865
8602
-7863
7178
-7042
-3771
-2816
-4576
7220
-9669
3010
-9813
6850
-7418
3237
9756
-6928
-2729
9435
-6552
5063
9782
6887
-8169
839
5215
-1504
-8786
6776
-5099
1643
-9467
-2329
-6715
7098
3860
-3773
8010
3858
-7661
8582
-8055
-627
-4332
759
-2506
662
-4874
9842
777
8599
-2345
-6705
-3954
-5017
3652
9905
-840
23
9931
-3234
3098
6473
3642
-1996
-1912
-4138
3019
-6872
4343
-7819
-3554
5465
6334
8830
2578
4500
4074
-4229
1212
9831
9152
-4463
7025
-968
-8954
-837
-3447
-3142
2712
6046
-7540
-939
3549
-4630
-1395
478
-7503
-9030
4379
-5854
4417
6395
-2500
5805
8831
-7626
625
6556
1648
-4981
-844
5243
-2213
9879
-4992
1787
-4637
4262
4352
2804
-9384
-1760
-3926
1681
-3205
3420
2050
6686
-32
-2258
465
2746
-9985
4430
-1098
-4784
-3947
3775
5323
7229
-7906
-2552
-8094
6202
976
6862
9182
-463
-7590
-572
-3832
4818
4446
-493
-4176
5573
-3205
-5433
4700
-9951
9039
-8826
526
-2410
7236
-9591
2242
4812
-1746
-2265
3179
-7907
-7172
-1538
24
-176
5534
-3287
-2300
-6578
-7334
-6860
3454
6270
7484
4629
-7784
555
-3579
7866
9660
-2603
9449
-2176
-534
-269
-6747
-7828
-3140
4051
-3299
3023
1864
-9548
4796
-1407
-7510
-5700
9401
9045
696
-2535
2920
-6770
-7933
-7840
4572
-4092
3880
6282
-2057
8767
5726
-4443
-6753
2714
-8238
4831
8029
3796
-5614
-1440
6029
629
5388
-1200
5465
-2730
2489
7984
5260
2262
6726
-6731
507
-8096
-696
9445
6978
3801
5253
-1798
8517
5374
5684
2929
901
1223
-9601
365
-8922
-6878
8296
-7036
1609
6900
-5719
9276
6804
-8407
8230
3472
9150
-2059
-5815
9730
-7454
-4242
-4040
-7616
2264
-7417
9246
-1492
674
9721
9607
6073
-7574
-4021
-9211
7825
3183
-5743
-1531
-1273
-8093
1690
-9241
3122
-1722
94
-1268
6681
-5919
232
-2268
7741
174
798
-6625
-7149
9143
-9025
-5069
-7898
-2191
4037
-6838
1286
3477
-1247
-299
9931
-6850
5109
720
6976
-4151
1503
8909
9137
-5169
-8479
4630
-9065
8640
255
-276
9899
7794
-7535
-4511
-4317
-2654
7796
204
7548
4666
-7978
905
1187
6483
-2642
9181
2835
9535
9903
1374
6339
5184
-2362
9864
7140
9880
-1412
-6019
6042
618
5491
6633
-4786
-2692
-9356
-4109
-994
-7518
-7388
-527
3030
2831
-4895
4588
6300
-3256
7540
-4513
-6668
-2607
6697
-3202
5773
-8148
-670
1973
-3580
-6696
-3238
-6947
-7613
5607
-5825
-9519
-1187
7347
-306
-134
-433
5906
1367
6324
-2689
-8782
-6272
6453
1632
3550
9877
3004
1058
1
-97
-2041
2396
338
1899
5980
9195
-5578
8023
-7863
-1
626
-5306
-4748
-3349
-2470
3461
-8548
3064
9580
7042
1204
5680
-8445
-6395
7537
-1739
6300
-8335
-6819
5711
5615
-2194
-24
-5677
5044
-103
5202
9075
9993
9638
-3656
-7356
2728
9980
8331
-4785
-2321
5302
5487
-515
-4065
-4708
4093
927
-1123
-3005
974
-90
-4392
-6180
-1555
-752
-806
-4913
-3330
-1508
-7353
5240
702
-5486
-2798
7927
1401
-3098
-7386
6907
-3073
6231
2072
-6898
4660
3430
2734
5087
-7818
-715
-2991
-1028
-9710
-5462
-586
2768
1135
3090
-858
338
111
-6497
9463
-9630
-8536
7262
-8362
-2965
-5537
-3746
3247
-9317
9491
6374
8680
9289
1565
-547
2939
-5630
2540
-8610
-940
8693
-7292
-9086
-5894
7347
-2572
-9660
-949
8587
5175
7442
-6185
-3615
-429
5834
-9703
2697
-101
-9842
-6531
4241
2153
1973
3398
5865
5745
-7614
-428
-9315
-191
-1756
-7092
-4328
7449
207
629
691
6258
-7020
-5566
-1190
-908
-9275
-6612
6188
379
3956
-438
-8980
-9896
-1867
6603
-7357
-9861
-1284
9290
4416
-4250
2675
5573
6832
8857
-7834
-8314
1039
9035
2560
5598
7132
3250
-5919
-5536
-3544
-4007
-6087
7598
2640
-2302
-5969
8191
2233
1297
8843
-5917
-7534
4198
-3641
824
1133
-3816
6715
8677
1511
-7527
2751
9276
-6175
5582
-1321
7411
-5907
-358
5012
-1285
964
-3536
-9439
-5042
-8309
3957
-4414
5309
9476
-5678
-5819
4050
6197
-7964
8434
3114
-3163
-244
2174
1263
4962
-5972
7828
792
-7784
2107
6406
7362
8978
6203
7646
-1103
-1711
-7898
5037
5432
-9469
5393
8738
3394
2556
444
8339
-5019
1637
4728
6957
-3847
-8012
-5668
-1666
-4776
9612
5160
9417
8073
9831
8828
2315
5756
1075
2178
1567
5597
-1591
-4944
5365
-2192
734
-7784
-7350
6266
-3276
-7842
-8089
-5712
-3716
8159
-7868
4053
6717
-5015
-8586
1828
5722
-1551
-5316
-9833
6996
-5536
8280
3021
8444
9194
-3725
16
-2143
-7416
1049
2052
6407
-6211
8978
2072
6438
-1019
950
1941
6730
-563
7056
9289
5837
1046
4908
-3412
2026
5086
1895
-1181
7000
4533
3064
5823
9812
-9801
8393
-9293
7231
6602
5906
6682
-2673
-1194
-9654
1281
4141
8260
1074
-920
3064
8323
-2565
-8071
8866
-1845
-5081
9110
-8620
-2441
-8613
-1034
-2623
4661
-1098
-1824
1472
-6624
3881
-4687
3723
-1762
5903
-8877
-2912
461
-6217
-333
4025
-9027
6530
1622
8254
3662
-3721
-6126
5044
5309
483
-2021
1403
-2681
1505
-5784
-3832
8873
3076
-2443
-827
1081
5235
7306
8630
-2627
-8017
3068
-3752
6635
-803
6296
-9200
-7481
4286
-1114
2553
4802
-6380
8101
-6644
6919
-1090
-9402
-9870
7462
9577
-2655
3193
-7099
4508
-3978
5013
3765
3695
7727
9876
-2794
-2099
855
-9528
-4939
-7180
-3476
-6537
8533
3108
-2810
-7115
-1977
-8787
-7100
7546
9855
6107
8067
6640
-9595
-2140
5778
-3674
-7522
5334
6313
-657
-1106
-3543
1921
9535
-6207
3052
815
3674
-6497
-4327
9969
4074
5679
7646
8479
7241
-2040
2243
-8893
6146
5498
1920
-4954
-3279
-9446
4497
2082
-7248
6646
-2512
-7019
-2352
-5121
8873
1277
-3653
-9397
313
9645
-3831
4931
-2982
-6482
1520
7450
-2486
3935
-5919
-5967
-3963
-5653
7486
-3205
457
-5393
-6503
1990
-513
-545
-4752
6054
4279
8486
-7546
2
1667
9967
3237
8069
8861
1764
-2192
-2293
-7182
9298
283
4973
-8630
-7418
6718
1869
7761
-7728
9718
-9699
5425
8109
-6918
1142
5620
-7794
3448
6257
6987
-5675
214
-3654
3134
-3318
9838
-1862
-7986
1684
6126
741
9191
7678
4216
-7191
-3999
4908
-7279
-267
-6858
6797
-4166
-6761
-9537
57
-4775
4455
4457
-8746
-9886
6018
-3568
7130
-6792
-1290
6348
-8630
-9991
3819
60
-8631
9493
3687
-9126
5249
5305
9746
405
1477
8300
9944
8157
-8657
3685
-4454
4466
7963
8946
-8923
7272
4609
2399
-9390
9556
9796
-3566
-1456
-8623
6979
4351
3739
-1907
2595
-4750
2104
-5331
7813
7444
4614
-5125
6539
-2284
5313
-6242
-4932
1007
-3075
1930
-2786
3192
-9473
-8986
2867
8130
111
-8982
7585
9501
-7129
-7524
6193
-2267
1690
-1162
-5677
2854
7639
7907
-1623
-4797
7075
-4929
6645
-2343
559
5564
-7889
5431
-1106
-1726
927
2474
-4627
-738
9690
7064
2717
-241
9241
-6467
-1786
-9691
-6832
1805
1181
489
-4949
2030
3204
-8090
-9868
7596
3426
-8886
-5738
6644
8739
8580
-4171
9508
1841
-9827
4826
7512
-1089
8184
-2699
7165
-6968
595
-6896
3048
9522
9144
-9732
2524
4988
9540
-9815
-4092
3144
-9566
4452
-3146
-2598
1663
-3617
-572
2673
-3104
-1964
-9271
7070
894
-2906
882
-2164
-2502
6964
5871
-4633
801
-1775
2871
4095
-929
-187
-7332
-293
8615
-5600
9169
-1576
3138
-6126
-7811
-4028
-7001
8140
6372
1373
-1605
-6764
6537
3854
-9372
3233
-2340
-80
6418
-5511
-3636
-7946
-8318
474
-9988
-9491
3195
-9193
9357
5300
9300
9001
1194
6791
4038
-9910
8569
148
3099
-8573
-2141
1462
4463
7870
-5638
1486
-8184
5945
1063
-3314
-5376
698
-1162
-3268
-4837
-6337
567
2542
9860
-9316
-3422
9654
9978
4293
4203
7965
4962
-3068
487
779
-9266
-1505
-6322
-6393
4696
-5450
-3378
6329
9487
9977
3102
1088
8206
6931
-3226
-7341
-4629
-4354
1618
-1896
9842
2039
-7308
8123
-1342
6936
6403
3803
4009
8366
726
-647
9530
584
-2579
3936
6606
-8709
-9242
3868
6591
-8006
-9782
-9816
-9365
-4473
-1796
-3995
-4785
-555
8119
3154
-1438
4375
2967
8083
807
-7686
130
3480
-996
-8522
4133
-6202
7072
1524
-4122
475
324
5760
4243
5759
-5675
-4563
-6074
-7191
-1293
-4690
1979
4157
-2034
9355
4794
636
3290
833
-2908
-1516
-7812
1892
-5003
-6337
5956
-5545
-3613
9285
8970
-3644
3431
4566
8315
4512
-5391
1882
7465
-9609
6469
2255
3507
-7915
9047
9020
-6155
2061
-6966
4397
-4639
9934
-8307
4396
-3319
5589
-3968
-6311
2517
-414
7765
-5973
7946
-5064
-8547
7294
79
7220
-5540
-2611
4709
-1555
1455
-6051
-3632
4116
-1283
-4686
-8400
-7249
2783
-1881
7367
2317
-2141
6568
9125
9133
6831
-4263
-3563
1239
-8078
78
-2079
-9443
2690
-9085
-8140
5922
1495
-5243
-6002
2558
-498
8117
-178
2627
9921
3878
-4910
6223
9446
-765
-4619
2479
-6343
5968
3146
6428
-2301
-9992
-980
8858
9647
9137
-6915
-6439
-9328
-4723
-8648
9257
-6468
836
2847
1921
-1116
-2521
3559
-2721
7502
-27
4863
-6985
-4226
7866
6147
-4490
1651
-6655
3989
-3082
-1209
-5100
3583
-5052
-2356
3348
-8005
9947
4093
9252
7407
-8297
8515
-1092
-6312
-8181
-8825
-97
5388
6661
-6534
6572
4748
-9505
-1244
742
9301
-1168
-8570
3767
6349
7942
-1739
-7821
8914
8055
2291
1100
6642
4991
-3783
7159
4745
7810
9547
5723
4190
8493
1894
-3902
-2811
-6216
3259
2679
-6572
8992
1522
-9872
-5428
-1060
7113
-3812
-2792
2113
5403
7160
7725
-9227
-1577
-2174
-3455
-8145
-736
-9811
3654
-8548
-5096
-6432
-7397
-989
-3848
-7719
-4128
6560
7040
6613
1020
2907
-9764
7744
-6014
-6863
-118
-2018
3658
9666
-1196
-6114
114
2710
-6914
-8193
7823
5198
3807
-7170
4704
47
-6951
-2701
8074
-3879
9288
7856
-665
3301
-4057
4314
-9330
6817
-4016
-6294
9080
-3724
5493
-5494
5744
5831
-527
5290
-7982
8497
-5681
-5028
-2714
-201
3174
-5705
-1550
3813
2660
6405
5997
-1878
2525
8090
7417
3198
-6650
2650
5119
-3402
1673
-9568
3104
-7507
6802
3644
-5712
-6808
9000
8387
-1329
-9236
4916
8698
1508
-5843
2829
-5051
136
-4
-2349
2058
8333
-6278
3607
1785
7864
1815
-8839
7708
-1701
-4468
-6071
1584
-1768
-8049
1278
-4636
-6279
9046
-7302
4439
-6937
8125
1201
4612
-9081
-884
-5223
-2270
9414
-7895
-2821
-843
8946
-8092
-7555
3958
7275
-8427
-8937
8102
-8095
5423
-16
-4011
-2239
-7428
-6471
-3740
9922
-2218
7735
-5863
-606
-1818
-3206
-9610
8877
-8529
-3047
-5421
-4961
-5839
675
-6620
3933
-3201
-8240
3515
7065
7240
-9199
3272
-3019
2714
9574
-3443
-6671
6781
-7188
-890
3044
8222
-3699
7770
-8465
5495
-8621
555
-4241
-7414
-2379
-2135
4577
-70
7862
-6758
6960
7520
2733
-4072
4423
-3575
-4555
-3218
502
-407
1839
-5783
-2884
-6755
-4434
-2575
5347
-3994
3727
409
-3519
-5413
4478
-7709
-1965
-7997
4763
-3193
-878
-2842
3769
-2862
9591
3060
5645
907
-1733
-4946
-6339
-5378
-3040
-9892
-2791
6840
-951
-6397
-7080
4998
4030
-9062
1651
-7921
2808
7915
-5780
6223
2356
-3942
482
-1094
-7010
6815
8757
-4602
6620
-7864
5521
5081
197
7869
-1021
8512
4935
1283
-5701
3163
9013
-5788
3218
459
9066
9359
-3847
-7071
-5861
8877
1104
-7761
-5363
1492
386
-3633
-1564
7332
-6465
-2665
