-9833
9839
8744
6796
-3545
-8455
7691
2965
209
-7735
5119
1753
-8081
-9242
-6849
-1288
521
6029
5489
-2379
9703
-7702
-1031
-5465
-3639
-1108
1203
8337
-891
7152
388
9028
8618
-1396
-5061
7466
-3882
-3498
-6908
-1534
1572
-3680
-4444
-7130
8869
-181
7893
-6319
1726
-7943
-6410
6277
1138
-8992
-6393
3448
-7186
-4555
3699
-7780
1378
-1697
-3081
-8672
-2963
-53
5416
5767
9931
8616
-6911
-2088
-2366
-6241
-1489
3536
1968
2046
6313
5445
2840
-4400
-5695
-2596
8739
7239
3574
6761
-3677
8580
9263
-4604
4715
-6671
-9194
5486
4169
-9623
-7803
-798
-6804
-875
5199
-536
-6482
2876
1378
-7242
7968
5290
2488
4365
2882
9539
-7054
1361
-6413
175
3027
-570
9277
-6349
6870
5767
-8149
-4962
5502
2274
2206
-4324
1860
721
7072
9336
2096
4758
-408
-7077
-4499
-7625
7694
-8183
-6063
6823
5730
9714
-9035
-5951
6852
8066
-9341
-9716
-3645
-8728
-3365
4784
9444
-9723
2910
-489
858
-487
9949
149
-1703
9880
1624
962
-3205
-6029
1803
9737
-2997
-1201
2883
-1478
-3297
6028
2840
820
-7988
9975
2217
6584
-7655
-312
-2039
-7383
1537
-7083
7147
7857
6443
-2941
358
-9391
3881
4935
1819
7817
6976
-8222
1450
-4618
2735
3803
2535
2786
4133
-1431
-2015
5420
-7955
-7489
8032
3570
-5014
-7863
2680
-1665
8012
-8156
-6676
1627
5962
-6405
9732
-55
828
1475
930
9695
8222
7649
-8515
-4292
3679
-4719
8344
-6135
5965
-1281
7622
3906
1645
1567
-4472
-989
2792
-792
-6795
-4915
8050
3943
1302
-5420
-3810
8132
-3142
7153
830
3502
2437
-7350
-4810
3304
5467
-9350
-3478
8050
-5717
-4772
1320
-4730
-3300
3568
4434
-934
-3255
-7249
-2102
-3788
5663
261
8585
-7907
-5522
723
-2253
2021
-2941
3807
9979
-8713
5071
6460
4436
-9266
-868
-3642
6809
3793
-5894
2872
7091
5532
769
6866
-4844
4685
858
-8728
-6129
-4461
-1950
687
-2236
8146
3538
117
-5811
-7433
1591
480
-6522
5605
-2165
-8308
4757
7067
1020
-7128
4903
-3463
7628
-6378
-481
-8542
7889
345
6891
2612
-8299
-2766
8560
4023
3368
2788
3400
927
-4758
9671
-3913
-8363
2039
-1828
5337
-3017
15
-8260
-7488
-5562
8133
-3205
6936
3142
-8007
-1579
771
738
5517
8566
3265
-6734
-9721
4029
1923
5311
7775
7765
-3563
9210
6179
-1053
-9892
9282
-292
4736
3096
-77
6218
9882
-8040
4839
6572
-1028
770
-1200
-2067
645
-9464
-7064
-7596
-6967
-4348
-9954
2290
-4662
-1146
7214
-6271
-8224
-604
-282
1549
-9045
-6902
2349
15
-3692
7517
-7846
-3628
-8667
589
9997
-2817
7163
-3044
-2493
-8950
-602
2589
-9419
-4514
-3885
5380
1067
-9346
9666
-2980
-5917
8123
-8897
-160
-9901
-1077
7962
-8835
8085
-8106
3722
7300
-1137
-9247
-9713
-546
-3773
6201
-6276
4682
-2436
-1919
-2192
6388
-4705
-8216
9972
-9053
-4100
-6987
9912
-309
4163
-4551
-7662
8828
-3075
-2982
2290
3756
2762
-7823
3948
8785
1933
-9989
1977
8500
4295
900
8274
-7256
-7940
-1834
-3665
-6351
8900
-4703
-9512
215
-2698
4270
-2093
-6426
-8036
-4079
7553
4377
8674
9463
-7887
-7249
5282
-5001
-3490
-9335
-5811
177
-279
6903
-5708
-9771
-4619
-4511
4361
-882
-8931
9923
-464
8893
-3816
7630
-2032
4098
-6033
-8357
-4384
8632
-5522
-89
3725
3575
2258
-3472
5796
6187
4912
3684
-1375
2696
-3026
-1605
-4517
-9538
-2771
3781
8600
-1304
-2970
-8805
-7235
1210
-7844
-3580
2255
9462
1446
971
9238
-298
1671
-2280
-6664
4121
-9985
9059
-686
2659
3071
-4643
-7351
9435
-5623
1596
1182
-4160
1298
956
-4838
-9132
-3530
5443
7694
8541
-1006
5801
-7065
-7861
-3710
-4433
304
-4593
-1295
7422
9637
2091
-4075
3987
4314
-3185
6732
-339
-2676
2708
-8188
5357
8608
-5780
-6956
3779
1172
-2912
-7827
-757
-1912
1739
6708
3196
2916
1234
1576
-5802
-8001
338
-8669
9417
-1373
8468
-413
3708
6369
5929
9904
-8245
-8403
295
5447
9077
3753
7713
-6438
8397
5991
2559
5756
9331
-1528
-1895
-6341
1428
-8003
-9293
7078
3229
-9418
543
1663
3344
-1853
-7005
462
-6548
6746
6551
6277
7682
-8453
5462
9795
8044
-8758
-1665
2274
1303
-8305
-2490
971
-797
-4741
-1718
-9522
934
8595
-8114
-6192
4456
-2243
-8335
-6648
1537
877
7945
3668
365
-3973
-6104
-4343
9078
-5383
1979
4753
3766
9194
-1355
4604
-4712
8564
3453
-7995
679
2852
8153
8993
-3026
-3511
-9013
3565
7932
8032
-7910
1757
7482
2326
-3101
-9216
-2403
-7283
6239
-4621
-7124
8854
-5857
7666
-699
9095
7392
4644
-9601
5579
4469
-3225
501
4765
5738
-3836
-8170
6555
-8361
-6503
9801
-8918
1095
9127
-721
-6184
8497
-4352
-6626
6863
-5687
-3251
6011
7150
-8211
-9634
-411
652
-9832
2841
-102
5902
3465
-4759
-8092
-267
-6919
-7007
-7977
-6492
2394
-4363
-4865
-889
1989
4773
-1911
469
-4769
5160
5087
8665
-4301
6454
5138
6476
319
1230
-3215
1657
5034
-1334
1214
7365
3447
-7302
-8787
-7180
-6853
-1538
-9488
-2365
9259
1467
5756
-781
-9741
-9754
1601
4201
-2808
5085
-1624
2087
-5778
-6997
1325
-7878
-4277
-7769
594
-7143
-6813
-1710
-8088
7962
-6208
8075
-605
-8455
-8278
-1545
-6095
-8461
-6794
-8537
-6918
-9240
6709
9508
2487
-8292
-9144
-9151
-8798
3475
4347
-1864
9771
6935
4582
-9017
-6401
-2192
-5418
7264
-9368
-3664
1512
7247
8675
6982
4299
-317
-5334
-8127
-7310
9641
-4057
7712
-4383
4117
-8145
7447
2844
3341
2938
5165
576
-6736
4506
5560
9111
-2203
-8408
7745
8594
8193
3061
7262
7532
1321
-5899
-116
7981
8610
8319
-3919
-8822
3119
3426
6035
7864
-6607
7704
-8361
8698
9717
8453
4098
-8166
888
-1896
-6324
-2841
7730
8908
-8552
-343
3410
-7116
2147
7953
9948
-9875
-8212
-1629
-4616
-4338
4132
9661
6659
2703
-3962
9092
-401
8395
3242
-3353
9197
-2817
-4561
869
1027
6381
-7770
-2763
-2361
8762
-9908
7901
2651
-2259
-5495
321
9619
-7809
1130
-8538
2748
9963
5268
4178
-7780
-8140
-264
-7159
-1884
-8910
7953
-3627
3868
-2780
-8821
8651
2643
-1886
6683
-1461
-1777
-1428
-2874
4812
-4264
-9814
452
-5097
6966
3312
4367
-9458
-12
9178
9729
8332
3507
-2271
-6780
-1306
-7381
-4781
-8816
-7212
-5514
4397
3758
3758
65
9737
1246
-4042
-8917
-9704
3124
-6139
-9763
3639
-5800
-9054
-2933
5660
2077
-1919
1836
-6848
5501
810
-4470
-1273
-5980
-4576
-4749
-9063
-3943
4800
1267
-3633
-5323
-3225
-5581
5057
-1885
106
-9232
5761
5659
-3843
-5837
3354
8528
-2041
6736
-2862
-9919
-7372
-7586
5824
52
-2095
-859
-7320
-6538
9137
-8198
-7421
6392
9083
9707
-8320
8104
-313
47
-45
1710
-7663
-8170
7004
4157
1089
3628
2363
293
1973
2838
-7034
-4447
-9296
-5853
2444
7068
-8968
-9401
9660
-5962
-3579
-8120
-2883
-5304
8844
1363
-6128
9497
-9724
-4057
-7907
7920
4757
866
-8409
-235
1974
-4468
2440
898
-3183
5580
-7735
-1866
-6302
1697
1768
-1806
9251
6109
9816
-8233
2479
4093
7617
-4854
7596
9665
544
9210
1512
2166
-4374
-1669
5260
-6417
-7042
211
-3302
5231
59
-8205
378
6815
9638
-3954
-237
885
3274
-232
6786
1384
6203
3555
4287
-3779
1699
1582
7927
715
-2551
-8889
-4047
1280
904
-529
7530
-3167
5739
9674
-6643
9221
-2653
4958
-4115
-6657
-8247
-2796
706
-7382
9362
-5433
-4458
-3815
-7380
-433
-1269
388
4987
-9502
-4733
-914
-2438
6191
5131
4768
-817
7044
6071
-4326
-3897
3641
911
-7194
-1957
8391
-1835
-4793
-1079
-4667
3888
1812
-7432
8537
2625
3876
-3567
577
-4249
3247
9575
9021
6657
-1379
5175
-8817
-6042
4462
-7673
-4822
-3774
5416
-2923
8770
4821
2775
8455
-3399
4918
-995
-8318
-8927
-886
-8676
7763
2538
-7133
5981
-3583
346
-3509
1149
-2523
7908
4528
-1760
4973
-7833
-9895
8971
7520
-9352
-811
8680
8887
7760
7698
5085
3420
6088
-7008
6176
2384
-1899
-9472
868
9371
9078
-3664
-8276
5581
-7026
-3562
321
9085
-468
-4542
2734
-3882
-6806
-1586
5103
-3026
-7874
-7965
-2564
4288
9204
-5058
7528
-2744
-4159
-360
-3682
-8228
-5759
-6489
-9044
-6434
-5948
863
2585
-993
5265
-6431
2039
-3366
864
-6054
8572
-8675
9887
278
4293
2625
-5584
2732
60
-1107
2464
5392
7410
-281
-7181
8800
-4531
-9441
-2424
-3426
-8197
5479
3479
9561
1854
6671
-5900
1495
-7190
2644
1474
-8815
-5301
952
8068
-1952
-5969
5857
-2308
-9835
-6607
6501
-2476
6969
4230
-3035
2441
2362
9423
6015
7561
8247
-2727
-8584
-4752
3339
9177
-8712
8785
7608
-460
3393
-3492
8827
-1669
2081
7359
4414
-5720
2196
1733
9150
-226
-554
9857
-2680
-2651
-2497
4078
-3563
2028
-6448
-8858
8987
3792
-3947
-4156
8428
107
-8868
-1569
-3779
9715
-2636
4677
-2242
-4234
-7404
9800
-3187
-1090
1021
5171
462
9106
-6092
-9705
9458
8671
3153
-8463
2620
-1518
-6703
-6141
8055
-5720
4648
2094
8898
-9342
7876
4298
-3285
-3421
-1297
-8743
1859
8179
-9736
-6534
-3187
2120
-9728
9717
5845
5902
258
-121
2420
-9681
5006
-1451
-5724
-6365
-8318
-4030
5426
7071
-9749
7908
4176
6851
-574
-2822
-3317
9300
-4320
-3941
6785
-7575
-3176
-8927
-5488
9867
6155
9406
8038
1333
-1610
9732
-3103
-2693
4375
9260
-2211
5293
8019
-6442
-1326
9847
5902
-3990
-8433
-728
-2259
-256
75
8158
-5856
6433
-6273
-3164
7064
-6401
-2065
-3714
7853
4837
-4205
-9717
-1957
5922
-4119
5218
-1243
-6280
8849
-7482
6093
4644
-5132
-1444
1851
-5322
-6226
2613
-8323
-6081
-9653
4711
5977
-4748
-1815
2023
2903
-1111
7423
5117
-2771
2406
-6104
-6605
4144
-679
-9680
-7118
-7213
8365
-6287
-1074
-9269
306
7470
1340
7752
-513
-8584
233
-5184
-6760
-1407
6975
2558
3891
-6262
6685
-7523
5277
-4967
-3859
3532
-1451
-1822
4126
7137
468
9748
-9953
-5802
1515
-4528
988
9391
784
-1769
7465
-120
41
548
-6296
-1706
219
-3297
9601
-6785
-9769
811
-1603
-5787
-9807
8927
-3411
-6887
8974
-4452
799
-1687
-559
-2054
-9941
-5226
3854
5327
1337
-1253
-3398
4075
1242
-6671
-8280
-4814
-2644
8636
8708
-4500
9048
8677
1633
449
9417
5919
-6221
2771
-2421
4116
2910
9003
3647
-9861
-9295
-6433
7533
-3686
3922
-1141
7061
-3738
-5328
9007
953
-771
-7595
-5185
-2161
-9407
-8738
7886
3759
9547
-7061
-6918
-2510
-1134
7498
-9871
-4458
6203
2334
7652
-3129
1597
2991
-4203
1036
1578
8602
-2711
-6992
-3222
9414
997
2779
6944
4228
-3082
-1332
-5040
-8502
-3008
-658
-259
9445
2293
-8360
-3139
7756
3852
-1359
5248
6215
1732
-4316
8516
-5848
-5008
757
-9741
8609
-6241
-9918
-5905
-1129
-6118
9726
-8711
306
-5507
9769
-8575
1464
9309
-1265
4955
-5092
3598
2981
340
-5490
484
-1797
-6949
-247
2630
-1631
-1103
-8978
8323
1183
-78
8978
4594
-1448
7551
5814
-5746
5548
4722
-3518
-1428
2043
6388
4004
-7150
-2606
-3876
4513
-1796
510
-4555
-5125
9643
5142
2038
8612
7901
3325
-6753
-5712
423
-1221
-8023
4555
5576
6346
-6387
3863
-6641
-6325
-5430
8053
5737
6902
5801
113
278
3458
-2132
2884
-8220
-8086
8102
-8250
8426
-8614
4978
-1832
-8708
-8879
9918
8347
9029
-5343
2628
479
-6788
-7643
2442
8595
3991
1136
5217
-8474
-9348
829
2997
1307
-2936
2935
1962
7053
-1766
9361
3114
-2577
798
-3700
-316
-2267
-2247
-8459
-4567
-3824
-4372
2257
-1168
-2324
-9002
-5264
-505
-6337
2387
7491
5327
-8663
3562
-5073
-8480
6983
-5378
9870
5786
-5539
8475
313
8231
-7815
1988
-1884
-1284
9807
3463
-4359
-184
-816
1098
26
-745
3344
697
4198
-7910
-8099
-4881
-1249
41
-8395
-7164
9465
2958
6785
8459
1524
-4218
-4064
4188
3320
3239
7946
7884
-9645
4096
4312
850
-7203
-3069
2085
6361
9084
227
6444
-1391
2329
1000
1445
-9012
6302
8187
-7138
-7535
-6560
9781
7963
1318
-1452
-4088
-6309
-3400
8818
-5958
-3152
9428
3254
7013
-2175
8609
-7244
9806
2761
-1982
-4093
6709
-1813
-3169
4872
-2970
-3154
-2078
-9158
4489
-6208
-5403
9112
-6834
7742
-8676
-9840
1114
4305
-9751
4938
-8262
4872
-7991
-9804
-7472
-2179
6717
-7313
974
7121
-1002
0
8236
-2480
9532
-9959
2596
5174
4870
-8709
6770
-2029
7049
1571
-4171
-9318
5119
4322
-4233
6720
-8245
8300
-3289
-9536
-143
-874
9278
-8088
-3538
9231
7797
8963
4203
6573
-115
1618
4229
-8188
-1683
7145
8697
-1271
8164
5606
-4170
-6724
-139
-8962
-3974
2915
-2868
-4782
3590
-182
7703
8132
5439
8987
4192
2082
5450
-4443
2802
-5155
1152
4223
8222
1371
-1954
-1765
-5418
3223
6071
-4683
-5681
-9728
-7343
3608
9558
129
7172
1913
3823
-2586
2850
5494
-4095
-2924
3857
-8857
2191
3931
-2360
3400
-987
-6061
-4374
7596
2273
1871
-1015
-5278
8146
4740
-9629
-1777
5603
646
7475
-6571
-745
-1296
-351
-3439
9262
-2750
5018
2229
4029
-5212
-7764
-4204
-9103
-9093
8348
-9871
280
-7098
2307
5077
9467
7901
-7798
-7643
3708
-9995
-6432
8549
4318
7257
5983
-5379
6153
-5708
5647
-8452
130
2973
-7261
8617
-9597
-4328
-5881
3426
-9662
3542
4279
-9219
-3382
-4266
434
-8541
-3399
-5573
-8725
1193
487
5417
-6872
5256
6900
-5789
-7855
4642
8158
3578
6608
-3814
-173
135
9584
746
-1963
-5345
8867
1209
7657
3704
8538
-4875
4528
8644
-5564
5613
-4206
2075
-5534
8557
3812
-8412
3904
4088
1127
-4064
-4288
6083
6708
-236
-3636
4585
-3070
9570
-1171
-6999
8719
-4197
6052
4440
-3175
-6178
-9344
9704
-7659
9914
-418
-6818
-4554
-2364
5999
2341
1699
-5560
-4966
1501
8331
-1080
4745
-8792
-5395
4925
9281
829
-1350
-9611
7213
3861
2091
5930
4845
2966
3333
1124
1600
4893
-9458
4760
-7374
-5765
-3806
-460
2327
-685
6435
1331
-8174
3588
-9401
8450
3132
-8491
8847
7382
-6588
9148
9289
7964
-6280
6708
-266
-6782
-1579
-7393
-6084
6888
-6192
6943
7104
5195
7449
-4043
-8132
8350
3401
-1583
1161
2166
2662
1
2981
348
-6892
-7741
8469
4059
8630
9099
-6303
6923
3333
5618
-5759
-9182
3341
-8419
-8754
667
6191
-4963
7822
-5105
-4291
-9680
-4550
2253
8937
-937
-8548
-4493
-9109
2884
-9296
-2289
2769
-7938
-2640
7849
9781
-4261
5725
9132
5819
-3832
3311
5478
-6037
1934
-6352
-465
-5833
3333
1643
-941
-7525
-3239
-9971
-2457
-309
4440
1896
-316
-8281
-9207
-8632
-7355
-1395
7400
-7895
-25
-5173
4801
1692
-3314
-508
-8768
8825
-8852
1817
-4034
-195
-7682
4670
8028
-9001
-724
6881
9853
4761
-5891
3722
9813
-2312
8917
-5892
-2379
2161
-6989
3003
2192
-5185
7353
-2015
2871
-1170
-106
-24
-8211
930
7592
18
7647
-1538
8842
-3822
-602
7135
-6616
-2228
-8011
-4176
5930
7670
-4177
-8803
-5575
7665
6528
-7934
-5842
-3216
2333
-9042
4963
7877
2563
-1252
-9728
-6012
2715
7117
4007
-7352
9057
3136
-5834
3723
-1151
-9548
338
-5665
-8952
-7627
-3441
-6982
6784
-6443
-9466
-5450
8868
-939
-4338
6703
-4742
-7808
3201
-9320
2692
-4112
-1469
-1903
-6406
6307
7633
9153
-8196
-8176
7816
8924
973
-4176
-9929
1759
3076
7499
-392
-2638
-6006
-8753
5796
6348
8107
-7666
3062
-2012
-5522
4196
248
-1748
-6542
-9016
-2441
2496
4505
7933
-2634
3744
-6553
-8295
8034
-5008
599
2942
-1645
-8127
-34
-5807
4240
685
4022
7672
-893
5987
8756
-514
-5392
-8158
9145
-493
-563
1298
6609
9513
-9581
-224
-3159
-3979
2368
-216
8926
8851
1004
6756
4838
-8358
6665
-1213
2122
6285
5662
-3371
-7977
9750
806
-5382
-9704
-1261
-7016
7978
-1402
-4660
-8395
7501
-9369
5159
3326
-1311
9088
-1730
5692
-816
6992
2937
-4897
-4310
-9862
2232
7050
-458
-3850
4422
602
8749
27
-513
-1197
3511
6095
-3859
2059
-7871
-8095
-3566
2467
4671
-9089
8265
3648
2920
-2352
136
-7118
-3198
-8376
6940
123
9914
4331
837
-8015
-246
-2482
7012
7806
-8196
248
-9441
9682
-9042
7350
7777
8622
8567
-7572
2873
4979
8889
-5077
-706
2883
-5138
2620
3918
5591
-169
8457
-8148
-8470
9235
-6307
9715
9238
4255
-1756
6183
-6475
-1992
3379
9900
-5176
4155
-8000
6975
9115
-2370
7363
2930
-3305
-2349
2397
7279
4654
4374
-1381
-7166
200
-7800
-3784
-3614
-316
5151
-5018
2600
1740
-7257
-433
8743
1999
8310
-8101
4284
1506
6109
-1347
-3491
1379
-1765
2298
-9115
2128
8013
498
-6709
-2307
2562
-9441
100
-8578
3962
3128
1679
4085
5877
-7501
5033
-7561
418
9621
2135
-9048
8666
-1636
-8098
9031
7523
5516
5809
1385
-4602
758
9865
128
-262
4001
-1114
-6167
542
-5532
3027
918
5697
8361
-8989
-7385
6363
131
-311
-5834
3637
6116
5395
-7928
-8704
8718
-1058
-170
3695
-5678
-6828
4980
-7243
8759
-321
-3770
3432
466
-432
-9006
-6788
3281
2085
-9080
7896
8440
-5508
5767
3313
8412
-3289
4501
-9448
4007
5108
-3492
962
-9407
1180
-4423
-3587
-752
-7040
-5381
-9910
4359
9640
22
-6296
415
3241
1172
8016
-2354
4996
2824
5363
8680
-1210
5892
-4791
-3437
9045
5638
-3247
8177
-3634
5351
6242
6598
-9441
-1695
845
847
7813
-8897
5831
-7794
-3590
7514
7290
-7491
-6325
3430
-1273
1716
-4184
827
6610
-394
1822
-8567
7319
9545
-7228
9239
5917
-8894
8722
5129
-4211
-7364
6762
-3481
-2557
4976
5860
-9675
4599
3091
6818
8494
6219
3716
-1050
1880
4200
3962
9008
522
8245
-1618
-7526
-3840
1735
119
-7566
6308
-4545
-4449
-2845
8290
-393
1191
-6191
-3693
8822
6713
2915
4998
9704
-1497
5704
-1107
5940
4502
4924
8677
-7846
2963
8537
2520
-5627
-4766
-4704
-6583
-7625
-4116
-8627
2047
7145
2220
-1984
-1309
-4682
9640
1625
-2545
1674
-707
9693
-8595
679
166
8744
-1850
8478
-1009
-6311
-7996
7933
-1785
-8058
-8939
986
4882
216
5353
5008
-8664
7056
-4278
2790
2452
9994
2086
-565
-6455
-7366
-5440
-6354
8021
4014
1120
-4209
4608
284
-8426
571
147
7017
9059
8285
5921
-580
-2374
5364
2959
-2751
-2834
2282
4914
-8582
5525
4855
-4113
69
1620
3626
4957
-6669
3143
5241
9215
8010
-2230
-435
2698
-3825
-2290
-3178
9955
-5165
4052
119
-192
7911
9552
461
7440
-3804
-3668
-6267
1058
-3819
-1556
2111
-6859
-5529
-1690
-4007
-4279
-9130
-9236
-3284
-5883
-9667
-1252
-4698
4204
-8403
695
7833
4588
8662
-8817
4288
-3088
-9818
3650
-5693
5068
-8641
-3145
-9195
-2748
3194
5112
284
3489
-5369
-3464
7325
5768
-5354
-6870
9969
-2178
-6641
1969
2598
7338
-6101
7633
-6636
4590
86
2631
4347
8385
-1102
4807
-5607
2775
-8756
8495
6875
-3925
-233
-313
-2303
7537
-1851
-5471
2387
-3574
2871
-4785
-4559
-6789
5398
-2393
-131
-6686
429
-9051
460
-9955
4205
1554
330
-4697
-4282
9609
-2921
4118
-6732
-8983
2273
2258
-1009
4699
5911
-5105
4739
-138
-3822
8708
-5831
-2630
4004
9867
-2096
4819
-8140
5891
1366
-4251
6614
757
8093
61
7516
9451
5366
-5049
1978
-9306
3467
-6585
-5704
4733
5086
931
-4620
6853
7199
9932
-4802
6630
4138
6434
3861
-1988
7673
-6497
2171
-4067
7548
-7802
7897
1429
4253
2212
202
-861
-5277
-8353
-8645
8569
1204
-1834
-7771
3678
3723
2266
6081
4067
7353
-2541
3727
5493
6954
-8144
2437
-2582
4060
-8980
-9217
-9052
3311
-7131
-7890
-8170
9077
-7998
466
-7
-3102
3049
-5481
-288
8875
-9545
-2633
2573
-2642
-4441
3172
-780
-2977
959
-4909
5199
1936
6793
-6724
-8655
1178
-6059
-3438
9649
4314
-4887
-3076
1976
6299
6346
-8056
-9240
316
8659
-2782
-1594
6614
-7578
8034
5251
5562
5496
-2370
-5296
3971
248
7926
8542
5138
-5758
7930
5463
-4888
4783
4789
1502
377
8420
-6970
-7688
-4543
-6921
-1405
-5890
2806
-7260
-3962
-7314
-7995
2397
9603
-2052
-9640
4465
-8107
5300
2873
-3081
7455
4514
5927
-1865
-7137
-8222
6115
-6250
-318
-8725
3309
6788
-7721
-1129
5345
-6072
8469
2430
-9330
-2071
-2209
-9241
4780
-860
9510
-3651
6554
7409
-9490
5850
-8739
-165
-8245
-3396
8564
-532
-8663
-2444
5833
5462
1906
8585
-258
6075
829
3467
-7523
-7488
2487
8635
2772
3850
3913
-7567
-3458
-8927
-2717
-2353
-2935
-8302
-4216
3931
-9513
-4382
3021
-3903
-1209
-2597
-9690
-751
9494
-9290
-8897
2461
8961
6373
-2711
8863
4533
7326
8194
1961
-375
-9264
-139
5537
5450
-9473
9550
-2412
-6746
1982
8414
-2465
-8320
4133
3847
378
-4594
-4614
-7669
1423
-6873
3173
-6602
883
5741
-635
-4138
-1053
8828
9733
-1457
8766
-2537
8026
9497
7357
-4049
-7024
72
-7476
260
69
-6854
-2263
6701
-1014
-1513
-3764
6850
-7738
-7565
686
-4240
1177
-6065
-4663
8173
691
-5510
3905
5762
6946
-4344
-1661
7328
7996
-5500
-8949
3461
1274
-5247
6464
7335
-224
9406
-3618
4104
-7005
-876
8151
-7208
-1615
32
-5393
6635
-5581
-5616
-9635
-9501
7311
7999
-9593
7278
-9979
-403
-6315
-843
4357
-1257
-2921
4096
-5101
-8342
3124
3172
6794
6957
-1247
-9912
8698
-2856
-8386
-9300
-3270
5812
-4358
-2588
-4291
-4535
-1882
942
-130
6249
-3231
320
6840
2140
7344
-9149
-4120
-2302
9629
9363
4181
6040
2977
-3763
3557
6536
1248
-5546
-6172
-596
-8591
7433
9011
-6369
-9931
-627
-2287
4467
-2094
4544
-9947
-2731
-6861
-4709
111
5542
2180
2369
-5001
-7172
-1952
5872
9552
359
5304
96
-898
5500
-5939
1567
1805
9501
4927
-4176
6794
-2596
1905
5634
-5315
7771
744
-9010
-7039
-4597
6669
-495
-9656
6310
-2814
-5190
1434
-9019
3255
46
5776
-706
-4750
3764
3929
8473
8844
6312
-2772
-5958
-9535
-3750
7604
3007
1835
-1650
9209
8363
-1085
7443
4464
-5538
-8305
-4348
3841
3966
-1719
-5517
799
8782
9181
7822
-8808
9767
-4138
7016
9871
2986
-8596
-4954
6353
-6088
518
3227
-3954
-4828
1137
919
3938
8357
502
-3618
3571
5862
4900
5248
5692
-5173
-5883
2001
8215
2036
-813
9364
1945
5965
5154
734
-5048
127
-644
-8441
-7402
545
90
-3011
9910
9367
-9390
-4804
-1672
-3482
8959
-1579
-211
1773
5508
-2902
-2244
-9237
-3126
6361
-3074
112
-2515
8766
-8761
-642
-1847
-7768
-6749
180
4816
8030
-2988
-2803
9991
60
-8705
8712
4493
3692
-9623
771
7645
156
5484
3256
445
746
1651
2974
8064
4021
-8092
5344
-4422
-1239
-6443
-6286
-6056
-4411
9767
3275
2071
987
3776
5204
-4863
-1145
2711
5857
9402
-3212
3369
5735
9387
6986
-6745
-6581
-5476
4938
6745
-9239
9333
2985
8487
-2576
3671
-9574
-6086
5124
7727
6982
284
5026
250
-7740
-9306
-4732
-2152
-9759
8202
9882
-1754
4934
-2392
-4767
-8976
950
-1717
-4453
5613
1079
3140
-4712
-1744
-8111
-4049
2794
7109
7892
2084
7021
7869
5021
-3771
-2816
1008
-5063
4665
3711
-3844
-6864
-546
-1806
9154
-4130
7153
-192
-7044
3558
5707
-3739
4819
-8316
-335
-1643
9142
-5927
6159
9047
7794
8050
-8148
199
-2051
-3924
-5462
-6727
1195
4326
2189
-6241
7101
5079
6905
-6583
9408
-3187
1565
9254
3704
3622
2979
-6346
1657
3838
6858
6175
-1162
6673
7163
4316
-9385
5255
5235
7827
3810
4607
-7480
-761
536
-6089
-5153
1793
-4967
3822
-4131
5288
4362
1683
-7364
-9870
9453
-9910
-2768
-9564
-5768
7661
4961
-1870
-2478
4701
1813
1668
-5131
1039
1735
-4520
5615
8507
7720
9095
-5694
-3696
-214
8641
4909
-6093
7635
-2442
-8631
3299
6132
8274
8603
9875
-2362
-7916
4404
-247
-3095
546
4507
-9877
-8627
8503
-9303
-1188
-7429
-3854
-5105
-576
2783
5564
-8997
9205
-4786
-4170
602
-1758
5597
-126
-1295
-9409
-1466
-3666
-8674
-9306
2777
9978
-2019
-8345
6296
5470
9049
5939
4134
944
496
3570
-84
254
-3405
8091
-4685
5725
-4971
6366
887
6860
8196
-5303
6351
4682
9500
-9198
-1231
6274
4105
8887
-7001
9555
9876
3309
410
-5568
-3864
-4721
9031
3235
5360
6608
1136
-9308
-3870
-5327
-7253
-8344
-5641
-6463
3595
-6518
4284
-2327
-4179
9123
-9336
-3300
-5045
6909
-699
2266
7781
3444
-5701
1515
-1826
7210
-2706
5466
-5747
-7865
-3508
-4778
-1964
2823
-8563
4080
-7802
6074
-6775
9424
7651
6951
9278
4691
-9639
1922
6802
-1217
6134
6409
9688
7931
8103
9620
-82
3384
3157
-4387
6389
-2886
-9147
6308
-8363
7411
-8916
9510
-9979
6314
5342
-7007
9782
-8341
-9620
-5685
5699
7976
2877
-4715
-845
2485
-982
-169
8015
5114
3798
-5460
-9953
4796
1563
2237
428
-1801
1365
725
-3494
-8401
-1338
-8868
-8990
1792
8267
3354
-1205
7737
2604
-332
1488
-8970
-6058
1792
9513
-9611
9714
1628
-8447
3003
5922
1290
7817
-6138
5210
4245
5359
3147
-6576
6053
-8796
-8677
1295
-9401
-7798
-8316
-3659
5678
-696
-9004
-5860
-9573
-1701
-9779
7896
-3703
9149
9422
-9521
3179
-8360
-6420
4119
2738
6350
9372
-474
2130
6867
-3083
-1637
-6947
1650
-5043
-9100
-6616
2119
-6761
4068
1708
7306
1548
4272
8604
4800
1365
-6024
2814
-7259
3076
1443
-4697
8241
9445
8978
-334
3938
4263
-3467
-6513
6185
4075
-5158
1967
-3985
-9591
5010
-7470
-2942
120
9965
7053
-6568
-7737
-2741
7070
-5015
-8693
-7586
6419
-2702
8603
7359
-4227
9497
6660
-598
3917
4215
-5931
-7162
-8221
883
2887
-2548
-3072
6129
4830
6027
-1322
3135
7742
6414
-3166
5615
-296
2802
-9172
-8542
-5502
5564
-9859
6086
-768
-666
1848
-3729
-7428
-5031
6550
1338
-9626
-7381
-9887
-9320
4392
-9668
5335
-6075
9325
5450
-4920
3347
3592
-5472
-3673
-3221
94
1552
3278
-6255
-5412
-5994
-3144
-2442
-8633
1567
7783
-8301
-1356
-6707
-9026
-9841
-719
-4384
-9994
8232
-3509
5782
2264
2852
8655
-6882
-2375
9615
2570
4015
-3393
-2503
-9722
-4412
-2505
-8408
-9004
-2339
-3816
-730
-3198
3095
7354
-4252
-1706
-7606
-8909
1398
4858
-9883
-4846
-5048
-6979
7875
-146
-5688
-4055
-8555
-147
-165
7319
-1956
-4804
-6317
-6335
3901
-7510
3265
-9498
1907
-3619
6816
-79
-5475
1371
4758
9721
-1947
-5548
1829
-2395
-9054
-9798
1785
7843
1072
1700
9071
-7608
-5339
2977
-69
-6444
3102
1705
9259
-8798
2895
-5518
-1145
3820
8690
1235
7753
-87
9767
-9795
-3997
3743
-3818
-9611
-555
7898
2452
4512
-4965
-6071
3832
2258
-6297
-8027
-6949
-9095
-9093
401
3865
8478
-6163
-2683
-8134
3171
8566
7191
-7359
-8037
-9479
-2029
-7211
-8698
-2773
-3376
-9817
3169
-6363
4461
6500
939
7145
7426
7231
-8772
-8002
-8847
2190
-9748
893
5719
3053
6239
-4616
885
3489
3006
-3963
8953
2179
-5903
-1630
9502
9335
1705
1208
7903
3311
-9866
-9625
-2190
-4544
9591
-7488
-3238
-1429
2950
1400
3585
-2813
-4631
2202
6439
6300
4732
-2089
-8815
-682
-548
-3380
1131
5639
9388
8292
1339
3681
5575
5307
3237
6046
4842
2374
8717
-9827
6605
8277
-3293
9989
-9191
-5570
-172
-8088
-1644
-6624
3898
-7985
-1628
4137
8846
-9742
256
697
-3981
2375
-7301
-5056
-6060
362
6707
-3988
2223
8441
5222
-5717
1668
2985
-2083
136
7467
-7916
6616
5107
-7956
3248
4081
6237
-5835
6241
-3119
3175
1820
2064
1732
1976
7753
-1124
-6109
-434
8597
-9085
6052
-1509
-8764
-2500
6708
-7154
3314
5693
8022
-6867
-1235
-7485
5011
380
3709
322
-9791
-2057
3373
2529
942
3202
6327
5831
11
-9211
-1091
9876
4729
3917
-349
5612
4234
-8851
1253
-471
390
2086
5936
2552
-6237
7461
-1085
-375
-7143
-3449
4324
-1256
-7794
8028
8059
6790
2839
9134
-7182
-6526
7325
-7606
-7931
4477
-9228
9199
-8314
-9790
9074
5171
-9300
7510
-3844
3484
-4106
8261
3076
-728
8916
-8952
3627
696
9115
-158
-6627
468
487
7163
-7901
5304
-3071
-1781
-6731
-9722
6412
-2746
8262
-21
1746
7674
8104
9079
-6735
-6540
-9167
1147
7087
-9051
-1219
6462
1525
7323
-3188
-2894
3744
-5093
-143
-9281
-1015
8879
6139
3138
-4561
95
-8928
-5544
-704
4365
6028
-6886
6539
4927
6093
-1722
-9254
5788
1339
-8012
-583
165
7336
-509
5342
-9483
2300
-1309
-5985
-5571
673
-2229
3275
-5875
5913
-6169
7229
-3577
8868
-5227
-7166
4677
-7625
-8318
-5356
4585
7558
9608
-9125
-8329
2826
899
2231
-132
-7380
-2836
-6105
7818
9783
3423
581
2331
-7272
1202
-5193
6901
-3445
6019
-763
-2707
5967
-797
5483
5867
6976
3905
3714
1692
4294
896
-9850
4405
-8181
934
2795
6410
-5312
7447
-287
171
3147
-4240
-1345
-4784
-9171
3227
2088
2893
-6983
8461
-2586
6066
-5879
-2848
8623
-4457
-2223
7076
2693
5462
7882
-4491
1671
-4222
-5637
-1525
-261
-8468
-6447
-6738
-6582
-4124
-135
-6943
2706
6592
2714
-4250
-8982
4330
-9275
-2289
2682
4859
3791
7754
8138
-2650
2876
-3518
-988
6015
7220
-8104
7971
-6575
-829
3412
1515
-9657
-2051
3285
7804
9203
-4610
-2987
-3818
-3873
9068
-7593
217
-152
1214
-9208
-8104
5026
-4573
-6818
-9000
-7908
-2564
-671
-9196
6118
-8966
-1850
-1155
3197
-4235
4323
9864
-5683
-897
7752
6916
4015
-7443
-9920
6200
3871
8539
5631
1363
9351
-7219
2874
3789
2653
-4275
-3066
-3152
3838
5559
-6324
4103
-2078
-4600
-8448
-5818
-3476
-2377
8644
8261
9274
9501
-743
136
2370
-4028
-3102
3270
9507
7762
8690
4520
-6116
-3881
9954
9944
-954
-1094
7147
-5425
-8958
-2798
-7650
-4934
4695
-3735
3120
-8199
2772
-9680
7846
-4621
-1622
6666
-1447
1261
-1858
-8595
-9282
5987
-3418
-3622
2745
8468
-9518
-5030
-3475
-9262
6215
-7019
4893
3905
2647
-9949
-8121
-2842
7572
6967
7170
281
6617
4674
7612
3539
-9889
1915
5351
-7410
-4374
-9810
4824
-9252
1744
7048
8898
-3956
-7956
1768
8251
-3693
-2632
-8979
-2522
1980
-791
-3569
6416
-6622
-2716
751
-4144
-3204
-9601
-5104
3013
2181
-8727
-5859
-5870
-6001
-6840
-1386
8969
6452
8992
482
5242
-5539
-7806
-1717
9652
-7500
2394
7428
-3258
-5063
-998
-4807
6665
-6540
-9105
-1706
-1279
9937
1487
1722
-1318
6306
4968
8569
-5080
-2969
-8264
-7684
-9210
-5784
8897
-4548
8915
651
-4858
1259
6772
-8163
8357
-796
2364
-5509
9133
8611
3803
-3926
-6451
214
7256
7557
4649
573
-6009
9940
-6410
544
-878
3973
8607
-4322
2235
-7928
2855
3808
3146
-8405
-9451
-6926
-5145
9465
4977
-7783
-9836
-479
1661
4276
-1588
-3957
5200
4605
4448
9594
-594
-5312
-6773
4590
6809
4282
-9704
-8058
-4087
6222
-8999
4678
-7682
-9488
9312
-353
-6612
-2635
-8976
4117
-4874
-7522
5393
2649
-5297
1989
-5600
-3457
-7641
9545
-675
5909
2398
-6729
766
2703
-5431
6649
-32
1957
4277
4005
-3059
-1967
-6969
-1362
3984
-7121
8810
-310
-8047
4066
-9690
2401
1050
1821
-1450
5659
-2071
6310
4817
617
6510
-887
-5244
-5363
1254
6120
5060
5931
8425
-6961
-8563
6009
-6496
-832
-5724
-591
977
400
2009
-6838
-3450
-1914
-8841
2083
1168
-3106
6780
193
1339
1856
-2595
3432
-9222
-7601
-5551
-5640
4776
-466
7727
-4401
-9473
1271
-4157
5541
-5843
866
3105
7205
-1592
2700
-6919
9094
-6377
-8597
-7080
-4433
9123
-8791
-7624
-6604
-7920
-5337
-3290
1147
-3405
2380
-6337
-1589
-2965
8946
1239
-6918
6491
3902
-4720
-3374
3807
-8634
-6414
-410
-9264
6973
-3114
-7345
-5437
6658
-4062
2107
932
-1819
8827
2857
6625
3395
-7170
-3015
2678
-3082
1152
1304
-5473
5127
6489
-6464
-2291
8412
-9521
3396
-4766
9063
1028
2322
5821
7451
7917
3494
-8983
9864
1148
-7546
3556
-7120
-3741
7857
9411
-8884
-3896
1750
1546
-2048
9614
9246
4718
-7930
4579
8612
7534
6602
-6270
-5503
-9493
2230
1233
-611
6975
-9260
-9838
1404
-2435
1358
-9433
-9896
-1803
8609
-7470
6249
-3246
7475
-1148
6357
4062
9332
8041
8274
-8779
443
-193
-9771
7094
-6324
2494
2467
7418
-6292
-5273
8005
6
6147
-8039
-3041
-608
-8238
-7228
-2416
8602
-1506
9355
-3637
5775
-4065
2114
-660
8993
9659
-909
-2595
3965
6061
7655
-663
6082
-7682
-1980
8148
-9092
-9376
-4003
-1344
5274
1017
5878
7151
4970
2937
-6602
7714
-5635
2050
-6579
3892
8337
5964
7389
9377
-2442
-9895
1447
6776
-5618
-6673
7782
-307
8563
1781
8952
-9934
9484
-906
7735
95
-5258
1060
-6438
-3949
3731
-6054
-9378
-117
9221
-3214
-7514
-6202
9955
-9745
-6628
-7188
-7027
-2749
-2815
794
-4429
3694
2007
-3370
-6225
-8032
-50
-1167
-3343
3931
74
9381
-5976
-4311
-4398
437
8740
-7998
-4347
1306
4355
-5235
6507
7192
-6265
6919
-2312
6166
5011
918
4129
6277
7481
9130
-2699
820
1920
2503
5295
-3459
-2645
-6643
-5177
6886
9437
8341
6401
450
4372
8433
-1780
-6690
-3300
4201
3750
3244
9289
6705
3639
3670
-449
7003
-6772
5597
7088
-9436
-6230
-2945
4982
6831
7511
1153
-641
8694
-5293
-3679
53
-8173
-5961
-4765
-1006
-362
-2944
2586
2231
-3965
1898
6064
6672
5200
-8061
-229
-6880
-4696
-9098
-5171
3563
1347
-2351
-1997
2514
1286
972
-4096
9724
-905
-2390
9750
-5249
8642
5122
3578
2629
-6964
-4607
-2523
-5720
-4484
-5831
-3395
-4702
37
-2552
-3344
-7546
2356
6417
6890
-1544
-4286
-712
2986
2443
-821
516
3687
-3792
1227
-4193
-2382
-5741
-3681
-5332
9567
9644
-1965
1447
9229
6820
-1214
424
9551
7868
-6896
-9085
-3222
-955
9264
4250
-307
-9134
2229
-3859
1751
6871
9876
-4939
6457
-6308
3997
203
3761
-1783
-2256
948
-6778
6418
1980
-6093
-1723
2782
-5540
3291
-4777
9304
-2253
5713
364
-1310
-5466
1441
9277
7620
2259
751
3235
2875
2889
6214
9616
-4389
-1751
9577
5432
-2780
-3503
5366
6143
4020
-8884
-7580
5502
7343
-9789
9265
6457
-9337
-9019
9583
7948
-3954
-8100
9966
7966
-1550
-6584
