-4978
1454
-953
2267
-4935
9120
-7305
-6289
363
625
-8446
6662
-3766
171
9169
1099
9408
-7462
-2955
5810
3216
650
4053
7360
-1645
1869
9652
375
-3900
6333
4287
7611
-3447
9842
-6002
7662
1009
8437
486
-6804
4524
2165
-7248
3210
2472
1486
1899
9142
-6821
1364
-3166
6471
-2371
5272
-4704
-8943
-3194
4190
-7940
2529
7405
4130
4086
-4107
-2561
9800
1073
-3199
4706
-8280
9026
6082
3139
9442
4401
4680
4697
-5488
-3187
-8560
7810
-6694
9429
3094
7280
-7794
7918
-1672
5095
-4713
1167
-4120
6816
-1751
-19
515
-6052
1328
-6401
9985
9188
8688
8073
-8800
-1546
-7921
5458
4421
1277
-7456
8197
617
9480
-4473
9266
-1085
2925
1904
-4686
8734
729
-9632
7439
-5774
-3524
4965
-7762
7439
-3225
5756
-5688
1085
-6049
-9811
-9249
-8302
-4339
8179
7895
-302
6965
-5189
-8787
4137
-6359
-8856
207
-3247
9443
-4121
-7943
2502
4637
8373
-12
-8067
8203
7045
5441
4423
-8005
-3766
6638
-9173
1524
9295
436
8977
-4898
-3922
-781
6237
-9267
8829
28
-522
-1522
-7785
9309
-5184
-5083
299
3306
-3059
-4120
6209
-8407
983
3828
-1396
9136
-1297
7022
-6779
-9039
5094
9066
7430
2667
1615
9482
-8935
9987
-2209
-1403
-2225
-9026
-5702
-6627
-2278
5592
7497
4717
-5383
-804
7872
-8646
-2011
8722
-6969
519
-5035
3472
-337
1566
4973
5882
-1758
4936
5473
2021
9290
6070
7131
6335
-9327
1459
-7159
-9320
-8372
-7645
-3434
3813
-8821
589
5170
-5773
-3939
-9499
-731
6555
6443
1115
7529
9846
6516
3589
-6968
-5497
1377
-9719
-119
4023
1704
-6091
3709
7487
-6678
7932
-9397
9222
32
-7442
-4450
-6768
-4972
4728
3806
-8334
-1367
5016
-3713
8994
-1638
9461
3639
6551
977
-9735
2710
-4315
-4321
5612
3788
2031
-7482
-3981
-2593
8282
841
2175
-4620
-1727
8794
-2320
-7629
-8618
-3196
8861
-8514
-7062
5506
-6448
202
-6308
1743
-9261
-8563
9419
4941
-6071
-1415
323
-9313
2398
-6862
9135
-1738
6610
-1256
6689
-5440
6724
6602
-5766
8088
6440
-6393
2837
3652
8337
6902
-7977
817
1426
6336
2065
7422
-3204
9727
-2535
3153
-6954
4979
-7380
7605
-364
-2222
-4949
2279
-6711
-6103
-3669
6574
-9675
-8827
6390
-5847
6034
-2298
2989
-2086
1198
92
-5155
9342
5330
-1596
-5681
-8848
-3519
2848
3528
-9108
8158
-8540
-3657
7607
5435
-2414
8012
3640
4257
-8568
3995
9306
759
826
-9946
-528
-9407
2959
6806
7916
-7729
-8948
3672
7924
3036
-2244
9462
5655
-9025
528
9924
6638
2848
3314
6104
5129
3605
3577
1671
-8930
531
-5955
-7830
-9950
2690
-5500
4701
7945
4636
529
2612
3781
2239
-6654
6512
1903
8100
-2381
-9668
-2316
-5876
2750
9083
9757
9690
-2951
3630
6176
5234
4021
6985
1873
-6862
-4700
6543
-9479
482
5688
-2871
-4928
-8465
-7606
-9150
-1775
1738
2721
-8501
6535
9574
2329
-6395
-9940
-2229
9615
9197
3172
1212
869
-975
-8376
5267
-4449
9116
5869
5328
1368
8538
-8586
6036
-5184
9584
-6884
6962
-5642
7850
-7647
-9573
-9273
6295
-6574
-3289
-8423
4825
8732
2083
-3791
4863
1035
5851
176
-2958
5511
4096
-723
9327
-5696
-216
-2234
-7173
1944
-8376
6592
-7074
1287
-2642
4034
-5389
6468
1069
3317
2484
1947
8670
9636
-1578
-5173
-9106
-7542
-7269
1410
8909
8047
8356
8354
-5864
1905
-8130
-6217
-9178
1089
9845
-5592
7717
-7618
4752
923
3377
-6159
-9448
-4130
8624
4475
4962
-4328
9228
-386
2724
1693
-7975
7999
-7860
3946
-1486
728
5833
-4565
-8595
1846
-4117
5199
1600
-4241
-6676
3725
5822
-2441
-7439
-4347
8353
8974
-7701
-8350
4323
4816
6338
3791
6482
2676
9987
-3038
2621
2042
-9227
-7450
-3433
-1878
5797
105
-7885
327
-7709
7655
6333
-4249
-7205
-8005
6311
-6119
1879
-3419
-8244
-9587
-2559
6498
-5249
-4790
6320
7550
-2441
2297
-8594
9587
-509
-1769
-4703
3064
-5286
9274
-5702
2094
-5753
-2490
5690
7388
-2512
-8656
-8878
-1955
-8747
-3155
9421
-7541
7637
2894
-6692
5505
5926
5386
-3880
-8336
-1682
-6509
-2862
1907
-5577
4505
7003
-4051
-4711
2865
-1614
801
4133
-6402
1252
-8299
-2003
848
7011
-8018
2244
8051
1223
4866
8106
7911
-9262
1954
-7606
7554
7837
747
-1932
-2948
1322
6687
-5470
-2030
2462
-6056
-2718
2694
2377
-6400
8042
-5042
-3390
7879
-1535
7351
2541
-5257
3247
2572
-4206
8381
-8227
1694
2844
-1867
-8707
5012
8865
744
-737
-1208
-7899
9172
7577
-5249
-843
4758
7286
8171
9128
-865
8759
5224
-1243
7127
-624
452
-4330
2645
8414
1307
-7746
-4240
-2795
-1796
8790
-8876
1446
5763
1273
5348
2214
-6218
6631
-5860
-7682
4865
6132
8738
-4535
-196
6298
5631
7168
1418
5940
-6513
-1703
2999
-2237
-3060
-5075
8354
3485
8106
1394
-2885
2553
3614
7444
1124
6210
7430
-5197
-4414
-8883
-2049
-6186
-7919
-357
-8453
-3500
9683
-2373
4188
8833
-4938
-5438
-2237
2091
2833
-3889
-1643
814
-6633
-5725
-9942
3206
-3191
6696
-308
8723
9344
-6702
-4536
7172
-9499
5815
5595
3781
-1222
3791
1832
-4447
-3023
-807
7080
-4418
-1717
-8941
-3546
4119
9519
1447
6663
7810
-1080
4453
9952
-8161
-7639
-8861
5645
-6352
4216
-4980
-5048
-8549
-3202
-4932
-7248
5917
-4183
-3822
-6082
-776
8412
696
-8937
2086
-5061
8809
-4326
6449
-3910
473
5208
9161
-7128
-2950
5007
279
-1474
-3076
-4231
-1408
8688
6121
-5148
6449
8953
2310
-7170
6229
-2602
-1458
-4537
-8497
3771
-8279
5665
-2554
-3275
-9972
80
7064
5778
-6630
-9523
2468
5731
-8572
-8502
3764
-2271
4990
3155
-7974
-6521
8003
-999
7373
6896
-9899
9024
8371
925
-7593
145
-5267
6371
-6999
6500
-8230
4285
-7350
6799
-7935
3766
-3679
6637
7518
-6982
1430
-74
3230
-6945
9942
-4491
3591
688
-1883
2544
523
-9759
5130
-8630
-6028
-8125
-273
5340
-4437
-1441
-7301
-6442
7755
-6668
2235
4349
-7118
-6090
9032
5097
9117
2622
-1467
-4796
-6221
6232
-1185
-4065
-1808
-7583
4353
-6640
3010
-2477
8251
-1218
7969
-6352
8528
-5209
-4093
2193
7667
-5489
-2722
5751
8862
-3428
8480
486
7256
9049
4920
7177
-24
1824
-1875
626
-5154
8743
-4934
4369
4445
-1520
7457
-9555
9490
6117
8945
2442
3556
6284
8898
4141
9724
-6989
2962
5726
9014
-8450
-7432
-5069
301
3026
-1735
1412
1918
-5957
5061
9225
6249
-9742
-8127
4478
-9642
-4479
-8293
3107
8071
-3778
4450
7114
1920
4331
-146
6759
-3080
1993
4775
839
-7515
-4460
5800
7572
-6440
7447
-4000
4524
-2419
-8958
-7086
7626
-21
4601
-6222
-3488
-2318
9111
-6470
-3746
-2565
-3021
-8657
-5958
-6266
-2161
-7779
3384
9802
1978
-8400
8194
-5736
-8103
-7008
4375
-3977
-1826
-8677
7536
383
-2881
-2007
-7971
498
4510
7529
8682
31
-7685
-9669
-3496
-4746
3361
1115
-3017
7764
2784
-1460
-1177
-7303
4367
-2179
5524
-8563
4996
5313
8673
-7196
-8946
-8390
5661
-7899
6855
8059
2216
-6444
-2868
545
7272
8438
-6949
3857
590
-1542
4483
-9767
-8052
2074
9899
-3597
-5164
-35
-251
4905
7307
5078
9165
7513
7912
2653
-8521
-8757
-4331
-4003
-4703
774
9552
-5050
-5183
4989
-4763
-4256
5531
9903
4606
3250
-4348
-4541
-2947
-329
-2665
9406
632
7281
-8806
7988
5879
7145
2603
-9887
5387
483
8932
9450
-1758
-5024
-6878
7161
9962
4295
-9066
6859
-4180
5992
6678
-6977
-1767
-9868
-4585
-5811
-2607
9139
8342
-6887
8353
7900
-7439
7449
-2453
-7626
6311
6616
-3022
4883
-3459
-6867
5347
-5275
6824
58
1924
3803
658
65
1168
8834
-2447
6224
3982
-6088
7611
9786
-5104
-9696
-6047
6002
-6438
-6073
-8203
5499
-6298
-4830
8016
-4276
-7111
-9358
-4378
4696
-7404
-8143
3888
7579
9458
2038
6780
5511
5946
-1090
9778
-4305
1439
-1266
8428
1910
3192
4854
644
5436
730
2580
-766
7759
-3067
-8491
-8903
8529
4389
6261
5240
-5114
-3397
7057
2960
-8431
-9886
2697
-9497
-4817
5946
247
-3030
-9507
-3508
-1904
-1555
1849
7477
-7992
3027
8607
-6268
7474
894
9843
2138
5826
8508
734
-4448
-3512
-3246
615
-2645
3229
9028
-8941
7954
-1625
7241
1218
1703
-4334
-8844
-2739
-4424
-134
-315
-7147
9372
9136
1512
-1498
-8678
-5122
-3208
8941
2643
2913
1712
9850
-15
9819
-6633
7803
5574
8634
-6404
-9271
-8446
9330
7428
-9996
7107
1153
4209
-66
4911
-3696
-2329
-4537
-3211
-2571
4989
-5147
7633
4988
4224
402
1309
4812
4596
-2588
2576
-8968
-5320
-798
-4920
5040
-142
-5643
-3024
7267
2310
1245
3020
5277
-5732
4442
-5259
-918
8470
-2152
-1210
-7480
-1496
-9898
-2337
-1800
6086
-688
6647
-7289
-7593
-3826
6233
-1302
6239
7224
147
865
-7120
3283
-4230
4089
-5249
-7943
-4117
-6430
-2836
8425
8565
-698
-9251
-8867
5459
144
-4068
-9649
7757
6372
4162
7077
-6066
-6166
-4334
2330
3613
7703
-5905
-8209
-2118
9320
-5233
-134
7953
5680
-4970
6034
1332
-2075
2845
-4070
-2612
-7484
2820
9730
-7239
-3220
-2345
1323
-8897
9105
-2572
3013
-8678
-6657
-893
-7287
-6128
-3228
4339
3144
-4431
-8441
4846
-4070
3
-9329
1643
7351
-7182
-9006
-3190
-2877
-1054
8745
4698
-3320
