3760
7792
-6920
8297
-447
4922
5172
-849
2807
1482
-8626
-8748
4592
7895
7142
-5395
4316
5036
3622
710
2721
-3547
-3090
7612
333
1973
2984
5749
-4674
3687
-5576
3066
-9580
7886
-4096
-1666
9702
-81
2154
-7271
-6854
2784
-5813
1485
-887
4898
7453
9766
3312
-2433
9082
9899
-3599
-1422
-9615
764
-8157
-5293
-4458
4300
655
-7022
7731
-972
-9689
8225
-112
5904
1336
-7219
8877
8017
7045
-6966
9089
2286
9352
-2808
4265
8748
6780
-1292
4834
1004
9515
661
-7857
9957
-9214
7806
-9385
-7713
-6161
-4952
-5713
4897
-554
3772
5026
7127
132
787
-3574
3567
4229
-1483
-521
2109
5343
-332
-5953
-5794
1018
-5231
3531
7282
8097
6758
9297
-7106
1723
3247
6041
-1567
-108
4110
9693
5067
6167
-237
5344
65
9396
3759
4315
7797
1172
-7713
6657
-9577
9318
-7343
-1776
6641
-1194
-6881
9915
4882
272
-2932
-9233
5907
-9255
-3822
-3754
-953
-8876
9039
8511
-3842
707
4533
6267
-2136
242
2511
8484
7775
1903
-1764
8447
2097
7142
-8368
-7577
4425
-8541
-2475
684
8487
8934
8884
-2247
-4761
-1231
1505
-6648
4913
1059
5582
-4007
9544
9729
7362
6981
6903
6761
2312
-5724
2981
-6194
182
2805
6806
4735
1913
703
8818
5879
8477
9352
-8038
9418
2566
-762
-6698
-156
5479
-6699
-6809
3371
-6437
4818
-1125
-4114
1291
7795
9941
6205
1343
-5569
4080
8418
-4047
-3565
3413
9500
-1618
-5195
-6014
6606
8528
-3884
-6010
-7816
-7516
-7532
-46
4448
2273
6958
4298
-4199
-910
-3162
-7411
2364
-9038
2506
-5746
4155
4153
-7926
-3311
7236
-3539
-1604
-626
-3252
-9823
-1625
2019
2865
-7379
2713
8725
-9520
2975
8444
8762
7795
-4437
-3762
3821
9083
1762
9810
-8563
2442
5448
-4235
4783
4703
114
8702
-9854
-7489
9792
-1275
-4879
1120
-9590
-3786
2959
622
3416
-7706
1437
-6967
9312
2410
-1718
3125
5113
-4800
9396
876
6882
9137
-8998
-5965
-3910
5430
2282
5624
6882
-2821
-8716
3052
-9714
-7957
-6529
-6976
-9129
8511
-189
-369
-8362
-5724
9149
1712
3649
9338
8315
16
-1642
-3821
2613
-5314
2654
4606
9214
-753
-681
9946
6459
-1446
-1148
-291
3195
-4971
-7384
6170
-5992
45
1732
-9914
-1436
-4516
1389
-5789
6287
-5788
5984
4420
1188
7678
6981
885
5903
3789
2396
-7874
-1120
8922
4497
691
4119
-5838
610
-9160
9007
7766
-9128
-4258
-7515
-6616
-3738
-5379
3211
6665
497
8649
-4676
-8276
113
8553
8017
3255
8501
-3469
4436
165
-8251
463
5188
-7800
6748
-649
2313
-7669
5404
5443
643
-5446
2646
817
5214
-724
521
3903
-4224
6601
-4161
5002
2422
-8385
-5409
-1167
-20
5127
-7147
-3073
-6982
8414
875
2986
8241
-8943
4785
277
6479
-2670
-1413
-8291
-7399
-1561
-1890
-9505
-1534
-4579
8081
2066
1318
711
-6328
6404
-1917
5100
8683
4033
4581
-8788
-6036
8610
7977
4687
1677
-5600
-9429
-137
3745
-2147
3586
-2007
6074
9122
713
-6970
-5903
-8472
2856
-7596
-277
-5180
-2033
8456
4970
1577
2782
-75
3328
5105
6930
2259
6345
1954
4072
614
9994
-7518
9652
9933
3024
-1145
-9715
-7109
7815
-8533
5927
8300
-6812
1931
-7248
126
8146
-6306
-8070
-9609
-4242
-307
-2375
8030
-2907
657
-3999
-9835
6668
7275
-3629
-7774
-7183
4823
-4566
-923
9102
-183
6042
509
-3765
-5200
3066
1386
7789
9606
-9348
-769
7682
5277
-2480
213
2433
-9762
-17
-1759
7124
-2553
-4092
-8744
347
-4046
7156
-6123
486
569
-7152
6145
-6617
9393
-8704
-5574
-305
-9552
-5397
-7614
9220
-4060
-3406
-2478
8992
5455
2171
1820
-7890
7874
4140
-6069
-4882
5865
2172
4601
-6878
6540
-2182
-2819
3912
7153
9333
-9409
-4980
-4278
-9408
3482
-9045
2993
9424
5162
1788
4426
2540
-8603
-1222
-1356
-3540
-8647
7940
2306
6943
-4296
-1739
433
2996
-4689
7639
-4121
5742
-5072
-3231
-7962
7358
-2993
8750
-1212
731
-3036
627
-6736
6611
-6853
1874
-5716
-8218
-7729
4489
2034
9122
4248
-543
-6857
-1562
9069
5199
5280
5526
2833
5036
-4791
6214
-9987
2707
9449
1934
4686
-2268
7784
3917
-5227
-4368
6317
4196
-9866
2016
-944
3318
-1997
4033
-5173
7075
7293
-2104
9754
-2483
-2882
-3004
4640
7127
-5737
-8478
-8714
-691
9362
7564
-7878
3138
2173
-8635
3484
5896
2605
2654
4432
-7057
6085
-10
-9765
1268
9318
476
-7529
438
-4328
-3465
-3851
-7434
-1805
-6923
-1663
-8352
2631
9956
-7506
1779
2860
-3434
8030
3633
6805
8133
5590
-896
-7873
-3392
5097
-4895
7934
-7113
5873
9253
-8761
1753
5903
-7453
-4982
-3980
821
7104
8578
2197
2267
-9304
-9783
-3561
-46
3965
7272
-3467
2133
-8813
9272
3433
5108
-9192
6146
-5920
3997
8206
5379
-3796
4195
9796
-495
5376
5787
-5022
8465
-5296
-8371
-9562
-9844
-1601
-6098
9900
-3159
1882
3645
-8326
-4829
3093
3107
6187
3166
2404
1709
-3746
8797
-8200
3003
-6194
1688
7920
2209
8715
-7995
8140
-8252
7565
8698
3971
-4355
-6709
3096
1960
2758
190
-6830
-1398
3510
-6919
8864
-7113
-4914
4172
-471
-2236
6087
-3187
706
-9910
3158
-8735
9501
-2416
-677
4518
5196
830
6612
3425
-4996
8579
4025
8461
3530
5362
5903
-5943
-985
-8105
-4424
-9374
-680
769
-5599
3338
6401
-7366
7329
3119
-825
1323
2668
-3480
-8373
383
5954
2799
-4461
7926
-4349
-1032
-4681
-8021
1878
-3538
6223
4235
8431
6821
6634
-3381
3058
-2095
-9909
2024
-8684
-2936
-6617
8381
5273
3222
3349
3383
-108
5850
6847
-3757
-2849
-4370
5910
-7683
-9192
8920
-6712
6655
3116
-3839
-7750
-6672
8956
2915
9034
-1219
-7516
1562
6239
-432
-3229
-8567
1170
-2555
7875
-4274
4404
-1882
1320
4652
716
-6103
-8804
5954
-2957
4995
-53
6350
303
9457
-9672
432
1673
7452
-9898
7137
-6732
2113
-5203
8193
8269
-3846
-5887
7747
-3878
1163
-6427
7933
711
-5203
-5422
1200
1362
-27
-6776
-3014
3937
-222
1088
7678
-7430
1928
-364
-3201
-8779
7450
-6016
933
-1263
-339
-8522
-3770
-8956
-8417
-4160
-9946
9793
-7382
-1359
-1004
-1980
-1429
6398
5422
285
-6925
3836
6600
-2697
-6995
1642
2703
-6859
-4359
-9436
-6927
-3045
-8854
2704
3658
490
-9644
5650
-7162
7715
4910
5337
-2343
3503
4454
9565
8050
-5373
3925
5625
-7329
-1835
2863
-7287
6730
9967
8246
2654
9617
-1020
2523
900
8006
1954
9301
3840
-1149
-2466
608
-1796
-4185
-1348
1652
3618
2642
-2128
1721
402
7373
-8440
-6857
-8812
-7514
-4350
-5859
-2776
7761
8318
6015
8036
-4971
-6994
-9799
6557
6932
8987
6579
926
5496
6117
-9116
8894
481
5359
5992
1056
-7603
7380
-300
-4860
515
7748
-248
5097
2370
9169
-4070
6044
7923
8715
-1531
-1189
-1018
1146
2317
6438
2407
-1810
7494
8947
-5694
-1952
7282
2468
-8422
9413
-2012
-5869
-2875
-84
6732
-4941
5452
199
-3007
-9564
6557
-8269
-4443
7770
7687
-1073
9116
-7653
4971
-5611
3876
-7702
-137
9735
7373
-5176
8979
3979
-1872
-226
155
-3622
-4221
7159
2368
1324
-7937
-8896
2728
9177
-8732
-5663
-219
-1283
-2264
4526
9159
4547
-2470
6595
-5031
-4172
-8433
3608
8239
-8482
8310
2904
-7525
1725
-4456
-6132
5472
4734
2793
-961
6532
4964
-1339
1240
8599
8373
603
-4017
-3958
-1310
8647
-9416
477
427
9045
9335
9437
-7281
9097
7420
-4355
-8176
126
5449
-1718
9549
2039
-8863
1892
-188
-43
-5015
3394
6253
1056
-7177
-6823
86
-1896
-413
2382
9192
5023
-4029
5199
7100
9477
-7597
-7645
-6471
7530
3228
9984
-2991
6322
-1875
6685
4471
2087
-2595
-9227
-7297
2894
3265
9633
2220
8175
9949
3575
-4602
407
-7616
-2346
-2452
8226
-4911
-3293
-7793
4819
-9065
1227
9986
-9389
-7168
4615
-5828
-4958
481
6042
5566
-1287
9051
-2638
4198
4145
-3052
-2657
-3944
-8833
5835
-7943
-655
1148
7619
-3718
6658
3332
320
-2408
-3084
5952
7606
2116
4134
5096
-4800
8987
-1166
