7319
-2885
690
-8135
6844
4514
5930
-6524
1651
5182
997
-9820
-3048
-1924
812
-7351
6108
-646
5830
-2889
6152
7668
-6743
-2466
3153
-1860
8466
-6252
9451
7888
-9302
7665
9001
986
4095
104
-8059
1354
2916
6648
-5009
-1607
-2051
2604
-9602
2041
-9832
4277
2871
-8546
-2807
-3356
1343
4654
-1751
5965
-9663
-4707
4200
9932
-5618
-3009
597
-2318
8124
5845
-6254
-2674
-5348
-2761
-7506
-398
-4966
-5581
1718
2844
3223
3181
7426
6667
2152
-481
-2071
9585
9258
5242
-9267
-724
2657
-9642
587
3227
-7229
340
-9439
-7720
8493
1535
-4966
-168
1808
8487
-8746
-4484
271
3311
4286
-6348
-7103
-891
-775
4066
1700
-3059
4005
5640
8548
-984
-3609
1441
-5100
9530
-560
-1635
-9297
-1007
1271
3904
-2098
7853
6923
8038
-6117
960
2800
-870
-9311
-4418
7531
9358
6931
-7352
-3055
-2601
1076
3399
5436
-6134
-2865
1746
1205
-1449
6785
6433
8570
7520
-4430
6488
7084
2862
-4975
8465
-5844
-1792
7503
4609
-4420
-905
5907
-2620
6696
8858
-3334
7631
5803
7878
-8954
1284
992
-3086
-2766
-7547
-8206
3663
3623
-213
7760
5804
-7655
7156
7598
3429
1315
9843
4455
-812
2978
-6971
5709
-4651
8333
-9332
-1161
-6400
-3974
9707
-1071
5620
7972
-2873
-2096
-9734
5375
-4555
734
6680
1952
-3911
-288
-8250
4849
-589
4241
-5035
-2098
5181
-9260
-5845
-3184
8005
4817
-8533
-8700
-1602
-3709
-9430
5297
-7867
-3553
3257
-6780
8017
-3428
6472
7423
7375
-3092
9198
184
-2711
6000
-7203
2025
4052
1853
-1974
7474
3327
-1679
7345
-762
9073
-7135
-7963
-7791
-5314
5113
285
-105
6577
9555
-5448
-2464
-6959
276
4394
-1407
9294
818
4381
-5747
-6537
8039
-4215
9203
-2426
-4731
5481
1190
2705
-2881
-4201
-3293
8058
-4014
5013
-9317
-13
8561
9782
4130
-1069
9619
-1994
-9547
9695
9879
3434
8470
3693
4936
1818
-1749
491
-6965
2441
4371
-9546
895
8623
-9441
-9753
-1134
6094
-559
8634
9316
9087
-8298
1275
-4470
-9399
9986
-9911
2238
5479
-5317
-4678
3533
2781
-8963
-3436
-977
-2608
-9918
2734
4937
9867
-554
-9536
-6700
8282
4340
5305
-687
-3910
-6064
-9130
4827
6044
-6247
-2784
-5982
1774
880
1769
6339
-4198
5509
-6474
1389
5646
-320
4441
463
8133
2103
704
408
-3972
6537
-9036
6787
-9061
-9559
8598
5436
1657
480
781
4153
-1867
1972
8338
9583
-2178
437
7303
-1747
-6617
-4815
5608
-4698
8500
7222
6460
9602
-7905
-3232
3746
9768
-9761
9229
4206
1986
9837
2806
-3882
7646
8426
-4318
4885
-3569
-9578
6291
-7778
8801
1726
6259
7440
797
-8169
2320
6989
3538
-4685
-9065
1405
-9927
-6792
7269
7712
2958
8654
-1164
-361
-2573
-8900
-6685
-1937
-3004
8518
-19
9744
1122
-1831
4580
3658
7720
2937
8694
-8852
-2638
2559
6286
8631
-9513
-3206
2557
9758
-5870
-8854
3190
-2364
498
-5241
-4321
7197
6123
4839
8674
2767
7380
2286
-9829
6522
-4144
-817
-9208
-158
5316
347
-5393
1409
-9014
8408
6602
3467
-8644
-5378
3319
750
-7021
-3809
1141
-4594
9439
4852
-4643
5616
-2837
1271
-7682
5623
2753
5052
-3076
533
9252
-8817
8106
-9470
1957
-9716
-3856
6030
8441
2249
7335
-2171
1892
-9304
3960
4415
-7884
9093
409
-7550
4325
-1461
10
-4277
2275
-8169
-8708
3005
9329
-1153
7300
5792
-1240
-5831
7078
-6767
2852
-500
4508
-6562
9319
-9394
6489
7865
-6919
1363
9746
8638
-8351
5939
3600
7400
-6852
-5785
-5403
-1262
7428
-4720
8156
-8802
-7210
9143
-7723
4566
-6515
-2224
8778
-6620
6513
3157
8729
-6525
105
2260
-9596
977
-9147
-3336
-9507
1207
-8362
8009
2286
8778
8301
9558
8157
-417
9400
8826
-2118
-9680
492
6606
-737
-8073
2022
-6353
-7061
9498
-1790
7822
-572
3210
-6733
1873
-6851
2238
793
4563
-4420
-3138
2425
-3354
7647
2665
2545
7018
85
-4826
-2634
4235
9734
-6745
8679
-6183
9616
5294
5292
-7212
-8901
3393
8427
-551
-2414
-2264
-8670
8591
914
5818
-2148
196
-6021
9346
-34
-6888
6116
5378
9956
4298
-8602
7723
-524
8942
-5820
-430
-5320
-2980
1170
-999
-5630
7935
4745
-4684
-3674
-3636
8322
5963
-4032
-333
1412
-8583
1040
102
-737
8460
6158
3457
23
1147
-8110
9850
1004
3047
-5557
-7836
-5228
-5552
-5881
2858
-4250
3826
-6687
922
8464
4142
-1810
7262
-343
-8568
2077
-937
-1733
5677
-6849
1464
-366
2108
-5817
8384
-6756
4793
7928
3359
6977
-6143
8120
-3984
5050
-7391
3127
113
-8313
-8438
6999
-4966
-1919
-7445
895
-5806
6279
-1898
-3135
-8927
-9595
8627
5453
6344
-7062
3352
-1175
-1893
1835
9398
-8148
1232
-7181
8063
-4913
-8376
-9565
7235
5547
6443
1346
4552
-6039
-7624
3800
-2793
361
546
-1676
1163
3924
-1068
-3540
5093
7410
-9071
6687
2460
-8186
-7786
9692
-1014
-7417
7088
-1266
2083
5224
235
-4883
3905
5136
116
-6358
-9748
4207
-3761
8361
3909
5005
4041
-4867
2831
-7675
8431
4158
1128
1380
-241
3078
3957
2152
4534
9182
6194
149
7246
-2103
-867
-4694
-663
-6041
-492
2778
-3241
1556
771
2066
-1543
-9826
7799
4204
-5285
4030
-6852
-9314
-3471
4719
5441
2322
4972
9011
8679
1449
-6997
6794
-5044
-3359
-8791
-2277
-7473
5571
-6238
9384
6175
-1312
-8917
-5337
-2568
-5989
-8225
-8534
-1479
1749
-2089
4090
-4219
6264
4964
-7753
-4178
2508
-9454
-8890
821
-5750
-5485
-6219
8166
-7836
-2842
6137
-6010
1315
-8189
-6725
208
-382
3630
-3360
312
1491
7211
-8572
-9606
-5696
2268
-5092
-1169
9036
-1127
8123
-9439
1226
1523
-4261
-14
-6630
4799
1805
368
5800
2437
2844
6945
-536
6355
-6136
-3999
-8932
-7486
7797
2806
-1228
-3579
4356
-2401
-5142
-7289
-9638
-9374
775
-9602
-9593
4884
-511
-1736
-5969
-1761
227
3277
3586
-4577
-8431
-956
-4402
4827
160
963
7631
4964
-5508
-9852
-7409
-8833
-4242
-944
2801
-5655
1190
8430
-2605
523
9139
7303
8222
-7624
-261
-4324
-8105
2158
-9827
2926
-1461
9182
9370
-5885
1466
-5629
3346
1000
-3800
-542
9500
4991
-7857
9055
5827
-4868
5706
51
9321
5879
-223
4714
6750
6588
1161
-8602
-9440
7452
5046
-116
2823
5140
3422
-2825
957
-4585
-6887
3918
-9656
9751
8224
1707
1073
8286
1761
7101
-1329
2389
-8441
9520
-8027
6759
6872
-2979
-4726
-6898
3670
-3476
-3620
-4681
-980
-6831
-2604
-401
7984
7269
-9116
1827
-9950
-3278
-9566
9530
6292
-2261
-8236
5794
-6537
-2553
-1889
-1338
-3474
8110
2018
-8992
7416
4695
-5495
3148
-5550
-5038
-7822
3259
-5811
-5570
-6968
9124
-4395
-2639
-7536
-1158
-5077
9237
-7553
7792
-1183
-3700
-1094
-5464
3487
-6702
4946
9230
-2391
-8081
953
-5215
8280
9228
-3549
-6885
-9154
7979
3193
-3236
-4209
8799
-5859
-447
8938
-1959
-1270
-961
-5229
-5564
1335
8251
-3073
-7215
-3179
4527
4820
-6526
4775
-803
780
-7049
-7662
-6535
-1761
-7860
4406
-6931
8247
-2670
9633
7061
8941
1177
721
-5412
563
272
-1611
7580
7299
-9909
-238
6988
-3633
-1839
4026
5523
4713
-8036
834
-9164
-5865
9298
262
9623
-3254
5787
-2953
5384
4479
-3320
-3622
361
-1345
8275
3701
-4328
8624
8073
-3221
-7297
-7848
-7908
-5323
-6431
4390
-7101
-4558
-1251
7199
-7528
-8175
5970
6025
318
-7196
6024
7696
9165
-2502
8346
9195
8029
7686
-7907
-5134
-4323
5266
6845
-2527
-3819
1826
1196
7172
-7262
8906
-2846
-8346
5890
-406
-6360
617
7968
-5254
-6674
8217
6803
-9522
3609
-1793
8701
7426
4769
-1724
3147
6906
6136
2444
-118
4189
4609
3318
-7264
-4995
-1099
9682
4037
-2269
-2387
9107
-1618
828
9585
-9871
5246
-7269
896
4025
-3839
-299
4487
2369
4063
6120
-4391
-6779
9987
1181
-929
-3776
-4642
6167
-7205
4870
6956
7287
-3810
2747
6015
-9538
1639
9898
-7106
6512
2662
-4763
-5536
7872
-6690
1461
-7414
-8753
-80
-9961
-1043
-5432
-1427
5541
4119
-8844
9404
1010
6592
-847
2414
-1020
1811
110
-1540
6445
8
-2965
3862
-3742
7151
-756
-2626
-7691
3699
-936
-5811
-8621
-7759
3701
3310
586
-3076
4541
-8262
6163
5154
5680
-8181
-3391
5146
-6319
-3458
1287
-8300
-8675
1620
-5861
6968
-416
-7041
-8604
-6992
-5943
3384
2091
-1494
4819
-6485
-9383
3429
-8079
8194
1680
2150
-7318
2160
-189
-1830
1525
-3598
7839
-8302
8207
157
-8132
5122
6156
-7421
-6258
-9237
9024
2768
-3599
369
630
-2733
2235
6452
-8883
-10
-9855
-8227
487
-8774
-6950
5260
-422
-505
4404
132
8082
-7109
-437
3099
-561
-4973
5870
-7637
-6840
-5267
-6010
6470
6638
8409
-7870
6124
-9505
9232
4810
6685
4222
-1597
8206
-9618
2170
165
-4744
-5881
-6152
-5403
-4536
-8668
-2928
-92
-3311
4425
-2339
-446
9171
-1841
5179
-1544
-4287
-6306
-9348
7384
6105
8065
9239
-5125
-1172
4471
8528
-8009
8467
-4961
1377
6871
3460
9633
1221
3147
-4512
-8203
-2749
-801
9205
6022
7076
-6352
-990
-622
5303
-3417
8099
-5153
7820
5701
4408
3817
-6281
-8099
-2242
-9248
9380
9803
3154
4369
2617
5283
6199
6554
-1372
-5739
8360
2728
-5878
-5128
2198
5565
-8865
8588
9635
7697
-2176
4907
9971
-1534
-9987
8983
8572
-5238
-5743
1878
-7950
6691
910
-935
1202
5019
3951
-5585
9146
-723
-6733
4094
-1257
-7077
-5361
-2364
-9137
-4901
2860
1885
2958
-2722
4187
7659
-3950
7503
-4215
-1418
-2518
-5034
1861
-3032
6652
-6766
-1126
2535
1402
1831
-4543
6336
3885
-7361
6699
-5527
-3537
-9804
-3089
-5962
529
-6902
191
-2855
4183
-2565
3961
8001
8222
-7365
-3029
-7309
-5739
5100
423
-8337
3535
5645
-1528
882
-9459
-6981
2674
-827
1681
-2277
3927
-3512
5914
-2189
4912
701
-8316
1511
6306
8929
2463
-9678
782
3511
-8176
-9447
-9737
-7541
-1828
-8621
3930
-473
9202
-6929
-2806
32
6544
-9659
-4921
-4919
-7752
-7339
7476
-876
452
-4096
8194
3567
9980
7817
-5040
-7373
-3460
-6396
-6680
6676
-3111
7272
-6213
-6897
1508
9467
-1333
-5064
7216
3082
2641
3544
6630
4282
-476
3245
7515
8427
-3525
2860
1785
7909
6580
2127
1270
-7929
811
-696
5387
8126
-8771
-9625
4437
6432
8694
24
-8507
-6576
-9574
-190
-4280
-8768
5365
9965
443
-5773
-1297
7862
-9593
-352
-9263
-1705
4369
-8012
-116
-1332
-8385
-1044
-5241
-4419
3860
-9396
-3893
-1631
-2265
2592
5737
9917
-2836
9614
-3283
-4643
9945
-4401
-3304
-4798
8207
3631
-5390
1133
8598
392
-151
9749
4803
-2555
2610
-7497
-7695
-5163
4272
8486
3335
-8717
7455
791
-1436
-461
-3146
-3113
1278
-4352
3968
-1191
9750
-3655
-8425
-127
3863
204
-3008
1245
-6703
4985
-2756
3886
-3775
6166
3665
-784
9884
9808
-1276
-4672
-2643
-3374
-6365
-5364
8494
-6422
-8255
3556
-2795
4289
9741
5159
-7878
261
-3614
1682
3218
1082
-3193
-4632
3003
-6203
-708
3323
7701
-960
-8937
-5103
1168
4747
-281
-1455
-7721
-3016
7814
9240
-4846
1843
-534
-2813
-9189
-7597
9927
-6093
8702
-9678
1789
-7221
-2911
2999
4683
7633
-7713
4047
9374
5241
8630
7376
1627
5380
-6740
3362
-3570
5581
2914
-725
8943
-3217
3493
-4402
-5002
-9213
7366
-5142
-9036
781
8313
230
554
2117
9443
-2527
-5625
-7868
5551
5612
6972
5005
-1871
9343
-4290
485
8571
9242
5928
-6252
-6821
4653
7695
7761
-7935
-1473
-9160
9227
3435
3471
7037
-5502
4465
-6022
-9610
2826
550
-9030
-8783
-9104
-4191
1816
1743
4769
-572
-8613
-3114
-6748
-5152
7913
-1481
79
1727
-8804
-2567
-8511
-5721
-9955
-6418
353
3768
-9073
2290
-1518
7886
-9613
1772
4565
-4877
-9912
5583
-3112
8441
-4762
-7392
7098
-730
-5345
-3334
4177
177
-6115
8062
-3796
-7386
1566
-9842
1576
4685
-6406
5491
-8901
3198
-303
-1968
-2385
4037
-7334
-9213
-9105
-4542
-8268
-8650
1992
9980
-1489
-8172
-6426
-7696
6428
4204
-9537
-6979
2700
7320
8202
-9082
-4299
-2524
6427
-9763
9947
-8902
8597
-6464
-4025
4937
9971
-4370
2956
-3047
1633
-415
-1716
9339
-9997
1867
-9880
-5909
8410
-9524
-3455
1006
238
7225
7991
8279
1475
3403
8475
-3450
4720
6558
-4492
8767
6301
-4538
8596
263
3554
-9850
1891
6054
228
4410
-2214
-4208
-5396
-768
-4791
-9409
7073
-2574
-1177
629
-8183
-7956
3524
7484
-9396
4158
-7610
1054
5898
-778
5606
7293
-4912
-4575
-7029
-9949
-1963
-7626
-6864
-2018
6110
-6136
9111
-4190
2368
-5348
-8624
8112
9881
7883
-2511
-6602
-2084
7157
-9745
-3628
-5788
5236
5236
-2860
-4339
-9991
2808
7471
-626
7533
-1
-3669
-8501
1892
-7054
-449
-7937
-7964
-7856
1824
744
6930
-523
-6888
632
-7940
-1398
-3896
-5090
2692
8375
-3401
-5169
-7694
2779
4380
6445
8184
-9788
8684
-1764
450
-9995
9334
-7835
-4375
4714
2343
6583
1331
2947
-2952
-8963
-5137
-576
793
-9795
5044
6481
6718
-2939
4243
-5632
379
3765
5290
-3568
1738
-7076
6765
9743
485
-8486
9289
-8340
4701
-4856
-4659
-1473
5539
1246
5607
-6050
3930
6400
-3996
-9011
9202
5180
1198
5133
4098
-4241
2886
3055
-4183
-9047
4016
-4072
-1481
-7515
3790
5468
-820
-9067
-7491
5908
5679
4167
181
-4295
3743
3068
-1679
-889
-2381
-5168
-9556
-397
-1700
1452
-6451
4672
-7310
3759
-9794
-5349
-2773
-173
-1141
-3001
-9676
-9276
8588
-8115
9401
-3792
-6196
-5106
-9660
-1674
4177
-1636
-177
-8132
-4328
4105
4411
7147
9568
7156
-5957
2841
-1815
-7250
-7762
4423
-1692
6807
482
7182
6378
-5946
13
-8068
-6950
7226
-9293
-3835
9003
-4117
3779
3808
-1233
3960
2734
2632
-5251
1494
5220
9983
9838
7801
-2526
4705
3648
-9018
-7506
5953
4843
-8326
3335
8041
9977
-2149
3662
-5416
7893
-8237
9141
-5149
-2034
193
-4669
-9359
318
4845
-9638
-7120
-3327
-9099
4022
3775
-8449
8751
-1204
2556
5336
-3631
-7080
633
3028
-2062
-9243
5508
5533
-1827
1515
-8176
3940
-8899
-6163
2645
1469
-2878
764
-5575
2647
-7190
-2659
-4979
-5258
4186
1317
5751
2614
-3918
-3541
5672
4885
7730
7401
9066
-3340
-2116
5259
5641
-7949
-8495
-6056
-3041
-1622
4485
-1417
-7623
3111
2861
9503
3074
-5460
8640
7898
-6276
7576
-4370
-7412
-2082
7314
5530
1239
-4291
-5425
-2878
-6053
9413
136
-560
2240
-2689
7300
-6289
2404
-6056
6032
-1900
8411
433
-3799
-5562
-3178
8556
2263
-3329
-6317
8278
-2737
-2903
-8245
48
88
-1698
5322
-9684
6714
6264
9400
-8370
3481
3229
-9695
-2936
8469
-2294
-4604
-7131
-4359
3366
-8816
-7120
-4351
8626
1057
3625
-2901
4327
-3410
-41
-7502
-1776
-367
7672
4286
1861
-3612
-8251
8044
7974
9145
-3295
2358
4622
-3399
-1009
-2196
-3864
-585
-9551
-8885
247
-5835
-3435
-5129
5885
5819
3566
7848
6685
-3396
4381
-3265
-8416
-2609
-4935
-4049
-4255
-3315
481
-872
-7418
-8184
902
-6907
786
-2847
9580
-6752
9050
-5085
-4487
-2184
5546
5611
-4759
7674
-723
7189
-7070
-1636
-3983
4622
8878
1324
2871
5005
3229
-7422
2348
7118
-6179
-1257
-641
8996
4995
-7312
2733
-7806
7595
4095
-3419
-2739
-508
-6180
6209
1350
-9328
-4839
8391
5934
-2730
-9941
-3660
293
-5146
3664
6074
4720
-7105
6892
2740
-3664
9518
-6718
-7050
-63
8505
3850
-7620
6492
8922
-8366
-3386
2688
-8095
6189
-2377
-3637
8751
-2389
-1720
4713
-115
9435
2974
-5155
5145
-9660
3648
9502
2493
5613
-2545
-5202
-5613
-8859
4790
-8745
8940
5005
4583
-5307
-3555
-5216
7469
-739
849
-7754
6918
1364
-9388
-8614
3371
-9720
3555
597
7088
-1084
-3602
5270
-8305
-3501
-8839
-6773
-7707
-6130
-2093
2120
-460
1642
6037
5317
-5790
-8361
-5098
748
-4425
2822
-1510
5831
1271
4389
8740
-9179
-3591
691
-2720
2773
5251
-4610
-3589
2852
-9865
5493
6712
753
9128
9901
-9151
1812
6499
-8422
-9007
4708
8171
7711
-9248
654
8140
-2037
-8455
8587
1200
-2627
8090
-4883
2363
-2479
8015
-7163
-6017
-2772
6517
6106
-2110
2366
-1358
-481
1703
-6694
8880
1002
-3954
-1973
706
-1118
2482
9159
-2960
-9799
-9162
3965
-3224
6215
-1128
7727
-7802
238
-2631
3055
-2586
-7178
9304
-9701
8938
9818
-6951
7547
-3901
-78
-3568
2644
1180
56
1050
-5849
-2980
9334
4310
3429
3252
-4703
-9527
5771
1473
9754
1396
-5065
-5711
-4193
-7355
2509
3563
2447
-8707
1210
-853
8685
-1947
9476
-9110
-4794
-1802
3710
4053
8323
3312
-5981
-9049
-1614
-974
9500
-9809
2715
2661
9932
8952
1844
-865
-7881
-6600
6992
3421
-8768
7725
-3367
-6375
-9853
3231
-9536
9864
3056
5455
-9772
1159
-6394
-455
8522
4974
2308
-8064
9185
2252
-6783
9826
-4270
4510
5569
9029
8001
-1009
-7370
-4515
1414
2864
6905
6068
8018
-1865
8692
266
-5892
-4851
-6884
5865
-4775
4547
9827
-952
6142
4958
9016
2065
-9254
-3080
7613
-9830
-5237
-7716
-9669
-6478
-7120
2721
1632
-467
1030
1006
6766
6414
-5510
-5641
2670
9661
-7084
-9556
2861
-196
4590
-6531
4348
-8076
3835
385
9163
-4676
7952
-4687
-1742
5126
3026
4087
1344
-3273
1549
-9767
-7321
8680
-966
8664
9799
9970
-8311
4092
-27
3538
2678
7338
7335
-444
637
4700
2700
-888
809
-6997
7504
1827
-3414
6122
-6425
9370
-2826
7541
-8816
918
5759
7877
9298
6322
1746
6372
3953
-1930
-9460
-9063
3390
4085
-5178
2652
-8125
-9997
2370
-2500
8052
-8257
-2776
610
8230
-2938
3341
6497
179
-1801
2937
-7545
8814
6828
-4786
1764
-8426
-2771
-4486
-1696
-1658
3911
-235
-5151
8447
5924
-5454
-6395
-4431
1601
-744
9398
-9702
-5248
3583
-6511
9681
-3879
-9148
-908
3214
-7601
-4223
8502
5559
9139
-6168
-3950
7726
-6346
-1399
-8803
455
9294
-6592
-8305
6234
3475
3977
-2005
-289
8380
9987
-2993
131
-4507
-4863
-4183
4049
-7055
7699
-5877
-8325
8110
6520
7901
6050
-3030
1026
-3754
-9301
6453
-1915
-1715
-1635
6359
3350
-2198
-8763
3315
-9688
-624
1262
-9078
6262
1810
8136
-2648
-8735
-7892
2087
4559
3445
-3587
8743
-8308
-7987
-6913
4190
-635
-2029
-2485
-267
1197
-8249
8214
7930
4326
-3166
-495
-5831
1545
-1046
-2767
-8695
4354
1546
976
8863
-1641
-120
-1370
2813
313
8638
-2554
7124
-422
-9242
9383
4106
-4218
-1135
-2023
6957
-719
-5015
-1020
5007
1232
-1027
7698
-195
6152
-8334
2153
-1501
-8659
4843
3150
9911
-5197
6816
-170
8222
-3882
-155
-7581
9373
3146
3564
2690
6105
-8416
7209
-2996
8964
4038
-7327
-3159
2656
669
284
-2608
9814
4371
9714
-3989
-2459
60
-533
9258
6013
9843
-9769
9763
2990
-6320
9659
2287
-6771
-1417
-811
2146
-2362
-1479
-2927
-1474
3396
-8142
-3913
253
-6655
-6475
9201
-7746
-9410
-4946
2008
-2866
2620
7207
6807
-1692
-1883
7125
-10
-1480
-819
4747
1730
822
1945
1740
4982
7814
9245
222
-640
-672
-9474
8293
4787
8795
-3841
4714
9590
-5833
6080
6020
-1749
-9515
5877
5971
-4896
-1812
-2539
9391
2068
3645
5951
344
-9222
6657
-374
8006
2531
3351
-4469
2686
-6914
2352
-166
9181
-6484
-2910
9006
4928
3278
-2223
-4375
-3561
7074
2835
857
-971
-6788
1468
-5331
2095
7947
6570
4265
5009
7611
338
-8447
-2837
8307
-6312
1098
9765
1639
-4999
1599
6746
4085
-6268
5830
7363
-2434
-9954
-3217
4173
-802
2942
-9028
-3469
9373
6206
-6180
2015
9000
-5962
6593
-3966
9150
6377
9519
3249
-692
7699
-8473
3655
-5940
-7567
3477
722
2281
5215
-1192
9463
-2255
-5200
-6832
-1843
-4441
6724
2949
-911
-5011
1741
-8463
-9131
-4104
4524
1622
7697
-6553
303
2166
9431
3698
5889
9315
-9617
-8702
5867
-7921
-5537
-247
4857
5561
-341
4627
2280
7274
-4250
466
7433
5301
5768
-6620
-501
1067
-6078
2982
-332
3964
512
-302
710
-9693
7859
-3533
-6943
-5152
-9703
-2507
-4114
-443
-3948
903
6724
1368
9100
-2941
3696
-1680
5106
-258
-9163
-8227
7072
-6431
8786
1364
3606
-2303
695
8860
-4541
-6726
6310
7262
4529
54
-4021
-7657
-6446
-3762
-9272
-4814
4421
-5207
4560
-3636
8404
-565
-9223
5065
-7465
3863
-4611
9797
2934
9038
-2397
-8829
8131
-5053
9847
-8109
-6781
-4269
-2018
4196
9152
-9987
6080
818
606
-8150
9595
1944
461
-7972
-4292
-2254
9384
-5774
313
-6342
-5135
-3886
-2593
-6037
5698
1508
-1568
8096
5098
-3491
-3197
-6322
-1577
-166
5824
443
-9984
5640
7116
-9957
7692
-4357
-9042
-1900
3137
6655
-9964
-3010
-8206
-502
3723
-9548
-3196
5719
1248
4459
8117
9701
-953
-7293
111
-4575
-9897
9598
8882
9574
1204
-1157
-6157
5629
7842
1494
-2676
-2808
5840
3782
-9404
3060
3869
2049
-4939
-8575
1590
-147
-6690
6000
-5512
-9455
-3665
3113
-1692
-2400
-9607
5396
-6417
4486
9828
5193
-6187
6066
-9338
8713
-307
-5680
-6226
604
-3860
-7420
6286
7859
-1091
-5433
-4969
-8185
3219
7138
-3055
-2488
8087
-1009
7873
782
6966
1491
-6606
-4822
7794
-7658
-6846
-6803
-6292
-2039
3664
-694
-545
-3713
3563
5793
-2087
8105
-9929
6791
6161
-7923
5700
626
-8812
6298
-9753
-3811
1581
7550
-5371
-4938
-6534
8294
413
7968
-3571
1036
1644
1373
-1629
9866
4071
-1851
-3052
-254
954
-5257
9685
5591
-5667
6617
-5138
-4783
5959
-6509
-9106
-7136
3086
6490
-6758
3411
-9150
383
-5262
-8797
-4795
5812
-2252
2025
-1773
-1175
4756
-8040
-9003
-2044
7695
2583
-1564
2777
5749
-1533
5100
2013
6402
-69
-8674
4227
5109
1736
-4965
-452
-4738
6652
6132
7032
-7994
1773
-2406
-1007
1004
5045
196
971
6343
9579
-3693
4059
-9397
-5815
2206
-5166
-5537
9935
8149
7463
-6743
-5320
-9315
-7633
-6468
-9973
2721
-3696
-6073
-1302
3406
-85
-8409
4007
-7912
417
7873
-2168
-1536
-418
-4817
8563
-5510
50
-9367
6381
-7326
6729
1551
9564
124
-5844
2904
2645
8031
-4332
-2668
4879
-7793
-4339
-5203
-4220
1925
2327
-9298
-6568
1494
5026
-1125
-9183
1790
-2214
8952
5573
-2487
-1572
6479
9418
9931
-8566
-1585
-5136
4647
-8125
6760
8942
9202
7638
8704
-3689
-3667
7622
-7128
7392
5250
4727
8245
1181
5528
-5822
4796
6842
6024
-9899
3004
3435
-5310
-3760
3249
-7096
4256
-9667
-4584
-2134
-6567
-4099
-5901
-7182
-6382
57
5424
-4963
-2900
-8556
7777
-250
-5757
-1500
623
3086
4432
5043
3127
-4132
8341
7444
7419
-8534
-2457
-4272
-9871
-8229
-8407
9503
191
-3289
-7601
-1101
-9025
4863
-8981
-9510
-9610
-4691
-6982
-1234
3935
4241
5049
-5268
2532
-6256
7581
5005
-523
-5330
6483
7158
9054
-9193
9664
9974
3068
-2770
-5960
983
950
-7770
-7215
7815
4158
9221
3205
-5193
-3822
2740
-8522
1772
-4257
-9108
-7905
7975
-7233
5607
7104
-8949
-5997
-8443
2994
8026
-1404
4754
1583
-6452
-7546
-7268
5339
9037
-5227
9520
7260
5775
-9947
-9205
-9222
4708
-5405
7145
6110
6324
-2259
6812
-3935
5024
5016
-6930
-3508
-5836
-7162
-3926
-5537
-9705
2604
-5903
-9373
-1860
-4220
-5082
1370
1426
910
4535
-8958
-1026
8625
7444
4869
-9757
-8774
368
-844
-9889
-200
-332
-3102
-1320
3672
1539
-5787
8722
4513
-6293
5752
689
578
-2559
5780
-6781
-4667
-415
-4370
5682
-908
-4336
8002
8568
2331
7208
3888
7320
4987
-889
8815
5787
7289
6121
-8227
6516
4623
1526
-7676
6891
1388
5593
9251
2439
6990
-3456
-2441
-8331
861
-7367
-277
-9629
-7184
307
1789
7580
37
-9498
-4742
-9758
-7324
-7228
1626
9128
6255
5302
-1903
-5338
1057
7725
-9911
-1981
6072
-6772
9099
-9707
-1653
6650
-7138
437
-2747
6030
8854
-8633
-2339
-3529
-8067
2782
5952
-2675
2147
9207
-1482
-3726
9819
-7834
-6404
-2741
1492
6554
-5735
3092
-7415
-6971
2853
8167
-9565
-9462
5234
-8176
-5159
-3821
-2791
-1233
-7684
3119
-5422
9336
-5038
1597
-6451
-530
-4781
-7151
8724
7896
-6315
1335
-7763
6409
8788
-3277
9435
7934
-5680
-6185
-5881
6743
-6374
6021
9375
5268
7762
5894
-1077
2810
8968
-5074
8196
2851
-9483
3992
4488
-2270
9361
-4263
-8958
-7886
8930
619
-8693
-9988
6007
9545
-3537
-6015
7846
7639
1789
9763
-6485
6172
5675
-5321
6871
-7413
8754
-5931
7740
-7805
-9875
-3691
-7535
-628
-7445
4105
5428
-9092
-705
7414
-948
-302
-8684
-8391
1350
3033
-4258
3486
-2626
6523
-6261
7220
3653
2016
9271
-7446
-6746
5894
8907
8336
-6891
2722
7245
5923
5008
8469
-7431
9009
-3021
7380
2948
-854
-7308
7081
-5671
-507
-6807
-2414
8973
-6720
-2621
-8358
-4779
7999
5540
6195
7588
-8457
-6301
-2258
-9899
2265
-4412
7959
-4973
-8573
3804
-9748
-5677
-6523
2010
-7319
1650
-2660
6001
8267
-860
-9841
3062
9767
-5037
3874
-3777
2720
5294
-5414
2861
-2007
-2611
4768
5563
2983
9249
-690
7221
-721
-4190
7634
2073
-6196
1502
6368
-292
349
4785
-454
-9988
8879
1451
-3238
-6361
-8920
-9582
-6456
4764
-7572
-1746
2769
727
-6654
6815
-8834
6637
5045
-7863
689
2068
-753
2121
1040
1712
-4776
-4387
6581
-7832
2477
-3973
-1338
2984
2809
-951
2577
-8267
-8277
-4245
-2605
9969
5769
-9952
6355
9911
-129
2456
5805
-9997
6574
1092
1348
1689
7893
4968
-8610
9413
-473
4904
-9744
-8853
7210
2882
-4230
7788
5366
1974
-546
-3721
9371
5896
-8543
-6470
4488
9710
6869
-3911
-3122
1384
-4763
3900
5078
7667
-9095
5640
-6019
7138
-1734
-2231
7528
-1698
2977
9797
1279
-8747
-2035
-5747
-8579
7706
-8729
-8677
2943
6074
1763
-4528
-3549
-4215
8263
-5929
394
8210
-2191
-3409
-6426
-9690
-384
6955
-8726
1505
-7327
-8609
7744
4322
-3009
-593
-2486
4974
1186
6536
-1455
1331
2398
4010
-8632
-7373
-1565
2770
-9955
-2250
-3376
7051
-6814
-2862
9010
6219
6226
-2960
9326
-7362
-194
-5676
-6386
-1976
-6712
-4988
-6597
-8870
7363
-9621
-1944
-4513
-4839
722
-8846
7574
-2648
-1198
-5246
2966
-6422
2442
4878
-9161
-234
-992
-8200
-4319
9000
-6873
9438
9145
-7844
-6464
9676
4654
3754
-5140
9389
2734
-1581
5832
-9300
-3992
-6315
6714
8254
9323
-3841
5556
-8745
2774
-334
5490
2504
3092
6427
-6644
-8066
-7524
-4698
-6236
-2147
-7114
4707
2064
5614
-1370
-7868
-5268
-9593
-9661
-3071
-3701
8589
9417
8671
-1721
278
3631
9366
-2637
4805
-8302
-5369
7730
-9764
-2430
6257
5457
-1695
-6417
6618
1745
6938
5695
-6069
-3874
-6074
-6234
-3324
-9203
7388
5143
-4681
-7118
-8630
-9182
-42
-7299
-1876
9923
3648
2998
2685
-9355
-7104
-3359
-234
3354
9154
8384
8268
-4683
-1827
-9859
-5515
-4663
-2359
8516
-8559
1463
-2177
8445
-1032
-4822
4716
-2621
-3309
1452
807
-9247
-9541
-4333
-5467
1357
1667
5538
-3622
-7240
-1541
9102
-3150
-9952
-2021
8191
9556
9972
-344
977
1273
-3075
898
6821
69
-8776
-1331
-7967
-7534
-8167
-6957
6074
-8943
6873
2185
4356
-4822
-7752
-7896
5930
-1117
1119
-942
-7725
2928
5256
-2282
-3212
384
2887
3952
3688
9152
-2775
-2466
9749
-1120
-5245
7125
2599
4644
-6921
-2417
-4695
-4742
4343
-2107
8506
-9858
-7814
7006
8615
-4499
7665
-5614
-6619
-2152
-7235
-7771
4610
-9065
-1159
-2832
1923
760
1782
655
-8919
-7431
5661
9281
5812
-6406
-7699
-1025
-7001
5823
-4545
-9685
7635
-5851
-4790
-3872
6245
-3001
684
-2940
-4789
-1044
-2678
6047
3955
7790
-1238
8342
-7988
-7992
2753
-9769
3685
-795
5502
-3399
-5617
-9575
-422
5210
8610
-8828
6696
-6210
-8744
-4138
-1331
5042
939
9217
-2768
4193
7080
5510
-3277
-6161
-9226
-5509
2237
1724
-6352
1501
382
8464
8586
-1500
-313
-5726
1535
2547
-6564
-3545
-5448
8871
8921
2711
6863
6649
-5971
-766
2899
-2534
-5445
7104
-5936
-1297
-6137
-4280
4531
7168
184
-2278
374
1815
-3692
6385
-3930
-1294
-8595
-6577
-7245
-3812
-4600
2866
8558
3784
-7470
-5004
-7076
-5640
2674
-6829
-5977
-4088
6518
6023
-8765
6672
-6214
-2401
-6923
-4798
-7473
-1135
-4923
-4239
-8141
-4575
-8202
8507
554
8311
2513
3904
9543
7434
1055
-8788
7637
524
-3139
2082
-3292
4390
-3484
1982
5034
9798
2903
-5470
5732
-3494
2498
6851
-9131
759
-9533
-2348
-8640
3997
7922
-6077
7666
-1447
-3980
-2886
7039
-6188
7516
5038
9257
-5383
-1954
-8073
4746
-7415
6507
-4245
6484
605
6857
-627
-9804
-9075
-8005
-87
6175
8045
-5428
-418
-9573
-910
-796
185
2828
-3690
-4051
3601
-4286
-854
5827
-9121
7472
-3524
-4213
-6215
2733
3676
-7336
4349
3144
3651
3594
-9691
-9032
-3877
-6266
-2646
1442
-4644
1224
2685
9272
-7166
4114
-1347
-386
-1489
-5817
-9948
-5411
-8090
-1347
4215
2614
-7352
2313
-897
9726
-1094
-205
-8670
-386
1883
-9430
-6524
-7806
4486
-2284
7960
9377
-6732
5552
-6585
-8995
-5904
-9039
-1308
-5997
4050
8553
9558
-6557
-5266
795
-6446
5433
5483
769
-345
8707
8908
-2522
-8908
-5762
-4302
1421
2055
420
-9149
1637
-8011
-4927
-734
4459
4804
4927
5054
8989
4576
8313
-4000
4573
-5851
-2645
-7760
-8436
8555
2282
6590
8196
-8697
-7622
-7197
-6337
8260
5537
7642
-9776
-8700
-8350
2832
5756
-8201
3681
-6304
2124
2742
-5157
2785
4507
-2617
126
8811
2180
-7697
-3741
3873
-7871
-6808
5284
-4707
3526
2778
-6037
2264
-6712
2085
3632
-7873
711
-1453
3383
-3838
-7246
7504
-6906
723
478
-2760
-7652
5840
1990
1880
-3794
529
7472
-8528
-507
1733
7894
3882
7515
2085
567
9440
3011
-9381
1893
-4167
6666
-9872
528
8239
-8318
-4986
-7404
-2379
-8387
-5709
-5297
-1300
-4858
5832
-9802
-1567
-8570
9991
9445
5597
-4650
-6595
-4141
-7355
3175
-2905
5992
-7945
6195
6912
-5762
-8817
2234
8900
460
1949
-6790
-2658
-7601
4699
628
9069
-6290
-811
-9678
4015
-6716
-116
-7282
-956
1734
7633
-4372
9791
-3027
-4767
-7235
3532
2327
553
-6886
-4998
7903
7621
-6192
6677
-1323
-6606
-7712
5209
-8708
5985
2298
-3573
5636
-1297
2685
-7132
6916
-6539
7950
-263
9350
7063
5183
-2052
-6491
4287
-6738
-3844
-4059
2816
7086
-2369
1918
6837
-7840
2385
9962
8449
-7056
119
282
9052
-7783
5372
8329
-3557
8031
2671
-614
7661
-100
6542
417
-7580
-3520
-1088
-8577
7477
-6700
4720
-9969
-1569
966
5518
361
2113
-8207
-9657
-35
-9814
-4036
3352
7114
-7552
-2905
8523
4836
7075
-8539
-6899
-2283
4154
5154
-6441
2911
-1195
9136
-9465
7715
-9356
-6663
2440
2613
-2537
-2072
-8563
984
-7273
-7638
-26
4425
8869
941
1289
6137
-8656
-2563
-6943
3888
2011
-9325
9795
-1215
-5329
-1956
-3288
6401
409
-5514
-4685
2799
5945
-9160
-555
9511
4231
-2723
9291
8816
3336
5103
512
-6578
-3006
-6667
-4247
-6834
8175
-4788
-3333
5396
-4330
4281
5949
5430
2898
-434
968
8782
8034
5117
-6770
-2143
5006
-9548
1234
-7657
6074
5245
-1790
-5215
8381
4257
-9290
604
9295
-3499
-665
5341
8286
6532
8524
-9067
-3251
5091
8891
7569
-8621
-8689
-7458
8019
-8394
9432
-433
-2792
-2944
-826
-7859
-8493
7117
-9201
-8385
-677
1477
3496
-6459
-2565
7772
8769
-4274
6003
577
-666
-4766
-778
4494
-1579
-8336
8308
-6604
-5611
-3903
-1119
7699
-8806
7757
-4328
-7928
6539
3776
4176
7046
6428
-8684
986
9806
-2650
-4087
-7575
-8293
5478
5054
-5456
3145
-3959
-8214
6629
9973
5388
9609
-4946
9879
-6645
-3042
-5321
-7943
-5925
-2792
-9069
8931
9788
8501
7282
4874
-6040
6582
-9935
-6483
7629
-6629
-4628
-7320
6025
-5787
1273
-6069
1250
-2481
-7350
2337
-8774
1948
-4368
-8706
5132
8318
-5991
-2894
-8787
6128
891
8552
4045
-2126
5503
7712
-4650
-1765
7197
-9890
-5145
-194
6602
-5404
5925
-7810
7288
6363
-5591
-2923
-9604
99
-1435
-1633
-603
4529
-7053
3442
-7513
-5519
-239
9372
6051
-7963
-2508
6108
4256
4537
8485
7715
6983
3842
-5318
2160
-8793
-1301
-6146
-9592
9326
-9996
7480
6360
2081
7394
5750
-9410
3345
4808
5239
-7120
-514
2540
431
1260
-3138
3814
-8453
-1465
7680
4963
7992
-8817
6595
120
-676
136
-1724
-6405
-6298
8047
9639
-3810
7628
3491
-481
-4741
-9864
8973
3233
-7434
-396
6661
-122
-1107
2058
3419
6084
-208
6037
5053
1627
3013
-8974
-1416
-603
4886
3983
-9095
5144
-9732
-8370
2386
-9152
8680
4891
4763
9599
7889
-3619
4080
9682
-4648
-8294
1520
767
-2096
-8861
-2392
6165
491
9380
-1408
1652
5881
8076
-2259
-6450
9022
-1726
-1193
6626
2100
8109
4124
-4192
-698
4855
5602
4784
-6075
9757
-6737
9299
-5271
9209
-6911
3234
-6770
6385
3552
-8409
9202
-6248
-1436
5997
7710
-1225
3432
-4368
-2259
2641
-9934
9250
9898
-5015
-2276
-7522
8586
6332
6522
-1403
2703
-5548
-7754
-9215
-1843
-9291
-6895
-929
5325
-1719
1781
6253
-4880
-4732
-675
-6417
8357
-7317
-8524
-753
4976
9803
-7508
-9496
-8097
-2486
6732
3775
-8571
4035
4085
6102
5541
-3143
-8293
-3949
-4105
9642
-8371
-7482
-6026
-6375
1449
-4187
1488
-843
3628
6994
-2837
-4896
-2193
-1358
-7213
-8839
190
3067
-1188
1423
4124
2445
7715
-3746
6854
9403
1997
-6118
-1136
-3669
2896
3232
4238
7003
-4203
5085
-6820
5062
-1245
9938
1085
473
1720
-2123
2566
7316
-4260
8229
3270
4053
-6198
4964
7625
-9079
-2018
-2470
-3649
8125
-8856
6247
4048
-6705
5697
6398
4245
-3114
6778
5753
6884
291
2700
6596
-8378
-7097
1649
-4819
-822
1638
-9683
9069
2545
9247
-2452
-4045
48
6184
4049
-3667
-6986
-5094
7836
-3209
-7702
5160
-5682
-9308
-101
4184
9788
8689
-5392
-3353
-2400
2756
-6071
5795
7360
4334
8430
9455
9299
9702
9248
-7659
-1760
-6167
-5377
9639
-5326
-2261
7156
-4117
3984
-6237
-74
-2188
-849
8216
-3412
324
7094
-8526
-1649
-9502
4351
-8139
-1071
6284
3827
-8403
-2436
3710
1166
547
9732
9172
6604
-3290
5329
1962
-3811
-8899
-5076
-3821
-5180
-869
-3885
902
-7139
557
4057
-7128
-2114
5761
2907
-3201
-6366
-2655
8227
-4890
-643
2967
4346
1054
-5509
-2163
-4817
6970
-4075
-6578
2232
2976
8148
2729
-754
-9603
-9837
1877
9492
8980
-2724
-7295
8609
-2730
792
-8171
-6307
-8548
4039
7812
-2428
-394
-647
-10
6161
5455
7329
48
-3682
-1416
7057
574
-8191
-3493
3976
-6433
-4199
-1896
-9302
-3693
-285
7593
-4715
-8019
-9690
-6416
1403
-1872
-421
-1326
5229
-2789
5306
-8308
5094
548
-5916
-3180
1625
9330
3104
1722
-1546
4600
2280
246
-3396
1860
3965
4317
9239
5334
-5951
4405
7727
-8035
5197
8232
4788
5832
723
3353
6071
-9991
5832
-9140
-2497
4673
-8033
4597
2592
-2073
9457
3200
1180
8807
-6048
623
9118
-9158
2777
4998
-2995
8801
8952
5309
-4706
1418
-7508
729
-6983
-1603
1405
8420
7785
-8629
8063
-7839
5903
5336
520
6401
3117
-401
2951
8168
-1062
5428
-5466
-7340
-9587
1401
-8109
-2462
-5124
-3234
-3337
-4461
5414
-1785
6798
-4576
7672
-3905
7854
-2796
2090
2330
-1118
-806
1806
4257
6398
-8381
-6848
6059
-477
-5647
-6922
-7327
-519
4833
-4183
9765
-2470
-3758
9678
7805
-3233
5784
4160
8259
-4685
-1769
-2618
-4416
-8916
798
-5653
-26
-8405
2098
-2331
-7300
-3725
-9981
-5895
8390
3183
-8702
-7372
-3223
-2678
8946
-7244
-9832
3451
-7175
-4554
-7678
-7204
3305
-6868
9419
39
-1620
-9673
-5556
-5280
-9571
-8299
2604
-604
535
-9332
-2724
-4072
5377
-1757
3474
-9278
4598
9306
-943
-6
-5014
-8613
2529
6898
1893
-311
836
-6201
8042
-8645
447
4980
-4854
-8232
737
7839
-5190
-3769
-70
-6181
-8319
-8533
-9257
-5674
-5919
-6922
5417
1413
5145
-2457
7955
-1831
-9015
242
5134
-440
-8558
-5332
-2704
928
-6269
2178
-5090
8357
9589
6558
7554
2798
2509
3090
8228
8192
3213
-2012
7807
-7298
8742
-9234
1975
-8272
3355
-501
-3900
1592
7889
6883
-7696
-6479
-1671
-6340
-2633
-976
-5984
5164
107
-185
1296
6672
-7435
-1937
9317
3653
-9468
6102
-8700
-5819
5928
-1358
6815
2500
-4020
-4967
8416
-4912
2340
4411
9421
3535
-2928
-7770
8775
-7770
-8255
-6812
-6436
-7014
1009
2622
-9885
3718
2569
6042
-9398
-6341
1796
-5152
3585
-6207
-8889
5163
4208
-2092
-8236
6303
-7479
-3008
-1184
-4491
6937
-2265
-1138
6446
3851
-5503
-5552
-9627
4175
-6679
9171
887
2893
6458
3053
5924
-1323
6352
-917
3890
7185
9135
8709
-5198
-6106
9440
6587
-8168
108
-9316
2992
-6170
-700
7975
-3838
-4794
9960
4409
-3879
5963
5901
-4255
-3335
-8240
5219
3329
-7269
1501
5164
-9362
-3274
8322
1665
4858
-764
8685
9526
1771
7065
3925
2099
-553
-5277
8723
-2269
4352
4201
-8230
-5669
2009
2335
-4643
-6847
3626
-4999
2637
-1841
9965
3099
4007
8357
-5786
6517
-2680
-2962
-3284
-852
623
-5946
6189
-9409
627
-4861
-5607
-1709
5267
-4316
-5792
-2371
-5411
5502
4706
-3108
-9456
5815
-8975
-940
-6620
-8
1711
2993
-53
5582
-8276
2877
7592
-3256
-4664
6658
-3812
-6670
-5
-8241
-9589
5828
9481
9463
-5399
3701
-7229
-1820
3253
-1182
-6459
-9884
1694
5365
4577
-3987
3502
-7046
-8853
8131
3927
-9433
-2103
-6967
1854
5644
-5007
-7462
-3211
-5273
-9110
-6201
1891
-30
1541
7547
9258
9282
-1192
7361
-542
6904
4460
-7834
3735
-4022
-9595
-750
4399
-5029
-9396
-4335
-3505
-4205
5694
-7812
-7733
3011
7373
-4095
8765
-9247
6379
4993
-1463
-3199
-4711
-7567
3503
1742
-4737
4124
-7050
-4828
4585
-8671
7936
-9357
5991
7306
-3462
-3599
-313
3734
6960
-121
9456
3706
8906
511
348
5036
-2537
7659
8160
109
-1631
8231
-6655
6644
-1345
2077
-5097
7539
-7504
2291
-6519
-2679
-1511
2279
-2905
7784
-8329
1770
-2208
-3983
1236
-84
-6958
4284
-6785
5194
1743
3168
6315
-938
-8481
6820
-1327
3089
-8738
2399
-6575
-2170
-9033
4470
1830
5690
9422
9592
-5912
-150
-372
6286
43
-3486
1628
-8722
-5333
8855
2973
-5872
-3539
7484
8104
-710
927
4544
9722
-2866
5706
-3649
-2465
-6351
-753
2945
-7198
2256
617
-7962
669
-9375
-5480
9466
6561
330
2601
-1292
7734
-2080
9857
-2139
6587
-7876
3193
-5832
-1529
3946
-1842
-6719
3416
3816
9403
3378
-1374
-6864
610
2645
6514
6380
-9592
-7269
1732
4231
-7763
513
-182
-1712
8192
-4185
0
-6463
-485
3673
-4827
-3980
-298
6377
-6858
-9952
199
-7358
-4981
1818
3080
-831
8981
-5558
392
3282
614
3148
5592
4387
-5354
-1138
8942
-3245
7156
3298
-4217
6420
2183
9461
-5732
974
-7882
7600
7470
2585
-2549
-1342
-6336
1810
8113
-5295
8148
2580
6054
-960
-9813
7207
-3345
7366
9362
-5667
-4769
-4102
-2824
-7551
4084
2202
1651
6968
-4563
319
-4491
-249
6054
2862
1636
6591
-9471
9801
-6340
-9600
-8153
6073
3816
5576
-9678
8343
5638
-7368
4881
-4985
-5332
-8916
4371
2958
6887
-6539
735
-533
-8387
3501
815
-1423
-6779
7652
9003
7187
-5551
507
-920
-1733
-7120
2057
-9681
-4013
1796
7463
-9698
759
6778
-1509
4875
922
-9832
-154
4283
-7800
-2970
3378
-6225
-3896
-1791
8399
6808
-5908
8811
-2633
-483
-4478
3721
2747
-3854
-5599
-4324
3088
-3021
2393
6016
-5869
-7420
-6262
3348
-5693
-8802
1446
-8804
2991
-220
3610
-7870
-5376
3286
-6393
2924
2116
1850
-1332
2945
-1032
-9175
-2449
6292
-8981
4878
9913
-2850
-3940
-5976
7560
-2677
2281
-3178
-9178
5141
-4947
4032
2142
-4288
5556
4542
-6678
3879
4564
-5324
2868
3394
-79
-8156
-4398
8372
-2707
3977
7872
-3515
-9694
7309
8679
7228
-1580
-3212
9489
3185
8682
-4203
-6301
-2672
1015
4835
-9551
5260
5722
-7606
6901
-2287
-3368
5556
-1890
5608
3632
2679
-5764
7765
-5705
5995
1178
9553
5861
-1882
2535
-252
6108
3137
-1649
-7585
4391
396
-748
786
2660
-3026
-6650
-9071
-9690
-6438
-2343
4388
6428
-2352
-4194
1114
-1640
7754
9505
-3451
-3587
-6993
-7576
-9846
1192
3399
-7915
6534
2173
7870
-2094
-5145
-5996
9653
1610
-2556
-9509
-8627
66
4299
-4738
-4046
9934
-3425
-7152
-6328
-1390
9235
-5759
491
6497
-9272
6933
-1605
2006
5791
1053
4440
-7506
-3507
-9622
2106
-8068
6101
-115
5761
-797
598
9914
-2839
9719
-6584
-8864
-8575
7424
-9574
-5819
-757
4281
4266
-6820
-8139
9991
-270
3352
5942
5942
5280
-573
6480
4297
-323
-6179
-2320
-4350
-2795
-8590
-5904
6800
-9741
1106
-2685
4012
3729
-6409
7046
6454
-7829
9233
9767
-390
7687
584
-7104
-982
4225
-260
7979
-8959
2203
-7482
-7510
9196
-3619
-1456
-3461
-7849
9376
-794
8228
-7421
-6531
3871
9299
4904
4065
-1125
1374
-5701
9690
3440
2334
-658
5368
2108
2216
6404
-1031
-5898
8523
-4920
3365
-3260
1930
-9140
-8780
2150
5137
-6182
-6303
-5615
-43
157
9646
7509
-9278
-2712
-2427
4313
5723
-7527
9101
-25
-7388
-9895
9777
5382
-1452
3329
622
743
-8575
-8016
2249
-8295
-5466
725
-7790
7414
-6167
8756
-4178
-7216
-5687
-4341
914
5674
9962
-3338
-2313
-6199
-9568
5034
-3660
-4135
-3260
-663
7185
6760
-1764
8872
599
7636
-6489
1996
-2519
8208
-936
8799
-5152
895
1272
-7783
5689
4206
9588
-242
7426
-3757
1832
1808
9080
8281
-3867
-8110
3736
3104
-1772
9208
9876
3052
-2227
4562
2882
-1223
2733
6859
-3726
1220
7089
-540
-8801
-3447
3799
3021
-7768
6654
2355
4725
7707
6171
8211
-7526
-6370
1248
-9977
7088
1609
-5228
-154
-4448
-6647
8264
1313
-6068
6867
1551
1312
9987
2897
7872
-8245
-7745
3975
4355
9836
4991
3072
5573
-2519
-3507
3979
1367
3691
-7966
1359
-780
7135
2127
-5162
-3867
520
-8219
-1460
-4661
-6805
7064
-4811
-899
-6124
1641
-7869
-9552
-8453
7703
5620
3901
-712
-6631
9242
-1915
3150
1686
-7502
1545
6225
-4822
6412
7236
-3394
-5749
4445
764
-2766
-2177
-1002
2886
-4544
-9850
6552
7679
608
9106
7712
4364
-933
-1901
2386
3023
7930
6247
-5116
2227
-9112
-307
-1120
94
-7231
582
7996
-652
-7059
-252
-5814
-8336
-8093
-5955
-6872
6934
-9642
29
-6428
-975
-4600
-8130
5810
-8827
-5202
3306
3420
1408
-3189
994
-8046
-8803
570
-300
-1562
8938
-74
8587
-3652
-5904
-7708
-7739
2121
7359
3304
171
1373
-2344
7901
3751
5593
7716
8979
1791
3468
-3467
5875
-8433
-5152
-792
6635
-4320
-62
-7420
-9545
2751
1513
8402
9591
3870
3682
-4990
-6277
6078
-2792
-6970
3927
-778
8435
1110
-1650
3120
-3465
3539
-2929
8284
-7932
-6789
9856
5293
-1153
-9347
-2830
-4503
-9448
-7404
-7809
8800
3808
2074
-400
3122
160
-3910
5476
4440
870
-3390
1904
6423
-9526
5988
9746
4246
-2287
8849
-6473
8488
-4216
9064
3489
-8121
-2261
2662
-8370
4192
-2547
5334
-9158
8752
1712
-3332
-636
7724
-5163
-7704
-3751
-7160
-6403
9909
7888
3148
7316
-4661
-9566
-7902
-4322
934
8483
2446
-4960
31
-3514
-512
3067
-1534
6077
494
-9059
6994
9909
1524
-7356
6885
-9475
1424
1621
-4959
-8543
-2683
6505
-5273
6949
-4166
-334
3314
-3426
-9950
-4957
-620
-8501
-6720
-5028
8116
-9715
-2135
9680
6206
3817
-469
-2327
-4881
1347
-3909
371
5284
-7405
-6987
-9764
-7330
-5493
7767
-2060
-6042
-4527
-92
-8693
-3088
4666
4437
6320
-1571
-303
-7636
-1124
4382
1825
4132
-5192
-7437
-5211
-739
5361
-7164
583
-1464
5356
-2862
-6402
3993
2168
-4042
-6936
6242
-4956
7712
3048
8715
-3689
2702
9071
-5892
-1248
4347
-9083
9503
6672
-3064
-7681
-6408
2151
1354
-42
-8101
-7508
-1901
6536
4101
75
295
5720
1268
-8365
8591
-9676
243
344
-5573
-628
7447
-8752
-1422
4525
4964
-1865
-2210
1852
8112
-1639
3914
1011
-4477
-9037
-2838
717
340
3019
-2080
6642
-5754
9361
-9945
5953
-5195
-8469
2660
1280
1029
3336
-3023
6130
-7938
-7610
-9517
-6336
9526
9664
1157
-8799
5383
2474
-8518
3962
-6013
-9878
-6064
-6719
-411
6082
7613
6864
-1316
-4273
9013
1735
315
4392
-856
-6002
6912
-2937
-6208
-6091
-6788
-2082
-5843
-463
-8527
5758
-9034
7803
-2530
9540
-3192
-2192
-6375
-2772
8611
8069
3178
709
-4971
6720
2445
9702
1943
1597
6935
-1645
-6599
-4125
-8435
-308
-5032
4070
5171
-4870
1872
3132
-4804
-1107
-4795
3794
9654
-9462
-3940
8526
-9539
2671
-277
-5881
-5394
5519
9794
-700
-2075
5166
-4352
-9191
9893
8100
5656
4918
-2688
1110
3378
-4334
-238
-7350
-5827
5894
349
-569
-4294
-7260
-8467
348
-2605
5222
7701
-1274
-8985
8461
3746
-6560
-2448
-3720
1926
-322
3821
-7978
8191
828
-3508
6015
-6559
-5503
794
-2687
5274
-2370
-3393
-2756
1407
-1542
-4501
-7214
-2818
6222
-1060
-1120
-3462
-6380
57
-9468
8290
-8597
-806
-2049
-2275
-196
-3075
-9085
7280
7201
7331
-7805
-504
-7096
-1012
4103
-9597
-2039
1471
7091
-7795
-4390
-8816
-5193
-9657
1227
-8213
6142
1942
-9372
-8143
1550
161
5058
-4893
8232
2106
-8540
-2963
6838
6733
-2691
5932
-9095
-6418
-9155
-4148
-506
-6841
9480
-5448
3369
-4507
-8088
-9713
-4460
-5408
2711
7979
-1921
-6524
-7853
-2527
8928
-3052
8482
-5594
-5307
-2575
-4764
-2278
8457
-7077
1620
-3130
-4722
5661
-9127
-3485
2194
-5192
8176
6852
-5459
-2509
7602
-6371
-4261
8516
-4243
-6500
-6048
1082
8780
-2373
-4345
-1679
-1121
9172
-6430
8652
6728
8894
-5600
-3303
-3055
-2971
399
-4137
-4837
-553
-1928
-1211
7396
-8658
-2879
7434
4970
2682
3314
5894
1636
6257
-9
-4104
-6578
-8681
-5305
7467
-3711
-6303
-211
5427
1876
6682
-1105
-3945
-2614
-3908
4584
-2227
2093
7581
-2961
-5357
54
4687
8199
2130
-3813
-8055
1479
865
-8724
-921
-6840
-3968
331
9441
8381
-2484
8299
8708
1984
9109
7289
8287
2423
3821
-9699
2024
-4361
6740
7831
4422
-5050
6937
5836
-6003
2961
-4498
-3867
6289
1893
-1890
3702
7691
9923
-2600
9224
-6609
-7184
2954
-249
-9376
2518
4826
-4418
-8149
7362
325
-2744
-8432
2129
-6817
-7089
-4839
495
9193
3409
8551
-2799
-6857
237
3338
2808
8021
9510
3719
23
9495
-5648
-1321
7253
-3933
7437
5777
2498
-1475
5702
1313
-1377
-8925
-15
5721
9662
875
-6184
-7215
7099
2809
7628
-3450
-5156
-8131
7305
822
-7790
6888
-687
-7335
5242
-3794
-1423
3549
8504
8348
-175
9665
-8200
-974
8271
-3714
9300
9426
-8655
-9761
2142
-9735
-437
9195
9807
989
-8258
6842
468
4266
7351
8944
-4035
2064
-2800
-3101
3176
1605
-7536
2590
-9672
-3059
1746
-8821
4083
5069
-4094
6903
-8678
4274
-8727
1106
8046
6757
-6716
-8678
7186
-2335
-5402
-4327
-3175
8243
-5568
7740
-9035
2144
-805
3650
-3997
762
-1643
5347
7823
-3948
4119
1843
-3183
-2628
-1443
-6303
-8920
-7285
7744
-4956
-8304
-5967
-1193
2229
8220
1425
-7145
-1588
7350
1583
4474
9447
3271
-7854
-3285
-2004
4249
-4461
-536
-62
6828
-6618
-1354
-9936
-3708
-4332
3839
-7551
-9911
-2278
2730
4977
9519
-7668
-7763
7237
4198
-5557
-1812
6299
3697
1492
-1886
5863
-8740
-6325
5022
842
5568
-4616
-6065
1658
-1688
-8446
-2478
351
7643
770
2364
4062
-9377
-9167
3153
542
-8668
1766
-1457
5030
5615
-3605
-509
8183
-1757
9149
8520
710
-6236
-9888
-3309
-8080
-1501
3145
-6051
6608
-2233
-5468
-1857
-2430
9873
1618
-1927
9422
6359
-184
-3156
-6435
6591
-9381
-6867
3770
4065
-6609
-9911
-2747
1613
-738
-5763
7001
3219
-3218
47
-2230
-8757
5865
9792
-9705
9607
-944
-7185
-3827
-4132
7322
3562
9257
-1969
1345
-6501
8546
-4317
8638
8440
2213
-868
-8097
-55
2782
5207
-5389
-2996
9398
3811
-3867
2646
4731
-4570
-9422
-1058
-8751
-3434
-8941
3457
-5561
-2588
4222
427
9005
-5939
-1316
-9361
-1839
6176
5348
5507
-4179
-9713
-2314
-7138
6866
8707
5605
4596
-8420
-5384
-2093
-284
-3068
4889
5115
147
-361
-5922
7097
1313
-6287
-4783
-2063
4584
8675
-3788
4352
4563
3734
-5897
-6660
-9435
7870
-6214
-296
8696
6160
-7393
-5165
-1342
8602
-2256
4322
7615
-729
-579
3906
-7486
-9116
9687
778
-8347
2642
-6063
407
-3395
-2287
-9767
7807
6309
741
-9779
-3422
-3390
5573
4558
-940
-9438
-1384
-4277
6613
7523
4263
-8508
247
2297
5415
-6440
-1223
-418
4264
7437
-5820
3481
6420
2185
1961
-2947
-5141
1499
8120
2608
9285
-8714
3699
9995
1188
3105
2917
-2964
-4780
-2278
1536
4063
-6533
8476
8370
2762
-9217
-9649
-5248
-1587
6542
-2739
-5717
4251
1014
-2440
8351
6808
-6982
-4338
-8352
1842
9592
-3675
6317
2011
-1871
7394
3428
-634
-3265
6635
-3970
8507
9581
-1210
9385
-485
-9471
115
-9145
-6334
564
9378
-5608
-437
-7586
-3343
2812
-7592
9118
4284
-5291
5001
2498
7896
2316
5461
2080
9750
1658
3680
-4564
-8618
6898
-3722
-3188
-1864
7159
8017
2539
4223
5907
-3315
-1114
-6303
563
-2130
863
-9906
-6890
-3631
-1023
-4503
-8736
1641
-5064
-1629
4158
-3752
-2881
-1246
-3488
-1805
1847
-718
881
-9178
7552
975
-1087
7156
-4583
3857
9336
9578
2373
4194
3032
196
-9894
2527
3590
-7471
-2838
9633
5587
-9161
-9577
1189
-7819
-44
6810
6134
-1341
5411
-3513
-1415
9199
1447
4759
-1320
-9605
2692
1466
-6209
-3033
-5697
3828
8324
-7363
-5165
1611
-2323
-7763
6371
1854
-119
9945
7151
4552
7145
-7103
3431
338
-1335
9460
-660
6592
5981
7104
6150
9308
2661
-3945
-4282
-5310
1146
-8175
6740
-3406
1404
2240
-2945
-6173
8336
-7288
362
4716
-2080
7270
-8428
5478
5640
2298
-8633
3610
-4944
4894
7689
7874
-871
-1563
-552
-7639
-7469
4226
-3885
-6231
9178
9942
-4211
8167
6010
-6833
-6186
6406
-8598
1415
4279
5748
4571
-1164
7485
-593
-9033
-5843
7881
-4628
7850
4480
-911
-8757
-5837
5165
5210
-7276
9232
7295
1011
-9946
6030
-8846
7433
-1180
-3624
6615
-6541
9453
7885
9530
-9454
-6842
5442
-3064
1629
1081
-6433
-6680
3103
8318
-9679
5208
-4716
-5447
8227
1952
-5504
-783
-6806
-3119
-1756
553
-1487
-5101
-6160
5201
7782
94
437
-2242
7938
78
-5439
8215
-8431
2554
-9951
9274
-3691
-5983
4750
-4788
8355
461
8349
-662
6986
-4309
8378
-1966
7470
4003
-5197
5925
-9131
1020
7426
8963
-9044
8843
-4995
-9968
868
9964
30
-4872
5058
8050
9049
7272
-4247
3157
-5284
-9
-2636
3940
2895
-7449
-2854
-9939
5784
5106
5886
4274
-9699
-6541
8543
-4428
-46
-9637
-8540
-7739
-2073
-6847
-9840
-2964
9306
-4106
9739
4824
-8836
8366
8423
8634
-9354
-6113
4164
-1404
3273
-6698
3972
-4915
-3681
3466
6181
8056
-4574
5066
6957
1607
6601
6880
-5910
5324
192
-8601
-6507
-7878
-1290
-9830
6801
-4000
6097
6338
2077
-7379
-7476
-3465
-6119
-9454
5785
4595
-6184
1670
-1898
5609
8158
-4349
-4604
-9726
5270
-5006
-4947
-3164
-7729
-4971
-2283
686
7763
-3903
-1133
131
-4558
-5903
6694
-9047
-8028
9873
-5745
2087
1835
8007
-4114
-9926
1625
1164
599
861
-3179
-2534
-1581
4203
5155
5205
-423
7994
2449
1794
-8951
7812
-895
1921
41
342
-1491
3707
-108
8439
2136
-8966
242
-9669
-9553
5222
-9604
-4255
3469
9907
-7543
7735
-9478
-803
9146
-9432
-5433
1124
109
-8812
3486
5912
-9919
-5311
-2097
1699
2466
-7390
-6852
9173
2674
6987
-8357
-9074
6974
2792
-8879
-8621
4703
-3270
-5942
-1222
-5672
-8699
-5888
-7998
7137
9653
-3491
1843
6335
-1080
1057
-1047
3750
7577
-1182
-1275
-8325
5853
6446
7261
3033
7230
5869
1860
9603
3860
-8854
4539
4977
8999
9257
7746
-3292
5542
-2926
7672
-9691
-8686
2805
-7532
6770
8987
-2959
201
-5244
-8659
5805
4531
-1165
967
-3924
4836
5926
-2264
-7219
-8063
-6470
6891
5589
-9430
5367
6110
-6385
5427
2767
728
-3321
-1182
3392
-7049
-7128
4911
2845
-6910
3913
-1917
-747
8664
2133
952
6075
681
-4063
1542
4227
-4508
4185
8335
-9016
5326
-5808
7057
-9785
943
-7124
-6370
-3817
-4232
6120
4033
-8602
2510
-2517
3702
7985
-9560
4151
-3416
-8430
4309
5403
7158
-3172
4426
6805
-2529
-5307
-8603
2012
5631
2604
8807
3258
-7752
1259
-7556
-8497
-3097
-6031
-4420
7668
-1920
-1937
6468
7540
-3218
-8309
6380
-5383
6683
-6089
-5660
7569
-8282
-8851
8198
-8021
5843
-1092
748
9582
-916
4027
4282
-7441
-1042
9847
-2643
-4805
-2905
4308
-6549
-9195
7056
9315
2814
7845
-8695
8624
-4002
-4045
2773
-8936
366
-43
9643
6057
9418
-2086
-9313
9255
-1269
7869
2941
-2537
2127
7213
-6489
-5863
6968
-1591
-7102
9389
-1597
-4625
8582
1727
-951
-4131
-5559
-7310
-7266
6990
4089
-9893
8786
3282
4445
865
-3201
-124
9501
-137
900
-3220
-6254
8274
7254
-5401
-339
1301
8844
-3121
4399
-6767
7555
-271
-3033
-4025
-4840
5515
-825
-3888
1999
4122
1132
5116
-4982
2674
-4819
7510
5206
-7413
948
2566
8680
1413
-1374
6572
-4774
6233
7514
-5253
-6435
5130
2638
-5475
3486
-6134
-6614
-4709
-8378
-4100
-4892
-6476
-212
5713
7097
6874
-7263
7693
8501
5888
-4476
5861
-2483
7862
-157
3339
8604
-6216
-6632
4675
7459
6308
6463
-988
4147
4449
-3399
-2420
1058
8924
2379
5110
4259
-8955
-3713
1490
-5701
-2426
8121
-2652
-4289
4180
-487
5258
3200
-9131
4000
-3138
-3103
-5761
6885
-4581
9092
-6537
4371
3199
-9489
9524
-7514
3603
5427
602
-7163
8985
1865
363
4493
6936
-4407
-9474
-913
-9883
-5188
4194
9681
-2278
-3821
2279
3093
-9709
2210
-8245
9971
3781
5139
1532
-2653
3727
-7089
-573
4280
5755
-674
1975
2841
4876
2180
-2179
-6170
2684
-9191
-5131
-478
-1033
-2445
-8313
-5857
2226
-3514
4322
-3120
-7788
-2951
-8782
1926
-3188
386
-9102
-4580
5503
1681
-172
-9959
-7922
-6841
-8912
-5318
419
9278
8490
8749
-1087
-1829
5272
8529
-8623
1493
-8298
-3520
5421
-1307
-8282
-6581
2755
1006
5159
8265
-9832
5602
9197
326
-5171
857
-9773
-4906
2988
-9920
-4176
6064
7305
-7144
-4737
-7643
4739
-9275
-3352
4666
-5650
7032
8900
609
2279
9577
-2369
4566
9867
-922
5347
6832
26
-3532
8539
2251
6916
7725
6779
-590
-5577
6162
2370
8111
51
9026
-7075
-4982
2619
-2234
3852
5177
4439
-522
-7105
646
1732
-9194
4633
6456
-9424
4950
-638
-1080
-33
-2503
7708
1560
-1586
-2624
-9865
9960
5973
-4418
8673
8344
-234
6127
7242
7974
7733
-8741
6398
-9762
2767
-3910
8575
-4238
-2676
6602
661
4994
-2737
9311
-7824
5371
2871
-9035
-630
-4453
4919
-7750
-1738
-1911
-5955
782
2896
-1327
2921
-4479
-952
1955
-7612
-2728
-1842
-7813
-4960
-1867
-8552
-9947
2850
-3570
-32
6341
8932
-6855
-7256
7705
7818
-9164
2278
-9842
3504
-3303
4284
1859
9987
7663
6870
8382
-4875
7386
-6689
-9205
-4595
-7604
2070
9771
-3431
7925
7963
-2597
-6993
-7336
9079
-7593
7485
6031
5577
-5777
-8025
1685
-1511
-3252
228
-3481
-685
-6561
3249
5745
4561
2126
9881
-8465
-6769
37
-3478
5172
9853
7381
2295
-9107
851
-8656
9029
3266
-2240
1330
-1020
9454
7333
-8880
7493
2628
-4444
-6198
2665
3524
280
-8557
9518
-6647
-4482
2909
-7627
3195
-687
559
-4218
2521
6704
-711
1803
2613
-550
-78
9342
-533
-5038
-7019
-92
5096
8387
-1397
3408
-3755
-6254
-6314
-2582
5078
2761
-1689
3866
7786
-6665
77
8218
-6171
-6545
7178
-2071
1163
1010
-1117
-655
877
-4963
5557
5200
8431
9783
-570
8460
8140
-574
-7996
-7477
2502
-1757
-5623
-7363
-1344
-1177
2664
-1107
499
9104
2307
-2749
6916
8022
2266
1803
4047
-945
-7086
-1148
2729
1167
9913
1335
-9054
-2569
454
803
5571
3019
7888
3313
-2312
-3643
-3794
5543
-8614
-161
6670
7870
-2724
-118
-4406
-7718
-1229
-60
4364
-5261
1776
4723
727
-6037
6523
-1000
3754
1598
4082
-9833
4015
-7661
-521
-9789
-4824
-3183
-1672
-273
3592
-5050
4609
4334
-1594
-7108
3400
2132
6237
2872
4332
9763
1793
-8049
-967
4212
-1495
3041
-1026
7631
1811
-392
8887
-6725
-8248
3979
-4648
2093
-8754
8527
-9883
-8465
-8211
-1226
3425
-9186
9221
-1990
-6158
-9804
8835
4106
