2092
9487
2956
8012
6292
4529
4609
8203
-7506
-5098
-8890
3572
-7654
-1439
1662
-9035
1499
-9286
6880
-8952
-4489
692
-1968
-1260
4593
-9021
4029
-7766
-3295
-9365
4727
484
-771
9534
-2320
3414
-9001
-549
-5227
9135
-1611
-6618
-4989
-1904
-8072
5519
197
5363
3171
-9245
-8605
9134
5486
4900
5769
6068
6966
-5406
5798
2217
8874
-677
-4213
-7926
8791
7099
-5709
-2361
-5912
9992
-4757
-5518
-1604
-3905
5463
2338
1410
-9572
-8280
4131
674
-1115
6613
-858
-7092
-3480
9313
-6389
-7997
-5684
-5495
5168
986
-2975
-9062
6292
6040
8755
9537
-3652
-7901
-7307
-9681
-8173
-8392
6666
-2842
8
-9323
-2771
23
-7439
-9803
1508
5328
2483
-6629
-1703
6835
-9680
5705
7647
-8100
3694
8662
1766
-9178
8028
3958
-1010
697
-4342
1953
7413
9400
5598
4612
5036
-9836
6874
-8826
9250
-7238
-5448
-6993
68
3370
-447
3018
-1263
1937
829
4550
6153
-6750
-8386
4879
-5979
5886
-9760
-786
-4306
1847
439
-7458
3455
-1113
-4006
8701
4203
-2553
-9681
-1262
-3428
4585
-7212
3908
9026
-1622
-9475
-7370
717
-1963
6880
-4803
-5302
-2649
-3994
5294
6560
2027
-3373
3109
-9352
5130
7620
1297
-9326
-937
2904
2076
-8044
-2609
-6118
1432
8382
5296
-6092
4698
-1147
-6431
1152
6695
-4900
-2235
-6252
-810
-4319
1553
4263
-1417
-665
-8765
9311
-2449
-4989
7030
-5515
-4210
-4409
6005
-5158
-2945
-2383
-8684
6819
-7622
-9650
-7016
-1314
2623
4016
6507
-6424
7501
-656
7361
1662
2670
-1718
1777
-3856
1766
-681
7232
1512
-4008
9809
-364
-8028
295
2506
-1533
2865
-7721
3779
5997
-1347
7581
6978
-7830
-2797
-6162
-4024
2876
2112
4215
1118
6068
2242
-8916
-7308
-2466
817
549
5388
6131
-4780
9397
1425
6913
2980
7387
-385
9776
-492
9920
3045
1186
-1285
8772
8977
-3038
9027
-8141
1156
-4756
-5932
6961
6920
524
-86
8882
9357
1944
-1082
-5354
-1823
-7932
3871
-2796
2083
5976
5670
-5484
-9883
4731
2694
-2107
-237
2130
704
-8765
5620
-814
8386
1023
3954
6833
-4473
5907
-4316
4160
-1661
4236
3213
-3239
9597
8111
-5061
7846
29
3267
-4658
-6645
1758
5585
8329
1493
4681
-2951
-3236
-2909
-7763
-3365
2110
1539
-5655
-5048
-5288
298
2163
-4654
-2610
1592
-8157
-1259
2925
-7617
2573
4683
9414
-9408
8054
-3172
6575
-3739
9822
-2454
807
-1517
5970
-6601
7107
-139
9394
-9144
1942
-4266
5978
-7
2712
-8517
-4963
2773
-3310
-1982
1836
2118
5128
-7120
-4820
8103
-3303
-7613
1782
-1536
-1527
8866
3600
-8034
-7552
6270
-5760
-4692
-9188
-2709
-3722
6832
-5732
5634
2553
3691
-5834
8197
1390
2979
1507
-6392
-1753
-8069
-6341
6011
-5580
7452
3085
5918
7202
-8952
-8485
-6435
-4705
-8380
-2392
4477
8266
-4289
-3404
1802
9553
-7621
6255
-4586
8698
8241
-4801
-6012
458
-2881
-3337
2903
5937
-1715
3801
-1757
4014
7486
960
-4873
-9873
-4292
9468
7243
3868
2066
-3782
3666
6858
-687
8615
8910
8011
3022
457
2686
4580
8939
-158
-3098
-5740
-3200
2474
-789
-3863
-6462
-8478
-5233
-3544
3963
8637
-9158
8872
-7221
9874
-7444
8349
-1763
-5106
-7766
2773
-5199
-1793
-258
7106
-164
-2828
-3339
1084
-2349
3017
3262
3403
-6831
-1617
3993
2865
7007
7704
4524
-9946
3977
-4765
-8566
-8065
7764
-463
-5814
6128
-3992
-6948
8309
1648
-7951
615
8555
-1481
-7732
1803
1280
-16
-8744
-1470
-3564
7890
-9017
-8443
1270
4358
4675
-2603
-9776
-9007
-8707
-9463
8456
661
2290
-4995
120
-3735
8791
-5982
-3352
5926
4323
-3255
-4737
-5302
5978
-2768
3369
-878
5114
2050
597
-7090
7701
-9489
-2994
9495
-6102
4040
3355
376
-3329
-143
-2708
-3068
-9935
8070
7921
7778
9113
1145
-9477
3776
-4503
-112
2942
-1585
-4332
1168
5777
2582
-8477
-890
9507
-357
-2435
3714
3506
9221
-6892
-1285
4220
6283
-6792
3898
-7209
-4169
-2168
-3750
-4011
-7039
-4802
-1072
-1377
3028
-7757
7467
366
-2684
2908
8526
5522
-4131
3163
-1916
278
1061
672
3212
8817
-7023
6528
-5629
6942
812
-3337
3623
9923
3322
-8667
-1726
-163
5666
2542
-891
-3053
-9911
1256
-2226
9517
3470
-1020
-1220
-3064
6077
1571
8180
-7859
2732
-2928
-6772
-8886
-9879
3876
5072
9489
2140
-9209
-9891
9421
-1067
6257
-5423
-6642
4623
511
-8202
5696
-6124
-8547
-8295
-1893
-2078
-7302
8325
-192
7078
-9413
2432
-9781
8615
5833
3783
-1904
-3642
5066
-9765
8694
1567
-2322
-586
8421
3414
4208
-7216
-4902
1724
-6092
1585
-8829
-5261
1175
-497
-2909
238
3246
7853
-7466
9682
-5191
5679
-5706
-8136
9140
9314
-8613
5163
9923
3861
273
-4430
-6932
-7554
-3890
-8565
-6349
-1799
-481
-4667
9560
8650
-7337
-1615
-9593
-7510
3200
3068
-1985
4700
-9746
-3174
3060
7563
-7421
-9372
1362
-7724
-4078
4211
-7112
8781
3847
2848
6695
-183
-5633
9241
-4125
9298
-6725
8584
7903
-5118
-5650
-5192
-2030
-186
6451
-8317
-4579
-9777
8000
3741
-3162
510
485
8851
3146
-8236
-5652
-3203
2719
-4107
-7042
6385
7625
-8287
3415
-2655
-4049
-1791
-3522
-7315
-437
-5016
2195
2211
3740
-9821
2667
8530
-7249
-7850
8844
3133
3772
2723
4395
2076
488
-2879
6414
8262
7208
8391
-9909
488
-5426
-7247
-7541
-1809
-1316
-3798
8969
-4789
6931
-7408
5835
-4063
-4148
-1411
-9000
2793
-1012
-8043
-2963
-4641
-3914
6168
-9574
8243
8827
6555
-6630
-2572
2883
-8978
6691
2845
-8754
1855
-4668
8836
9574
4184
1588
-6584
-9242
1389
5479
2385
2899
-1919
-3554
4929
-7356
7220
-3847
3594
-5953
9563
-1797
3489
2115
-9247
7355
-6992
9712
4301
8189
-8427
6669
-2899
-8861
-1372
774
8183
-7558
-7478
1723
-8782
3798
-2053
-8847
-3532
-2631
6225
4593
-1009
-7760
-5976
-5571
-3634
-369
2951
6908
1488
5800
-4951
-9185
3772
4014
7268
523
5592
9903
-8127
2045
-164
8170
9029
-2972
-810
2828
-7075
6759
-1923
-1981
3352
5903
4142
1958
999
3966
-2238
2659
6565
1444
5239
-9184
1344
-2832
4229
2614
61
-6527
-1676
3211
-4480
-3289
1873
-9773
-987
1967
5801
5854
462
2951
-9517
6050
7910
668
-7250
5731
-2767
-2185
653
57
9870
-272
1803
-6411
-1131
-2688
8964
-8520
1663
2496
-9962
-145
-8167
2616
-1384
6135
-8577
-3477
-3949
4314
-9530
-7744
-3748
-4956
984
3837
-9556
5880
8958
3001
650
3175
-196
606
7903
3778
196
-7940
4000
2159
2417
1223
4092
6476
-3936
-1908
-8543
5768
6386
6934
5543
9687
8543
3695
9675
-7979
-7309
4052
5774
9780
-3881
6891
51
722
-4492
1860
5808
3909
4931
-5799
-2665
282
-6648
5264
2324
-6785
-865
-7104
-648
2613
-1490
2288
-8385
-9608
-99
5004
-1486
9970
6729
-8526
2579
-2005
-2469
-9364
-9160
2532
-5875
-721
-3055
8766
6132
-6789
3172
574
-6772
2542
-89
4347
-4692
4186
4306
41
5173
-3900
9432
-6322
-1699
9828
-9272
5362
9938
-9381
-2658
-2572
1070
7631
2667
8331
1603
-9256
506
9789
1741
4958
-8834
6881
593
8622
5233
-6060
-5136
-2530
1865
2579
-156
-7110
-6878
-7478
-31
9933
6223
672
6838
-1812
1557
-536
-1155
6983
-4155
1512
8496
5314
-2928
4465
-8998
6409
656
-2814
-9167
7050
4742
6481
1777
-7442
-3397
-7824
-9640
-228
1868
-2477
2527
-7586
-6415
-8104
-813
5900
9096
3112
7364
1953
-672
7899
-9237
-2695
-2785
-9271
-4107
-4661
-91
-6374
-1785
-5321
-7183
2541
-3605
-5470
2605
9474
2246
3031
-8962
-6204
8918
1899
-8185
1069
-9471
8327
8564
3158
-7273
3424
-6291
-477
-4436
5368
-4880
6348
7549
-4967
-9650
-2480
2947
-8000
6630
9401
3103
9683
8964
80
7007
9712
8286
2866
-3673
7760
-2924
-6205
-4252
-4282
670
3297
784
-1649
-800
3379
-7928
-3420
7193
-6669
-2309
3998
-4192
9378
3227
-1518
6018
-3290
3015
6498
-9737
5832
-4568
-5807
-5324
9566
-9888
-3681
-5576
1751
-4384
-8163
586
-5712
-7675
-6777
8626
-4783
7264
-4482
-4318
7303
-4954
-9329
-3247
-6067
-7710
-7106
-1668
-2879
-8359
1585
2065
1070
-4112
9768
-9215
-6075
2727
8048
-5452
-9778
-3657
-3204
5311
-2909
3246
2515
5414
-1713
6729
-1654
-2725
-8077
6777
-6881
9528
-9855
459
-1354
8307
-8061
1558
-9348
1404
-6093
-2370
5240
7822
8064
-2346
-209
-4490
-9395
-5867
-5117
6036
-8981
9732
2152
6575
7125
463
-8107
-3270
-1744
4911
3753
-9400
6232
2201
-5886
-7068
1768
-9900
4450
-7731
-7507
-903
6491
3745
-1898
-1683
-8046
9482
-2057
4725
7396
5505
6876
-1571
7961
-9303
-3679
-6328
-2260
5477
9183
-2241
-966
5780
-309
8175
7976
1297
2152
-7982
9745
-3907
-3707
1213
3066
4364
-8969
2018
722
-5514
-6563
-2041
-9522
381
5105
1616
-872
-9067
-5721
2571
1296
5240
8792
6342
-5825
4480
2305
2278
-455
-525
4218
-2832
-4739
7243
-7651
5688
-237
9464
6625
-1138
-4731
-8873
-8037
-2692
-2058
8605
-1067
-2609
6653
-7013
1995
-4807
5887
-3357
-3230
5824
2854
-1060
-9822
3704
4095
370
326
-6820
2641
-6488
-3445
-1679
-6797
3912
-5665
-4326
-46
4337
-5400
4444
9107
1764
2509
-5162
6817
-1895
-3171
-2825
-8167
-7177
7793
-8067
1918
8466
-1261
-6010
3201
-1408
-5291
-6864
2411
1596
-79
-2705
-6577
-6226
-4830
4935
1536
-9886
6141
8782
1635
2451
4062
4203
-372
-8936
1261
2572
527
-1949
-4065
-7619
1091
8679
2776
9065
65
-9692
-882
8244
-5070
7596
-152
6483
-9550
7424
8606
-1294
1381
7251
-2379
2032
9354
6629
4030
-7920
-7718
-6845
-3322
9653
3529
-8662
4047
3301
-2318
5738
1447
-3692
-150
-1882
-6530
5520
-3656
-7506
-3605
-6249
5889
1665
4474
7544
-7333
-5910
-6175
-2249
5095
-9002
-1783
1570
7620
175
2129
1702
-3364
-4947
-1837
-9333
-3714
-4409
8302
-3410
-4987
908
-8513
-9545
9554
2649
-6452
-5751
9503
-7166
-144
4443
2586
-9758
5818
-4112
8522
5349
5927
-2526
-2411
5419
-1896
-7184
-1033
8529
6883
-3282
-6500
8204
6299
-8669
-4365
8722
-8654
-5306
165
-4714
5490
-1277
792
-7081
976
-6252
-434
3338
8464
-7655
-1030
9940
3118
-3545
1689
7660
-4702
-1290
-2950
6689
5783
-8613
7625
-3191
7832
-5452
4754
2619
-8679
8715
-2557
8974
7872
6806
-4421
-9328
-9899
5084
5458
769
2937
-6480
-6736
-2151
542
2221
-9555
4143
8382
-7485
-6101
3645
6794
8725
-6625
-7868
-259
9907
-1297
-463
-9574
-496
274
-869
-5919
5329
-2412
-2276
-2569
-7713
-7239
6410
4248
-4142
8565
2338
6888
5702
-6155
8572
-5223
5581
3096
1321
-7393
8330
1578
1638
-6665
-7226
-7572
2157
-5937
-6776
8123
-1505
-3492
-8387
-4969
-305
-2008
-2679
6816
2373
-6236
-9594
-9801
9226
-3069
-9779
-5185
-5902
-1585
-6722
7878
3062
-3939
1768
3894
-6229
-584
-2736
9831
-6229
4663
2900
-3012
2624
-7179
1771
2188
-7692
-6463
-791
-6976
-4261
-3278
-7638
4478
-5759
4669
1669
7664
1306
-1486
5790
5213
-7749
4540
4001
2513
7179
8292
8291
-896
-1865
-2663
1092
355
382
-2768
4015
5989
2505
-565
7960
9040
-9706
4756
-4378
-3451
5387
1480
3690
1550
-8792
3348
3928
-5114
-4084
9374
9814
4864
4973
-5198
-1374
-6950
4343
506
-2434
-4835
9423
-3231
-3048
-2407
-5440
-3434
3491
1995
3272
3414
-7663
-6789
-9689
-745
-2152
8930
3222
9016
-79
-6423
-6652
221
-4761
3324
-6050
8328
-9064
-5575
-3314
1565
1973
-7245
-3317
-7458
-7118
8973
1184
8218
-442
-9307
7093
4673
-2539
-9244
8660
-1457
8799
-982
-1824
3209
3217
-6051
9715
4469
3980
-74
8830
7824
4846
6265
9509
-2485
-8470
-5169
3865
6014
6103
-5499
-346
1981
-7329
-7183
-3901
4463
-1702
7798
9450
1704
-5516
-3756
6275
-6018
-8708
8724
-5324
-8367
-1155
-3940
1509
1830
8983
7220
7087
-9394
3684
-5586
-2064
-9723
6215
-2477
-7092
-3359
-3967
-2857
-1712
5188
9060
3107
-6572
-8949
1283
3712
109
3520
5439
-228
5983
2741
-1840
7186
-4716
-6509
-1970
-8112
8479
8991
-6197
1803
6600
6305
-3585
1945
-4325
-5931
-1541
743
-7935
3241
-9585
-1561
428
-8016
4211
-8342
-7369
6915
-8418
-7816
-1887
4737
-2792
2541
4092
-9424
-5226
-3861
-2607
-7634
-2165
-4468
-1195
4244
-3206
8819
5576
-3872
8300
-8806
7966
1526
-5967
6365
1748
1149
-7921
-9103
145
-4072
6063
-6640
-4134
9872
-5355
9842
-3242
504
-2843
7456
-2951
2608
-3
-1680
-9786
9666
-7350
-2083
-753
6554
2377
-6220
-4590
6977
-7858
3113
-2498
-424
-2326
-8704
-9700
7761
6457
-2908
-7015
97
3929
4995
6222
-9642
-9667
265
-9955
-566
5444
-1962
-6297
-5153
7779
-5683
-6558
-2135
-104
3704
-5579
-6919
-7921
6387
-1016
-9180
-7061
5216
-4928
-1170
7358
-7358
-4233
-3538
9749
6803
3786
-8098
3708
-3736
3218
1027
-2048
-6343
-5153
-4969
2781
-15
-8846
3238
1379
3298
-7617
7386
-4161
-1788
-3960
4111
9145
-4018
8757
3526
1193
-1174
-8320
-6498
9447
-3326
-1653
-8392
-6996
9754
-2489
9699
2579
6213
-7589
9702
-1643
-9641
-7274
-6579
-7406
4220
5766
4040
4623
-7247
9421
2500
2068
-8672
-9042
-2003
4014
3096
2970
-1357
-556
3319
633
5668
7293
-2021
2826
2524
-6638
-5240
3831
8858
3609
-4072
-8035
-1388
-6529
-5329
6872
1290
8398
9157
8154
-4003
2162
1862
-5430
8902
6303
5624
5281
-3412
6664
-7522
-7548
23
1065
-3551
-2097
6984
5968
-2676
-4289
4272
9348
8811
-2748
-4632
-7961
-8407
-4431
4016
436
9386
-8098
-281
9739
4523
-1227
7198
8770
8379
-8735
-1285
4966
1603
917
-4629
-8730
-724
-4833
1619
-4603
-3135
-695
5768
6388
-5648
-2339
-1512
3341
-2116
-3970
-8754
-3127
1037
-1678
-2966
-4856
-8965
7018
6894
3157
9213
-807
-2528
-3434
-412
-2303
-2808
-636
4507
-9396
1664
-1369
-7765
-8994
2487
8847
7682
-5933
-2086
-6630
4603
-1528
8668
1255
5187
-4559
7708
3925
1359
-9981
8830
-1962
943
6569
5766
-1541
-8542
3242
-9228
-1627
4455
-1383
9698
2330
-5872
-2160
9158
2452
-4677
-4738
622
7985
-1825
5893
6165
-5905
9218
-994
1047
7018
2165
-6270
9442
9614
-4568
8753
1367
-6147
8086
-3965
1215
4930
1030
-8108
-8709
-4500
6044
7946
-2630
-2164
1749
-933
-2477
6844
-7403
5815
322
7414
4652
-5142
-5958
-4084
-9725
-7652
-5464
-2473
-7331
2559
-3703
8586
898
6816
-1531
-3662
6072
6261
-4360
7164
-9755
6070
-8166
8839
986
-1554
-4656
2327
6647
7015
1950
4303
9979
6286
-5489
2846
1123
6290
-1950
5642
-5144
-5122
-8781
-7439
1580
-2163
7336
-7389
6684
-9432
1222
9049
-1294
-5946
-8339
-4186
-6817
-7380
-6461
3462
6095
1269
8604
3467
-1503
6399
9248
5950
2219
5192
5831
7868
5484
-3712
-5156
6163
6782
7080
2505
3529
-4439
1521
6435
3253
9079
-3683
-3373
-6082
6194
3177
6170
4849
-9096
-9913
2106
8774
-8866
-4518
-2831
-548
-8401
-4116
4405
-1054
-6576
-332
8316
-8309
7830
-2482
8560
691
6324
3574
5244
-5078
5649
-9650
-1556
6422
2171
-4806
8814
591
7434
-3548
-8939
3812
-5714
3362
7446
8839
1281
-4611
-5262
-9752
1995
3812
-5388
9779
5428
-8668
5006
-5438
-6144
-6226
7822
9928
5287
2203
-2972
3009
9131
3336
-9554
3214
5662
1558
-1625
-8563
2650
-3224
2665
-8961
5730
8905
-8988
-9412
3062
2044
-7070
828
9371
9163
-3714
-3479
-377
-8369
6198
-2454
8412
6974
1770
3071
-2450
2982
-9663
7594
1377
6554
-6219
-1681
7054
-8276
6961
-411
-4691
-7199
4393
-7984
-3893
-4173
-1910
-8575
3246
-5651
6798
5922
2019
-6021
4900
-1875
-5055
-5704
-2192
4015
1936
6333
-47
-111
3392
-727
-8646
4502
7288
-9158
-833
-5179
-5267
2592
-8194
618
-7687
-6626
4925
5771
-5857
2153
922
2136
-8307
-5154
-3397
-4232
5262
-1180
-2713
-5439
7419
3526
9844
-8547
5749
5973
-7970
-2049
9937
5758
-9045
-972
6534
5945
9691
-7675
3647
-6728
-2318
2112
7358
-5983
8034
1604
-8127
-9694
2764
-3995
6163
-4286
-4358
-6958
1329
8745
1546
-2227
4928
8082
-8873
-5905
-8787
4465
9984
-3353
-483
650
-7212
-6299
-3052
-6915
4401
-5843
6107
-3214
-7476
-110
3711
8352
-718
8471
1818
1145
-7144
-9293
9777
-8659
4464
2387
2055
3927
-9134
390
4787
3671
8047
-570
2205
-2380
-2105
7752
-7002
2973
-3670
-2493
-3773
6953
8819
-1275
-3391
3755
7123
-5416
9728
-2232
-263
22
-760
-8067
-2223
5819
-9895
-4520
-2114
5864
-5376
6174
-5792
-3376
1315
8873
-7355
4728
-9390
4303
-7699
1081
-4117
-98
1404
-1930
3548
-2070
7985
210
1682
5211
9182
7969
3138
3537
-2674
-506
6109
86
5769
-4332
-7192
3219
-7051
-9857
5200
524
9269
-2080
-4289
-6737
8138
3544
-9721
4133
9838
-6847
1426
3790
4927
-6645
9714
-4427
-7546
-5652
-6575
-2332
7512
4667
8371
7218
2556
-9377
2380
1861
7318
-5255
-7686
-9227
3374
4459
-4577
9470
-8954
-5269
-8639
514
-1227
-3469
-3611
-4374
8021
6824
-2940
-6100
441
-4925
-2839
-4544
-1807
-3644
-1339
196
3267
-8220
5170
-2666
7074
3207
4662
-7113
-2295
-8875
-2857
9597
-996
2065
2528
6512
-7024
5133
-5846
3952
4995
5913
-5886
3682
9936
-9513
-1900
3759
6567
-7743
9427
2941
7421
9962
-5373
-9594
1825
-3491
6268
3199
-9086
5136
-7373
5971
5159
2000
8336
5430
-2651
-7683
-4643
-4614
-3124
1071
-613
-2661
-5100
-1359
3271
-3718
4083
6677
-3989
-8297
1556
321
-6351
9750
-822
-1009
6620
-5910
-8663
9962
7072
-9805
7229
-3568
9205
651
1944
4911
-4130
-2504
-1364
5584
5460
-8292
2731
-6387
-5439
-321
8324
9459
-6159
-8195
6749
1884
-2582
-696
7880
-1450
9134
-8026
-4243
6113
-6800
1757
1888
-5873
1129
-5127
-8007
5280
-7856
8674
4835
-1752
9951
8529
-4458
8800
5291
4676
-97
9906
649
-623
-8868
2105
1232
-9369
5970
-8197
4610
292
-6822
-3050
-9668
1648
4164
-2845
379
-5654
2910
-1638
-8467
-6997
272
-8957
-8542
-55
-3581
5226
1810
2181
4360
5705
3675
8100
7415
6420
-6660
289
-6086
-5736
9690
7502
-6410
-523
8479
-9026
-8166
-7694
-6787
-1887
331
3720
7631
103
-4379
1814
-9475
-1029
696
4832
-9937
4397
-941
-3140
-8127
939
-4592
-7208
-7237
-7810
-7248
-4476
-9689
60
1740
151
-2576
-5439
-5184
7521
-9418
-7754
5117
-7394
604
-9982
8074
-8056
-4401
-4999
-7769
8786
7182
-9063
5073
4604
-6885
6885
9530
-8738
-7859
4962
7247
-574
-9836
413
-4093
-4322
793
9581
9568
-6680
7836
9086
3381
9993
2517
3055
7000
9025
-6018
-5717
4659
778
-1932
-70
4091
-4655
-3593
2689
-8655
8506
5550
4317
-5971
9235
4154
9986
-8340
-1191
-4846
-839
-1519
9218
9435
-8516
1508
1643
7673
-5332
4574
-5456
7793
5416
7682
-4672
-3033
4146
304
9570
-912
-394
7062
-2618
1351
411
-5269
-2176
-3144
-2828
-9360
9149
-5919
-9012
-5731
-4834
-1349
2028
6172
6147
7940
-4693
-8571
-3452
-5074
9834
-1679
-8924
-5941
-7895
7302
-4210
-960
-4876
-9925
-8525
4
-9792
-5856
2836
5964
-9683
-5678
8957
-2748
933
9368
7957
-7724
-2701
9358
-8022
-6915
-4712
-2703
7327
-5002
-2706
-2806
9091
7035
-5820
-33
9450
-8105
9715
8463
4658
-3085
4840
3357
6877
-9235
-4289
2784
3939
4518
1662
-9664
2675
331
7090
-1623
-457
-3897
-5343
-3341
6089
316
6364
9785
-3826
-2316
-6272
-8630
-3133
-6759
8565
-2473
-4360
-9745
1979
7902
2675
5574
574
-1515
9057
-5002
-3754
-2769
-900
-9222
-1338
-9109
8234
3556
-1953
-617
6633
-8169
9918
-7284
-6852
-6533
3187
-5335
4145
5830
8311
-2705
-2492
-6195
3192
897
3267
-1787
1051
-4979
-672
-8854
-3227
8021
-6855
-789
5967
-5071
8479
-9100
-5452
6373
-9974
91
5612
5005
8167
-5893
5203
9981
-8885
-8213
8787
-4949
-7711
-5221
-3694
1192
-2830
-6548
-4809
-9093
5618
7846
7968
7976
-6720
3579
3900
-6092
-1208
2813
2568
-9785
2276
-8793
-8614
4353
-4980
3167
-1267
-3676
-9759
9809
9752
-7150
-9503
-3342
2773
-3484
8556
1472
936
8340
-4544
6490
-4198
4055
1956
3890
7526
-3347
7821
-1460
-303
813
-2983
-2203
5937
8398
-3581
4636
-9839
8457
-9434
-2613
-7361
40
-4318
7023
-9964
-8387
2434
-8672
-879
-3028
-1180
-5944
1101
4307
2033
6911
-3676
-7585
1405
2209
-2434
-3957
3173
-5045
-5774
993
-7688
4505
9415
-1186
6623
-2006
7283
-9217
-6020
-9608
8881
1399
-5181
9389
1445
2673
-1049
7191
-1827
2264
8203
-4118
3424
-9108
-5379
-1824
1713
-2607
-2355
1202
-2052
3475
-6821
-2647
-8921
4375
-7627
-6691
3669
6564
8669
6038
-4181
9097
7907
2815
3475
1310
8142
1301
-1597
6337
3419
5215
9848
7244
8830
-8652
-3546
-9392
2972
4447
-8970
-9070
-1668
-2074
497
-1424
114
413
8663
3728
-282
-9163
428
9386
-9739
8004
2624
-2489
8550
4625
-1119
-5794
318
214
3742
-7876
-6257
-7477
-5269
-8666
-9973
-7061
120
-6534
-783
-2275
4905
8192
4428
-5996
7754
5985
8328
7088
-2265
-3458
1970
4045
1143
8431
-2012
-2682
-3992
-7782
7648
1771
4620
6680
-5549
8713
-7014
-4235
5671
-8775
-9926
2482
7715
6581
9526
-4756
-8910
-6404
-8210
1934
6501
-4644
5563
-2415
4846
-8815
-5888
-7469
728
-4467
4110
-217
1694
-3923
-7398
2594
3491
-1512
-8976
-3715
5447
1111
-5564
1940
9444
-755
-1305
3876
-9002
-4269
8717
7586
-8425
-7709
6911
-9576
-2420
-5722
2419
3338
3307
507
-942
-1235
2704
9326
2645
7085
-2103
-7706
-3130
2113
-8754
7618
-9060
4630
2056
6957
1962
-7729
-895
-8813
322
-6120
5781
-6529
-2696
7000
-4073
-8753
-9239
8222
-4680
-7359
6866
7878
-3686
7429
3793
-7060
1237
-2206
-3359
4949
-6017
9934
1990
-6558
-1459
-5954
5218
9524
-1663
7180
3961
-801
797
1230
-2841
1433
-2115
6537
-9377
-7838
-4775
-9422
-2676
2081
-29
715
3408
-6476
-9319
-9798
9399
9618
1275
-2622
150
7632
-4475
-506
6798
-2444
8523
-5422
-692
6899
7291
-2509
9152
3163
-6138
9577
8267
6512
1143
-4711
2593
-3026
-5633
-6362
-3593
2808
9036
7604
7025
9712
-9878
-9650
-1367
-5898
6574
3531
-1399
-2008
320
101
85
7822
9479
1591
583
-4903
1858
-1766
-2272
2780
6661
-843
833
-1814
-143
-514
-497
386
1812
-8694
-924
8237
4568
6294
6784
3653
494
-787
-7806
4066
-5861
3533
-9191
7816
4670
-6870
-9268
-3249
7642
7265
-1208
-8610
1629
54
4805
-4222
-2114
89
-9555
1491
-739
-8851
2643
3257
-1605
-9346
-9419
-7728
4632
8998
9936
-2485
4066
-73
8517
255
7823
-219
3222
-7602
9921
1787
-10
5448
-2037
426
-4507
3632
-2581
-9473
-7747
-7981
3429
-4146
-2768
-1458
2783
-7173
-1894
7386
-6827
6341
1089
-9534
6799
6809
9521
3560
1091
-9859
3396
4211
-9478
-4279
6585
9527
443
-8623
708
3849
6362
8827
2456
8542
217
8346
4604
-797
-1001
7123
-9950
-853
443
2263
2924
-7661
-4437
-3604
1133
3717
8378
-8450
664
-9592
9563
-4744
-6436
-6581
2520
1743
-1286
-3860
7991
-9311
7338
3340
-3580
6093
-6340
-7654
-3941
-1274
-4810
-3316
-783
-3059
6841
1736
-962
-7213
-1590
1795
-5115
-7067
-4126
8392
5635
7302
3617
-9087
7111
-7815
6826
-7777
2375
9171
1163
-5592
1780
6432
-9711
-7285
-6582
-5360
-9119
9387
4003
-3715
9482
3339
5288
-5818
5887
6471
-8338
-7376
-6327
2906
972
-7045
-9863
3566
-7597
-5739
-4960
-4784
-7193
-585
-9576
477
-3953
-3096
-7762
-6668
8633
-341
8543
-6827
-635
-6475
8841
9803
-9312
85
4322
-8456
5161
-8798
-125
-834
-8370
5942
5197
9470
2647
-5483
4626
4032
-2781
8339
3075
1044
1013
-9416
8973
1143
-9947
-2685
4156
1750
-6800
-4209
5379
8651
-6157
3514
2430
-1546
-8212
9322
3815
1009
2657
-3910
-7452
-2980
3971
3560
-8234
2779
4620
9358
2777
1379
-2422
6415
6546
-2330
-5522
-4162
-6261
2892
-4941
-4308
8140
-5834
-5482
8202
-6378
3809
-2556
-9448
5725
-5953
8281
-2227
5599
3684
5172
-9849
-3857
-4857
-3481
2080
8126
2553
7790
-5458
-2544
4641
9847
-887
-6162
-291
-563
7903
5858
4288
-2433
-9191
-2258
-8102
2087
9191
9086
-6205
-2926
3375
-9586
-221
3516
272
-5430
3790
-6659
-2983
-3099
-3548
1904
6635
-4494
-5349
2911
2638
7025
-3090
-5927
-9255
3076
2512
1851
8125
7807
-7791
9281
3120
-2003
-1172
2129
1747
-6310
-2772
-4455
1226
-400
-5236
5866
5290
-4707
5798
-9573
-8762
-4321
6789
-8093
-5519
-7620
-7921
-6741
-7236
1259
4774
-5828
9284
1749
1954
740
-8380
-467
8920
-3753
1661
-4244
3341
-7129
-9296
3135
6870
-8351
-6655
-7848
9174
1168
-5921
-1009
7302
4232
1231
970
-8055
-3868
4317
4901
-8646
8191
-7035
-855
-6410
-4114
-1793
-8884
8195
-7903
269
8551
-417
2983
-9127
5044
6083
-3558
2645
-1781
-8965
1299
3420
2356
-4776
-872
-1032
-3641
-6355
9980
-5843
-7351
3763
8361
9597
2958
7325
-3606
-1530
-7125
-6739
7402
-3439
-1376
5334
-4955
7459
6773
4930
625
-5607
-9631
-3268
4391
384
-6542
-6976
-4655
9204
71
-8999
-1458
-8997
-6598
6645
-1151
8574
6282
8657
-4251
-7106
5006
6361
-4886
9816
-4891
6670
-9307
-6171
9962
6891
-9366
-777
844
-7470
2476
-5719
-9400
2256
3823
-144
2099
5783
-4694
-9864
7438
-5332
-2542
-9541
4073
-9120
-6208
4699
-9860
-6479
-1415
3069
2721
-9871
-157
69
52
-4206
-4623
-8079
-8500
-9367
3092
2945
7576
4200
5374
-8813
-3615
3986
1812
4971
-7476
4413
-5437
4181
9887
2604
-3729
2671
702
7684
-8254
-8438
-251
1474
1487
7072
-5091
-9797
7669
-8876
-6969
-806
-8661
-1930
3536
5506
-6653
6777
1302
-2908
-9043
3646
-4980
-8719
-2973
9262
-2376
283
-604
8991
-8720
-3133
4284
-3802
1030
9473
9496
5615
-1578
2821
-9342
4029
9220
-2657
-3080
-4466
-2154
8839
1306
9473
5154
8341
-4716
-9398
6002
-8625
-2868
3005
8260
5728
-616
-7931
-4020
-2705
-8183
2004
5953
-5337
3419
443
-870
4882
9240
-3895
6177
-4800
6203
-9264
9945
8522
-4285
2348
-3340
4007
295
-6842
2376
8403
6502
-7287
1590
8625
7013
4373
-9202
-8448
-8934
1588
-8563
3115
4283
-646
-6169
-4459
6498
5785
6567
-1099
-730
-1075
4224
-8815
-6400
-5345
434
9659
2748
-6896
-7016
5569
-4967
-7111
-7033
-5937
7176
5270
976
-8277
35
3591
9919
5215
-4601
7270
-3808
-3728
5121
4195
8858
612
-8044
536
-127
1403
5235
-7212
-2511
-8563
-6046
3277
9720
2468
-5188
7445
-4969
-4959
3424
8845
-6625
7538
3187
6148
-7646
-575
8153
5338
-9634
-9736
-6171
-157
-8443
-6448
2916
-8479
5753
-7650
1816
-3764
-9289
2314
8080
9144
3649
-3019
9048
-3084
4458
9997
7523
-3254
-6176
-480
1618
-4655
-3815
1051
-7178
-5006
9601
6812
-1198
8330
2440
-7991
5666
-1324
260
1430
8132
-1456
-4646
-6621
-4546
-4615
6111
-7833
6000
-9346
-6301
5330
-5999
-3996
9494
-2877
8231
8669
-1651
-3977
-5643
7052
-137
-9282
103
7067
-7190
-3635
5636
-21
-3816
-9062
246
-6734
-5469
-9912
856
-2529
-5157
8161
-2104
4044
7703
2909
-298
1874
-3737
1883
7917
3480
-6747
-350
-6803
-4209
8434
-3326
-6892
-5031
-3290
3109
2221
9919
-9427
-6312
8169
4921
-307
-6449
6833
-1748
5083
-930
4858
712
5676
-7400
8335
5666
-8932
-4437
2725
-9546
-4232
402
-8935
-1973
-2458
8668
-5074
-2831
-4818
-137
-4167
9832
-402
3669
3535
4958
-3873
6789
1984
9535
5693
-5140
3841
-272
7804
9781
25
7572
9277
-6711
2042
-7956
9217
8675
1766
-2797
2958
4373
-4172
-5278
5493
5395
-54
3226
-1582
-8312
-7723
-7296
-6561
6013
-5726
-1330
267
8256
2543
7808
6998
-2131
5864
-5498
7053
1701
-2231
5939
-1638
-9440
6996
-7533
-2375
4544
-4326
-683
-4616
-5353
-1844
-3880
6037
6006
-7697
1323
1041
-3113
9324
124
-6757
6641
-1660
-3463
5629
-4169
7463
2911
8714
2102
4488
-6476
7390
6608
-2865
-7244
257
7407
5336
-7023
2293
8742
6224
2368
-4823
-2002
-3828
8778
8647
-4203
-6277
-7925
1019
8939
2206
4557
-2730
-9293
1498
6643
-905
-1407
4655
-6673
2908
-4388
-2952
-4122
8965
8062
-6872
-7227
-2390
-9981
-865
-5994
7127
-7222
-1228
-6215
-8248
-3873
3316
-2020
8068
7519
7646
4790
-6568
-4867
9267
9750
911
-8780
-1240
-514
1924
3361
-3109
-7407
-138
2870
-3777
523
-4098
2037
3136
-3437
-8375
4862
9989
-3235
2123
-479
-3481
-6831
8045
-4913
4615
-3365
-4699
9852
-8761
4328
-2870
-5876
505
5199
4839
-3574
7907
-4307
-9326
-1147
-2910
-2489
9159
-5391
-7198
9409
-8298
-1198
-7605
5808
3293
-7840
-7393
-3577
9908
-3425
-1550
3176
-9520
-8753
6598
-6644
-1679
-1320
-3009
-8808
-6563
912
3232
-5910
9364
8083
4910
4177
6030
-6191
-6927
-8914
-6442
-5167
3905
7632
-8958
6025
-4980
6550
9024
6047
-6214
-6602
-5276
3842
-2193
-1486
-4972
1642
-6119
-842
-6134
6243
3691
-8108
7737
7084
2011
4844
-3937
-3000
6312
9628
1423
-484
5475
3531
-1111
5170
-332
3981
3288
8583
3493
9379
-1321
-2158
146
-6970
-4868
-1705
5580
-9771
4635
-6076
8598
-7511
55
1219
-4714
-2592
-1063
-7150
4359
-2090
-2580
1386
-6240
-9662
8576
-3007
8223
-2662
-5766
7179
2596
-1487
-377
-8366
-3727
-498
6208
584
-9583
8429
9600
-8693
-8438
7631
6650
-5910
-7378
8052
-1291
6351
5574
-6036
6420
-8403
-1203
6378
5567
8497
6428
-4981
-6854
-5359
7202
-9297
-1801
-680
-4237
-7266
2899
275
-9191
9131
-4052
-9629
1281
-8483
2540
1926
4324
-9043
3046
8842
-3107
6321
5921
9557
6681
2435
-476
7573
7393
1787
-7824
-9525
-1575
577
157
3228
-328
7566
-730
-2908
-1553
-7488
-2813
-8519
7353
-132
-8962
-7012
9546
-6999
7467
-6975
872
4341
898
-6412
7243
-2305
9797
9259
-102
349
452
2786
-8691
-5304
3094
-8559
-9921
-8287
6170
-8143
4464
2009
1137
-7836
-8934
-5984
2367
-8047
7710
3471
4578
-7015
7751
-6453
3672
-3443
6718
712
-4075
7012
1688
-2068
5199
-4823
8761
3749
8188
302
4638
3581
-6391
4643
-5377
7782
2919
878
1201
9983
-2722
9313
-5062
8771
-1685
9211
-7508
-4054
-1226
6525
5428
-4634
-6895
8980
-2213
-2128
-2156
-1368
472
-222
-3062
1948
-3866
-4878
-1896
-2082
9472
-4832
2938
-4221
-5158
-7436
-4347
-4227
5469
-7875
3173
-1384
-3167
-4622
-7197
-7600
454
-8188
-7304
-730
3781
-3807
5131
8416
6843
-1633
-7100
-3176
-2976
-358
-4946
4679
9544
-1867
9875
8489
3162
-5592
-9871
1637
-1903
-1716
8458
9551
-3657
7834
9296
-5437
-6683
2443
7698
4215
-5862
3189
5239
5977
7911
5863
8433
-8803
8998
4650
-3902
1613
5514
-2262
8673
-7126
2238
101
4704
1213
7584
3239
7513
1835
-7530
-3201
8587
530
2642
2852
3248
3650
-4511
-9989
8892
5829
-2723
-8422
-3571
-315
-2473
9686
-8519
7224
-6615
5588
-6468
-1197
8840
-4751
-1642
2196
1099
8922
-8036
-8234
9589
-6428
-7327
5591
1851
-2223
-7899
7175
4944
237
5472
7450
1025
4990
7052
-7228
-8595
9148
-2584
4994
-5342
-7702
5882
-9077
1242
556
-6348
74
-369
2916
-9048
2138
-2940
2607
-4928
-1550
1823
-7937
-4881
-4572
-6609
6471
-5867
-7817
1659
-2038
9485
9323
7313
129
8445
-8486
1511
937
-2605
-7571
5014
-9087
-9643
-2486
4421
3160
-4622
-2725
-3730
-8152
-4306
-8128
-1420
6624
6764
6350
-6214
-8090
-88
5118
7017
-8062
-1344
-5883
-636
-4751
-5189
9634
6976
5500
-2053
-6167
3829
-529
4059
8758
8391
7659
7134
3032
-7310
8045
698
-1667
5954
-602
5587
6465
-5536
-3070
-5154
2002
4207
-9843
6981
348
-6352
481
4806
6614
112
-5647
8624
6730
-4740
6730
9776
9025
-7437
9186
-6647
-8171
-7076
-2893
7358
-9344
-6725
-8704
9707
7138
-2562
-9324
4084
1119
-1476
-5143
1111
-2837
7793
-2006
-7849
-2742
6182
-1304
-290
2575
-8417
-5377
-9432
8894
7488
-5004
5628
-7337
6759
9415
-6071
7661
8031
-2832
-2689
5849
1697
7634
-2997
194
-2618
9482
3655
2164
-4488
-6027
8346
-7940
-8173
6019
-6338
-3556
5576
5585
-8852
-6292
-325
-8474
4273
6128
-5781
-9828
-5499
4809
3562
1759
-7870
-7534
-8489
9217
3310
-1715
-764
5893
-70
-1054
-3853
-8539
42
-9644
-4757
-1440
-6888
-4192
1323
6652
-3496
7960
3006
-5893
7543
4442
-2392
-5284
-1128
9846
-8281
663
-6061
506
9725
-9649
-5827
2674
7509
-3430
9692
-402
9231
8182
-8598
-1537
1358
-3243
-6152
-5696
-9989
-1467
-4495
4698
-4820
1668
5882
-3545
-1429
8868
-2591
3444
547
6281
-5961
3414
-3931
-8954
8315
767
9523
-8183
3883
-7763
-5967
-614
-8542
-7177
2010
7712
2805
-9500
-9268
9689
9514
-88
-883
-3551
1158
-2326
137
-5743
-9093
4852
-3032
-1220
-4254
-4170
-9552
-7010
3146
-3012
414
1977
6358
-6480
-5894
5662
6484
8149
1114
-1352
1053
-8331
-3716
-4571
6011
-8074
9402
8696
-9097
5285
-6225
-1350
5456
2534
-5561
2044
-119
-151
1252
1125
-9136
-5335
-7932
4637
631
6165
6842
5790
-2643
-9426
4847
-4646
-8214
2555
3973
1974
-2808
5801
3702
6381
-2453
-1827
-8560
-8709
-7693
9821
5645
4641
-4745
-3693
-1344
-9768
-431
2937
7036
-3172
1614
1474
-1973
-5441
1911
-4218
-3180
5657
-6695
-852
-8586
-4444
3589
2728
-806
9902
2662
1932
2626
3224
-7273
5548
169
5771
-5840
1036
-7089
-3494
-619
8641
-2524
-7762
-7651
6845
1377
5604
2314
-7830
-1749
7874
-2987
7443
-2673
-3513
2689
-5585
-6015
-8209
6200
-1102
-3580
-7365
7868
-297
7162
6228
-7142
6144
-2343
-5851
-6448
-6790
9059
3419
5749
-1699
3106
-758
-2576
8979
-6853
4266
-9597
7223
7341
-1753
2538
2485
-6450
1419
-9273
3155
8545
-4824
-6365
4068
3027
4353
-2935
6277
-1781
-3058
-5422
-5439
9912
8996
-8655
-2000
-8533
-4705
147
9447
-1526
-504
5039
818
4802
-8434
359
2880
2145
-5288
-9341
568
-6579
-700
534
7870
4090
-3001
-7554
9891
4902
4833
5311
-6003
4535
5865
7004
-3239
-8697
-9072
-185
8948
-662
4087
9555
6879
6558
-6493
6164
-4759
-755
8844
6510
-6206
1204
6592
-1446
-1580
4278
5475
95
-4475
-8693
-4481
5078
8099
-7274
6411
-4307
1581
3600
3482
9533
-1860
9155
2882
7632
-853
3775
1542
-8631
-2692
955
1959
4125
-7701
-149
-2892
7014
6756
-2205
6517
-2967
-6935
-2389
1021
786
5623
-6490
708
7193
8158
-9958
-1695
-1443
-8894
-5165
8497
997
-9778
7726
-7356
2402
4321
6451
-2135
-1084
7387
2153
-307
9439
-1705
6791
8236
1685
-9984
-1114
9277
3042
9386
-5935
3727
4855
-1594
2550
1578
9643
-1498
6945
-223
-2597
331
602
7356
-673
-6593
9396
-4252
5101
-7786
-2195
7324
-6583
8468
-5947
-8922
4379
2772
-1611
-9283
7263
3170
3645
7546
-2669
2973
-2153
-1841
1422
5701
-5101
5256
3618
-8895
-8693
-1110
-556
-7027
-5632
4879
9948
6804
-9558
-2556
-4540
3375
662
-6220
2827
-7110
5868
9843
-208
3613
-7487
-1442
-4691
8770
-3004
-5599
-4240
-4061
7123
-8384
3423
4335
-3744
7188
5911
-2890
-1713
4320
-6993
8079
-305
-2719
-9129
5420
8685
4328
2618
8344
863
1819
9003
-2896
-4148
-333
-6741
-8519
9959
5995
-9887
-1550
-3761
-2863
586
5758
5182
-1974
1358
4976
-3159
7628
-9652
4867
8244
-5805
8609
3961
8840
-4083
2701
9817
1000
-5954
1430
1671
2707
-2489
-3836
-6917
5147
-9199
-5095
1624
9231
-9838
6861
-6187
-8062
7077
6493
5203
-4090
-7430
3804
-2071
-6132
-9002
-8850
-9045
-6823
7897
5880
1950
-4698
-7254
2865
-6108
9904
-5342
-8734
4373
3967
6670
-4121
-8854
2633
-7452
-5028
-6586
-9713
9009
3722
5278
7991
-4183
-4791
4972
6489
6295
-653
1594
-7249
-8252
-5704
9626
2479
-5455
4480
768
970
6817
4796
-7517
376
-5708
1465
-6865
2694
8125
-3401
-5275
-5286
-8445
5760
5949
-6368
-7335
5627
-9319
-9764
-187
2299
-34
301
2018
9917
-769
-5760
3055
-6065
-3362
-9928
5045
3720
-6606
5428
5009
-4851
2296
-9439
-3843
5372
-3076
6223
-5401
9242
611
7842
1734
-393
1721
-9519
2727
-7788
9680
-2076
-7705
31
4924
3581
-9542
-8505
5057
-9073
2953
2471
9467
-3168
-6331
-7178
-4935
-7553
9791
4857
-3027
3136
-5739
-6657
-290
-8465
-5321
-5597
6772
5900
-6996
4259
9529
9749
-3847
7729
-85
-1898
4080
-8857
5702
-9258
8911
-5309
-8045
-6506
-3564
5154
7744
-5183
-478
1543
3389
-3103
-8024
3380
123
7939
-9109
-5774
1541
5523
-4278
1451
-5880
-382
-6882
7393
-7277
-1710
-2015
6690
6261
9130
3262
9964
8520
-4926
-6361
4961
-340
4555
1641
2829
-4982
-7133
8574
-561
-428
4036
-2790
9475
-1218
-9222
8412
4492
-475
-6247
-381
5189
8453
832
9543
2895
-671
2044
521
-4434
-4236
6534
-2406
-444
1293
-5852
-8294
16
4790
-3867
3370
9976
-4001
-3021
-7369
981
3312
2547
-8612
6647
-6073
8440
4947
4549
-4934
6913
1028
-8429
4298
-9304
-3412
3189
-3266
7692
5440
8117
7436
-8150
2982
-3706
8507
2302
-1762
-9560
-8026
5516
-1993
9237
-7954
-6780
3073
-6394
-6740
2705
-7786
-3334
-5359
-4483
6186
-7300
-5735
-4518
948
690
3450
7769
-3025
4060
-4670
-3131
9913
-274
-1398
-6693
6692
6877
4085
6429
-9236
8645
-1006
3735
340
8339
1857
-4018
4303
-4024
-347
1719
1826
548
7905
-5085
-6111
8824
4429
4939
-2524
2385
7809
-461
-3430
1245
2904
-1799
7979
4552
-2668
-4056
4597
6748
5297
5643
3837
975
-1904
-9205
-5161
651
-5763
5
4396
-5216
6390
9544
8697
2983
-2807
-9115
5543
-7943
1451
6493
-9892
-2363
8422
-1035
6148
1559
4521
-3837
-5811
8471
-5756
8146
8322
3650
5035
431
4126
-1914
461
-7447
-8429
-3423
-4735
-9114
-1127
-64
5793
344
5927
-6649
-283
-9156
-770
-476
-9895
1304
-5858
7430
-9339
6494
4908
5360
-8717
-9845
-2005
-9621
6073
1620
125
-4615
9594
2543
8827
9725
-8653
-4655
-9668
9562
3335
5662
7360
232
-8907
7354
-2362
4364
4605
-9547
2871
6754
2356
73
7520
9819
9050
-2661
6827
1911
5576
-7792
4396
-5148
-1622
-7538
1035
6764
-5374
3140
-1383
-8400
-508
-3654
5389
7710
-7757
-7381
-7510
-5568
9065
-8031
-4696
7790
2202
5187
-2104
-5651
-2614
4174
3900
-4393
-5462
-6173
3061
-5522
-9712
7391
9029
77
5152
2236
-8901
-2628
-6977
3605
-9792
4205
-3853
-9767
-2137
-193
4873
-2459
5541
-3924
8179
-8294
1710
-4218
-1646
999
3729
285
1210
-418
2760
-6570
1816
3323
-8799
-1988
4935
-2737
-5808
-3466
9299
9915
-511
8906
5245
976
-6799
6364
6435
-4216
2906
-6956
-1952
2500
4164
4528
6258
6060
1601
-3899
6761
6718
-8388
2538
-6269
451
-9930
5990
4835
3443
5552
8805
2818
3559
-3784
-5857
9590
-2018
6778
8762
-5051
8043
1018
-362
-1258
9878
4676
-1193
-7329
2565
-6095
-603
5910
-5697
5160
-213
7348
1473
3876
-7372
-3540
5520
-8707
716
4725
-1816
-8486
-7259
9980
6914
4158
8431
-2830
9198
-8119
4920
765
-2999
-3401
3886
-3560
734
3459
-7427
-7425
5893
-2653
-9201
5805
-5106
3158
838
9055
1682
8180
7335
-4666
-2657
-7515
-9610
6114
-8851
1644
-3440
9180
-6546
4959
-310
-2415
4310
-8078
-3675
-1279
4849
9856
-1051
-9485
-2777
-3547
-5674
325
3321
-7667
3958
-8593
-7513
-9144
-984
1639
4058
-4964
3005
9726
1939
4738
2085
5163
5149
-8732
-4909
-9976
963
-9018
-6796
2985
5307
4779
2628
8981
8865
6067
-7263
1489
-3222
-3722
6846
-1271
-5212
4028
-6869
-151
-4634
1713
-906
2741
-6396
-8398
4680
-8834
-5443
-7554
6232
-4339
1246
-2832
6372
51
-4332
-7655
-6642
3354
3920
-8961
7506
-4495
-9014
-8083
-7988
4558
662
-309
-9188
2891
1861
4535
7109
409
3691
1508
-7256
3871
-1317
-5153
795
3217
6006
-3373
1679
-1908
-5296
-5571
-3604
792
-9315
8429
-297
5475
-9317
4799
-9288
-2346
1337
-677
-1313
-7057
-7738
-7177
7827
-543
-1835
8305
6384
-5626
7065
8611
-7350
-8038
9077
2972
3218
-2338
-6541
1003
7370
-9123
-9671
3482
-4524
-2327
-2088
-9315
-919
3886
-3889
1099
-4379
-1057
2943
6029
-8300
-8773
1570
-1135
5415
-3061
-7419
-8241
464
-3906
8705
6993
2558
-8283
7287
5466
-7852
1249
9571
-9431
-3454
-7198
5327
2118
-770
-6863
6279
-7900
4450
-885
-7494
-8420
1219
-171
-7780
-3454
2336
2776
7238
-737
-8672
-5856
3972
-8640
-7011
-9370
-7085
4973
-8308
-1731
-1642
-853
-4309
2273
-5502
22
5370
-8813
-5931
5508
8725
8485
1312
7693
-1712
5275
2359
9647
325
-1183
2985
-2864
9348
3370
-3774
-9675
8752
-7789
-9515
5769
-8071
-7356
-7467
4722
-2764
9472
-800
-9729
-5079
-3384
6552
2828
-5555
-8592
-3954
-8777
-3428
-8363
3352
4872
-3772
-8530
-2492
1508
9283
-850
-4500
-5560
9289
-3267
-9394
-6478
-1389
-9914
1519
4805
2540
-3970
-6275
5273
4623
2696
4583
1085
-3205
-926
-741
-9515
-1127
175
-4149
5774
8539
-4600
5026
2717
-4860
-627
-8056
258
8469
6939
6410
8651
-2821
6947
993
-137
489
-6913
6177
-9439
-8345
4285
-3283
5035
-8110
-7960
3923
3089
-511
7496
4970
-3775
-9596
7294
-7896
-5618
3792
-6163
-7751
5040
8835
-6922
-9400
6666
-2375
-9126
-9443
-721
2976
-2430
-3222
-3638
-258
9723
-1866
4370
-6490
7742
-7017
-1226
-8427
8692
470
8859
7590
4637
-1558
7485
-6402
-1353
1072
6463
836
2907
-2504
3494
4357
6438
-3584
-7687
5397
-6541
1156
-5811
-9726
-2276
-5427
-4070
-5165
-6977
3901
7235
-497
5483
1926
-1451
1489
9471
2680
9463
-1994
-4399
7463
7327
7070
-3275
-9907
5809
-8936
5796
-940
4052
-7864
-1946
-1332
-1582
-1584
-729
-8749
-9100
-4810
1637
-1785
-9036
-3759
-633
8905
840
-2899
-2827
-6795
8280
4173
-3408
-3711
5260
-8477
7382
-7891
6370
571
4321
5930
-3624
7048
-6751
5674
-7128
-5779
4512
6790
7028
-8223
-3210
-3915
3067
5697
9756
-3855
-4570
-3985
-9782
3939
1513
-3419
-7001
4658
7428
-6201
5309
5031
4350
9715
1256
9102
-6095
8960
1797
-6137
2402
8744
-5340
-7851
5828
-3581
-1363
-4156
-9883
-9903
-2866
-6275
-5395
-5590
-3044
-4847
-9566
5638
-9917
3354
-9757
8369
8526
-9820
-9332
-802
5355
7956
-5038
-7849
8584
-6465
9472
5160
-1129
-5464
-5217
-2709
-3180
-1449
-37
2335
-8813
-7754
-3288
6033
-4625
-745
-911
1306
6378
3252
4063
8802
-2329
-4260
-1679
8452
5526
-3142
7529
-8165
6895
1910
-4264
-5133
-3843
6347
-5443
5665
7976
-2459
-5419
3350
3955
-6994
4610
-9803
1874
-8396
-1614
-8295
-1905
6746
2908
-2990
-3987
8829
-2285
-4490
6479
-2172
-9792
-5339
9685
-3567
8620
-1392
2269
-911
-8799
7648
-1735
-7028
7893
4479
7979
3172
9126
4757
5033
6299
-4828
6725
8500
4183
-836
-2526
-5525
-7458
-2998
1855
9367
-1773
-1833
-5805
5848
-6938
-7085
-7419
1598
2298
-6643
915
-9121
-8617
8610
-5174
-561
-4037
-2483
4109
4379
-3009
6317
6651
2328
-4723
3282
-3503
1654
7993
7405
2299
-2565
-6579
-5892
-8591
1489
9581
7341
-448
4065
7476
-5529
-3548
-1429
-9761
8056
-6381
6300
-4185
6916
2174
-5840
2670
-2203
-4237
5162
-4457
8501
6432
-1159
1386
-6443
-163
6657
-5535
4220
167
6189
-6103
6146
4969
7016
-2992
-5
5289
1171
7482
-6999
7583
1463
8566
2805
385
-7892
-1519
8770
953
7836
7719
540
-5071
32
-3955
8823
5508
1391
774
-864
-2279
4278
-2664
5677
-1921
2120
-1908
-405
-9751
8106
-3912
3493
-6703
901
-3369
2459
677
-6783
-8489
670
-4654
-4173
-1804
-7686
-840
-3037
9476
-4352
3267
-4983
-2195
-112
186
-8896
-7049
-4031
-1969
7259
1663
4357
2672
5918
3608
-4302
4553
6808
-827
3407
3477
8506
1599
-8723
6899
3647
-1564
3633
5071
9114
-4580
-9128
-155
-4422
-278
8867
3044
-5699
-1182
-2683
5000
3428
6322
9001
4165
-9214
-3273
9719
4730
-4257
-2720
-3106
-9312
8794
7136
-6197
-7967
-5756
-8593
5923
-8385
-1259
-9109
-3929
-395
-3568
-2919
5782
6621
60
6338
1872
-3703
-3375
7258
-922
-6664
6041
-9189
2438
4150
-8226
4145
6327
-6320
-6536
-4138
976
-5775
3388
3000
-8083
-13
-9114
8242
-7111
4414
-8105
9505
8610
6579
4399
-6459
213
7477
4742
-9824
3181
-2472
4693
4456
5345
2443
4621
239
-9255
6278
4231
665
-5875
7637
9076
-1535
-9629
7865
-1599
-7792
3368
-1491
-2119
3356
-438
9402
9431
3377
-7066
-1538
9473
-9782
-9841
9565
-3055
-952
7367
-4091
-7192
-6514
-6734
2752
3924
390
-2749
5726
5916
3823
5769
8652
-8031
1953
-4717
-1654
-2448
-5586
-3971
-7109
4634
7033
7218
4643
-6804
-4101
-8691
9486
2711
3298
2705
9881
-8206
4435
-5451
803
239
5633
-3879
-5145
4527
-7691
3033
-4290
-4880
-1867
-7533
7476
-8042
-4453
6549
-8357
-6878
-7783
-1567
-6994
867
-1978
7597
-8715
9143
2810
3663
-3903
7130
-3550
-8751
9549
-5477
9544
2341
-7098
-4065
-4220
-2774
-8404
4252
-5068
-9849
-3591
-4314
9396
-8237
7546
2909
-3531
-3300
3231
6928
3609
1860
-5356
-6857
-5380
-1519
-4953
-7398
-9135
-523
2518
-4469
3627
2447
-7117
960
1152
8254
2304
-6346
-2877
-4707
7463
-2501
6046
-9637
5266
3188
5458
-1517
-6179
7184
-5170
-3987
1678
8883
6747
-5836
3351
-6636
7178
3251
-4363
-1794
-1456
-8020
-8441
4624
-8172
591
-3492
5515
2116
-8093
4646
5986
5697
-9940
-7266
5594
-3714
3169
-6801
-4286
-7080
-6748
-1324
334
2755
4320
6115
-5903
8219
7962
-9789
7440
9907
-5434
3050
-4468
-5889
7965
9786
4959
7009
-8599
8507
205
6350
3533
6631
-9526
5783
-5348
-4166
6748
7111
5268
2823
-1227
-8710
1991
-5703
-7853
-9675
-1178
922
6853
9093
6007
-2548
-9730
8641
3078
-6123
52
639
7903
-3999
5325
-3527
9394
2887
-1845
3814
7908
3348
1580
8558
4452
-6040
5308
637
-2522
7066
-4332
-1485
4324
8815
-7446
-968
3357
4442
2804
6819
-7689
-9100
6824
629
-1400
5353
-6727
-7317
-1862
-7842
5220
-8422
588
-9364
450
9263
1099
-8695
-1599
-1724
1177
-826
6768
6672
4705
-717
-8087
-4989
-994
1902
-1124
-7770
-4576
-7391
-704
-4555
9060
5927
8375
2419
3099
316
5772
4903
9591
-3036
-557
5999
5617
-4800
6379
-4581
-8580
-6693
9660
2712
5393
5053
7330
-9521
-243
9523
-4613
7067
-9725
4620
4485
-8559
3576
-6918
-1991
-8378
-3582
-6052
-2294
2557
-7350
2100
-7619
9239
-4265
-6152
4964
-3424
7289
-2540
3792
-1235
-4528
-5816
5012
7845
-9083
7424
4803
3564
2515
-4344
2442
4913
489
8033
8239
-2599
9985
-9174
-6026
-458
-5088
7420
-2281
-2917
8706
-4950
-215
-5905
6466
7293
2007
6344
-8865
3043
8730
-5721
5370
-236
4546
415
306
-8220
-8742
-845
-7478
2728
4467
5720
1409
-4586
-1139
5391
522
2017
-9557
-5824
-1476
2941
-6102
7717
8053
-6500
-6322
-3468
4140
-5694
-1403
2510
-2330
3349
-8613
4204
-5980
-4362
-2916
6494
-7886
9695
-2925
-5931
4967
-657
9250
7484
9207
-6178
-1040
-4356
-1884
-263
307
9130
408
-5837
-7146
5141
-4725
-65
-5165
-3366
3108
1260
839
-4172
945
-9306
9157
-4639
1752
-3084
-7934
-863
7565
6904
895
-670
-2148
5709
6990
-3988
6562
-7540
-510
-8487
-6021
-7874
-8593
2907
-7198
9173
6544
2903
1809
1451
-8440
1921
-4998
-9531
-180
2322
9302
7684
6715
9491
9691
5540
-310
-6119
7084
-3381
472
3134
1296
4690
1903
4088
-868
-2649
-2825
-9346
-4073
1531
5476
5542
7804
371
-5263
-8711
1441
-7219
9530
9146
8339
5472
-9787
3255
-8621
1327
-2070
1825
-7138
7661
-555
-2880
-4684
-6706
-4483
-8321
8985
-5714
-2891
-534
3247
4774
4797
7534
3115
-8427
8485
-3676
-3443
-1018
-3105
4845
3485
3792
9302
-9221
3156
-532
-4404
-5105
3043
-6763
-5050
-5747
-615
-9834
-1678
-750
7244
-5777
5410
-4122
6214
-2085
2861
-3570
-3159
-671
-2754
-564
-7613
-1805
-6325
-7271
734
1060
-1065
2316
2012
9776
6609
-5839
-1017
-2855
-9078
-4073
9245
8968
-4140
1466
1027
-7334
-3313
-7964
7589
-809
-8017
-4855
9231
-2754
-3825
4480
6427
-3445
4816
2451
2787
458
-2095
703
-7656
-2831
-9884
3334
2101
-6301
-8913
2562
-2177
-3131
3734
-2758
-1296
-8306
4083
882
4898
-931
-7802
-2235
776
-8125
539
-6820
-3664
-8555
-6535
7071
9387
-5199
9499
-967
-8080
-2848
6739
7072
5477
-6159
-9145
-7458
-7567
-8725
-4863
9284
-7281
7318
2440
-3669
-1108
-1782
-9959
-9659
6286
-8675
116
6550
-362
-9265
-9017
5092
2645
-3607
7143
3328
2836
-3690
-135
-5727
-9577
-3747
-5786
6123
-3013
1578
-6640
8658
7435
1856
-3571
-1564
6998
-9492
2312
-3307
-6028
-1122
-1421
-8668
-1566
-2979
-8024
7518
-2620
