-3251
-4591
6069
-818
-9775
2231
-6372
1557
-9725
4321
1067
-1988
-556
-2289
3855
7791
-7732
2571
8954
-8776
-8803
-4267
-684
-8276
2136
5580
8462
7708
8423
-8213
-5893
9260
2453
-6437
3039
-9003
5359
7023
3451
-5224
6831
4781
5406
3740
9576
-991
-4659
2615
5844
-6983
-3700
-1707
7130
5756
-7993
-577
-7656
8678
-49
4076
-5374
5042
6313
485
-7513
8029
3901
7464
7034
-4097
3135
8315
-6193
-26
-4277
4856
-4898
-5689
809
-3343
6652
4843
-5789
-5332
-8846
-41
-7269
8124
327
4669
-2343
-1073
7148
-3889
-5824
-1313
257
9356
-3252
-9816
-6210
9477
4432
7185
-2494
8242
4683
4443
-5466
2060
-692
-6905
6981
1470
2103
5811
-6679
-8069
-5902
-9265
-4348
-9347
-633
-6435
-144
4877
2092
-6871
7095
-6744
3806
7349
1265
3899
-1291
3714
-6278
-9824
4496
-8789
-6035
8476
6298
-885
-7012
949
-7861
2147
-5449
585
-250
-8838
8937
6061
-3367
-6088
-6427
-596
-2078
1383
5394
784
9908
-8260
976
-8336
-8975
6167
2128
-9970
6608
-1271
-2919
9598
-1011
-4228
-9662
-1362
178
-444
7892
-6549
936
-4573
8760
-3417
-3023
-7751
8601
474
805
1702
6756
3519
-4059
3705
4073
7408
-783
-7645
5677
2155
6419
9668
183
-1656
6664
-7149
-5145
-5123
1746
4854
4796
-5026
-1896
7784
3543
3088
-8896
-6052
2245
-8849
-5994
-9626
-4862
-6264
-2702
-841
-9878
-1284
-2018
8247
-5011
2429
-7010
5042
-7793
-3446
6023
8732
8162
7665
-7022
6294
6380
-177
7468
-8172
8454
-4438
5100
9216
-8674
-8681
2737
4084
4989
-423
7346
2557
861
1914
7955
-8408
-2252
4668
3739
-1564
-262
-7951
1504
-4744
-1670
-9661
-3416
9041
-296
-8813
-7394
-3395
-2704
-7984
-2347
9831
-299
-2758
-3003
7291
4407
5235
5882
4898
-1012
2878
9796
518
-6899
2067
4163
-4749
-2962
673
-9379
7582
5513
-5759
-7195
-4330
-966
4074
1028
7735
-597
2427
2242
-9120
-9212
6111
-603
4575
3271
-3872
-7418
6704
-8092
2827
3270
7160
-8955
-6384
-7462
-3055
1058
-6645
-5708
-943
-7396
-3597
-4631
-8353
-7882
-6382
5772
3519
1536
-2339
-5639
-2504
5079
5599
-2002
-1987
6395
9068
5459
6009
522
9130
-8674
-3735
-3172
-4469
9619
-9736
-8535
8144
-7824
1073
871
-7783
-7553
-4178
-8552
8371
-8026
-3947
-5220
3388
3712
-3400
2667
8404
4138
9531
-8332
7446
4333
-8648
-7011
-8896
9181
8803
340
-2324
-6636
1486
-4347
7275
3001
7937
-9390
-6886
-7389
-4084
-9464
8613
8454
-2661
6428
-976
-8574
-6363
-9241
-8193
-4728
8278
-6805
1402
-728
-242
3489
811
-1591
-9409
-9488
4992
-1377
-4340
-1230
-786
9901
6728
6775
9236
-4208
9009
5181
9647
4302
-9598
-3108
1642
-7744
-5685
-3806
2216
2790
2982
9449
-6996
4055
-267
-3994
-1129
6010
5891
-5300
3924
1855
836
-1267
5703
-9259
-7835
9644
-2881
9235
7031
-259
-9897
-9543
5404
1580
-5089
1793
-8658
2970
4725
4865
-682
-3584
6415
-5366
-750
-6915
5247
8502
-3959
3092
-6158
-9162
-2686
6249
-6178
-6547
6465
-9557
-7641
8461
7243
-1607
5230
6284
755
-2195
3008
8672
-3836
-5238
-2339
4275
2263
5727
3087
-7416
-1265
9609
-4941
1001
3050
-1902
3465
-636
-8127
9836
-6972
-3632
4214
-8000
7294
3214
7735
1415
5213
-8833
9226
-3332
9558
-8221
-4293
2433
-7872
-8762
3473
7820
1918
-6437
9058
-8431
-626
-8700
-1771
8737
-7701
6958
-2984
5839
-2782
-6451
2223
-5608
-6318
8429
7904
6452
-1539
1080
9061
-37
1549
2449
-5890
-3433
-3429
-8759
-6365
70
4438
767
-5476
-174
-8983
-1048
-4213
-9952
-2951
3579
-4793
-6545
-8232
5118
-5604
5582
-9632
182
-6046
-5221
-91
-9821
95
2063
-1739
-8308
-532
4974
6315
-2122
-169
-57
4981
3394
849
-1112
-4637
-645
-8540
7465
3051
-670
8104
-5257
5593
-7402
-8412
-2926
-4031
-3349
9370
2576
4323
-2628
4863
-3179
5193
2378
-4433
-4776
-1873
-9322
7908
3132
5864
91
8166
-9322
6143
-7168
6111
6228
700
-842
-9193
-345
8192
-767
6474
4541
6544
4068
-9576
-2800
4601
-2085
-5284
9457
-7009
6463
-1376
2153
9751
-2062
9836
6713
-2441
7417
9001
-6700
6246
-1289
-5642
5769
6871
2571
-8914
-3952
-8297
-4672
3413
-6509
-1724
7684
6642
-1551
-4929
-16
931
-6537
1365
7185
-975
393
4476
4552
-3925
-2721
3870
-6699
-8736
4813
-6486
-5589
-1832
-893
-8652
8341
-6376
4706
-2053
8578
-6697
9890
-4864
7718
6315
4832
-212
6258
-9170
-7513
8027
6271
8061
1887
676
4850
-7070
4086
-7886
-4507
6235
-8000
-8457
-478
5488
-2755
8244
4208
9257
-638
-9511
-596
-6548
-4174
1570
319
6968
4845
5844
508
8883
7232
2606
-3847
9673
-1590
6364
425
4924
-2792
8285
5026
1563
4131
5493
4885
-6149
-1439
-7560
1589
9212
-8290
-8322
1276
-7562
-9864
174
3520
-9139
-6766
1664
-829
2836
7354
5581
-2838
-2818
9081
-1256
2963
2160
-9335
-2756
-5323
-759
-8255
2880
6681
-1013
3209
993
-4711
4340
1430
4707
6057
-25
-5935
-5635
8198
5467
-7736
306
7934
-5188
8353
-7797
-252
-4971
-7101
8755
2080
-7322
-9419
7882
-7588
-1402
-9596
-621
5502
8438
-7491
-422
8199
9361
-8787
658
-5673
1771
1900
-3946
-5970
8974
-2007
7760
3320
-2573
-6536
1420
-8323
5519
6244
-9365
-1847
-178
8321
3305
-146
4293
9477
9623
-9555
176
-6662
-6099
1013
-7901
6765
-9445
-9286
-600
-3376
-1668
-9554
758
-8461
-3743
-732
-5093
557
9807
-9756
555
5411
-3542
148
4603
-1358
-3993
-4265
-700
5901
3009
8182
6211
7531
6134
6931
7717
1844
2411
4230
-4846
-9451
-6862
2592
-3117
-4648
2557
-1291
9199
-5968
-9509
-523
-1623
-5878
-4308
8458
-6931
2829
8039
4353
2889
2953
4495
-2944
1204
6274
-3661
-8638
-2036
8266
3288
-6392
1916
-9029
-6062
2288
-9419
-5522
-8735
-9843
-8915
1707
-2931
-7652
5296
-3956
-251
2731
8650
-3152
-3800
9034
-6370
-5980
401
6146
-3916
9497
8886
-3364
-4595
-9065
6338
-2380
-1981
-9189
3397
3975
-2253
2834
3117
9288
-3709
-3276
-7455
-2027
2441
-7683
-8463
-5296
9546
4482
2194
-9419
-2635
-8634
9208
-632
-3343
-9730
3891
-8289
-7336
7849
2857
-9579
7107
4255
6062
5684
7421
-5521
8291
5521
6606
4426
3250
-6175
-2508
4062
4
6029
-8931
-4512
7824
-9264
204
-96
-2634
4539
7221
4191
-6368
6877
-3342
-4860
-659
1876
3007
7408
6030
-5014
-2715
-127
4704
-6399
-4003
-5728
-2231
2939
1415
-85
-299
-8881
-6983
8724
-4845
637
6519
-4033
82
7474
-814
3794
3978
-6532
7841
-2929
-476
2896
-419
3928
9628
-52
-5859
7159
1314
-9825
1712
-3285
-9137
-3877
-9790
8530
-4682
4962
-7966
312
-8307
-5723
1918
-8927
7137
-8941
4672
-2067
819
8559
4441
1070
-8555
-4236
5594
-4319
-6912
5096
-596
8426
6416
-4613
403
5105
-7599
-846
-8362
-3886
-8753
-4028
-1023
-3230
562
6951
1246
697
-6326
-667
-4860
-3825
1484
4688
-8308
-2252
-513
9470
4583
-1627
-4779
-7630
-405
-9020
951
-553
9236
2583
1282
4996
-3032
8932
6126
3800
1274
-6841
-4315
-1272
1567
-1956
-3998
6574
4988
-1794
-8826
4550
-3923
5913
1430
46
-287
2206
-4903
7074
1818
-6390
-3198
-5777
-7994
-6027
4363
-8992
-2289
841
-7604
2187
-9707
-3768
1945
2895
155
-7189
-7600
-8616
182
8211
4378
709
4569
2593
-9490
-4106
3639
-2478
-5283
8846
-5738
7865
90
9813
-9758
2674
381
1135
7358
5798
840
6781
-6303
-7427
378
-576
-2520
-5039
8914
-4241
-8146
-5717
-8684
306
8867
-1941
2453
8117
-6620
5434
6689
7603
-8322
4320
-512
-3860
-666
-7434
8882
-6860
8124
-4614
-9849
7977
-7183
1745
-1662
-6580
5195
3494
-9837
9183
-5078
-7195
9343
-5235
-5368
-4167
7545
5858
-9833
-6510
6907
4505
5870
3840
-491
9517
9634
-5113
4147
-9214
2676
1329
1463
8744
5008
-5564
4673
-1416
-866
215
-4869
-2292
-8296
-2148
-605
-5501
-4276
-2277
7669
-3376
4318
-3700
-7776
-2090
1190
-6140
-1189
4249
-7419
145
-5883
1060
-9118
3017
-2078
7461
-8982
-4404
9908
5668
-2717
8500
-2024
-1974
531
-4418
7397
8617
-6551
-6170
-1639
-8378
5100
1194
3124
-5671
-4981
9642
-6500
9198
-8200
-4998
4314
-3624
-8460
23
9218
5747
7343
-7410
-8584
-4063
2786
-2927
-6172
-3433
9358
3634
-9293
9636
787
-2425
-4139
-3910
-4412
-1141
-8589
4385
3252
560
5430
9372
-772
4169
6778
1775
9123
9618
1152
1293
3602
8336
3588
-385
-8075
8766
9587
-6434
-5620
-4478
9523
3181
-8361
5713
9160
4631
-7473
-1016
-7132
3775
-9198
1353
-4498
-7489
-3781
-2693
-6017
7143
5517
9299
-9825
5695
4889
-540
-6976
-649
7102
-5700
-267
-7843
3639
-9979
3325
2694
-4943
3361
-2939
1543
-8797
-9093
4941
-782
7067
8409
1964
658
-336
913
-2236
4409
-3245
4301
2943
7287
-856
-576
-1310
-1325
-5157
-8958
7109
-7553
5650
5575
-7710
9146
-5512
-5993
-9786
6151
-4700
9257
9421
-585
6438
1023
3718
6755
-6902
-4776
-6753
9757
-5244
122
870
-1031
9509
6684
-2890
-4548
8770
6784
8743
-9398
3001
-314
3721
-4263
-7989
-5467
-1819
3139
-8235
4604
107
-8992
-6225
7676
8611
-3785
2816
-3901
7771
-9168
-5934
38
9676
-8958
-8298
-2167
-7466
341
-2398
8511
6633
2924
-9026
-6699
3477
-2394
-2424
-4758
1477
-2114
-9330
-904
-4509
-460
-5104
-2704
6743
-6497
-1010
1927
-5180
-1054
3597
7628
-6060
9039
-3631
5735
-7888
253
-1865
-3833
3557
-5054
1151
218
-7608
6538
3237
4865
8630
-3210
-9921
7107
-3572
-4598
-7928
-4466
8769
-6273
1774
5515
-7064
6285
3363
-5713
-3356
-3437
-3546
2686
6075
6806
-6767
1424
3868
-4507
-9958
1475
7703
-9323
2401
592
-1776
-7394
5906
882
8817
4800
4509
6030
9191
-786
-7574
-9019
9656
8119
6216
-8250
3734
3105
-439
8545
-7090
9780
-5182
-8540
-703
-4214
-7321
4746
9481
-781
-5944
3086
5949
-5222
6786
1184
-8723
5710
-6157
-3312
-5331
1090
9412
-4352
-9559
-9994
4588
9609
-6332
-3106
5315
3884
9530
-4417
-8144
-2284
-247
-6492
1243
8732
-7950
-7869
-7989
-3498
-3338
4770
-6070
-7068
7811
8829
-5383
-9067
-2685
5870
9530
-3053
-7415
-2
2231
-2161
-8044
2710
7729
8132
6458
-9306
3345
9675
9127
1893
8675
-7438
412
-5144
-860
-6495
1424
-3602
5987
5847
5502
3539
9780
3995
-7005
7031
-5983
4300
4156
5849
-9051
-5694
-9273
4735
2565
2719
7997
-9867
-3692
-6369
6089
3810
-2714
-9822
-8317
-1985
6614
5295
-435
1157
8923
107
-2828
8860
-8826
4173
4633
1599
-342
-3973
7919
-2770
-7660
-2704
-6730
-5629
-302
-776
-2591
-9087
8772
-3548
9891
-9159
-7632
9741
1503
2120
-1853
-3373
5721
-1434
-9135
-3024
9060
9409
5014
-899
-9489
-8269
-5090
1223
-9743
-7080
4536
3031
3586
3074
475
-7489
7085
-9506
-2231
-5646
-8833
7359
814
-1980
-4518
7277
-778
5819
1895
-8516
1973
-5543
-6489
-3642
2387
7018
-2438
-8705
1006
6674
-4901
-6974
-6061
8191
941
196
88
-1118
-6268
-9755
-7691
6672
7730
-376
-5268
9780
5601
7895
-8660
9788
-5494
6453
-692
7937
6631
-6614
-5267
-6952
-316
-2548
-1924
8734
2846
-3812
-8041
-2570
-584
-4194
-5072
-779
-1465
3898
-8619
-5371
5381
9847
47
2191
-8337
-7606
-8743
-5942
-3569
-968
-3316
-4170
-9016
7640
-5666
-9548
1029
7242
-3749
-9771
-5698
1778
-3249
-4106
-7546
8523
-5048
7130
-7654
-8990
6937
5099
3704
-4711
-9872
-5791
7699
7905
-4785
7780
-5930
4113
-460
-9781
3248
5697
-193
6912
4312
-836
-8215
2346
-413
-2879
-40
6746
2417
-1642
1046
2087
5847
-4592
-8118
-611
6867
-7670
4391
-9022
-6593
9990
8190
3759
-615
-8725
4802
-7496
6909
-5490
6586
-4203
4106
-248
8163
-8465
-7923
9686
-1551
-6312
-4865
4532
7390
7578
4739
8659
-6947
6992
-574
5558
-8080
-6779
-9432
-2663
-1876
3467
6957
5096
5743
-5953
9923
7369
2419
-7572
5147
-4833
2218
-8607
7319
4308
-8953
8467
-548
8321
8819
-5751
9907
-1475
9220
4375
7118
1851
72
-8361
4478
-8529
-4837
7063
-3963
-9497
1851
1812
7399
-5133
7844
-4649
5632
7772
-4758
-431
6965
5384
280
3409
-8216
877
-6814
8044
2601
2411
-5929
-1265
2676
9454
8101
6299
-9625
1464
-4100
8417
-2411
3084
-6314
9015
9271
841
1688
-7394
5520
-2281
9095
-349
7692
4084
-883
8932
5662
-3930
-1275
3359
-5389
5832
4191
-3229
-3384
2067
5760
-8964
4855
-6360
-7392
-4876
6351
4443
2746
-9233
-7022
3345
-8448
-7002
-163
9523
7330
8064
-4870
-9439
2695
-3935
6292
8308
-3583
1181
3438
5865
-7934
-1541
-6958
7923
-3077
2839
2313
6279
7482
-6473
-2116
2513
-3662
4711
1134
596
9292
2364
-3032
3656
1295
5966
2784
-8848
5075
3967
-9901
-4615
-2647
-7771
-7517
-392
4053
-4184
-9551
3871
8190
-3744
-3645
9329
-8121
-1266
-9386
-3104
-2574
-3318
4210
1935
-8477
4845
1966
-6880
1250
-3861
-4029
-9409
967
-7546
9275
6296
5094
5103
-3794
-2365
3387
-3327
7523
-5538
2512
2776
6228
9111
-9454
9641
-7109
9193
-492
-8665
8206
3784
5091
9152
4852
5026
-7516
4882
729
-790
-7527
-494
1342
-5915
-6962
-567
-9687
2453
-1844
-6560
-6056
-3979
-2207
-4762
8252
-1976
-9128
8951
-4960
-1657
6470
7801
7327
-9396
-2426
-159
-6089
7191
-3580
8914
-2238
5153
821
3798
3690
-6338
6777
4011
6927
-8034
-5708
-3117
6176
5741
-9494
-2792
-7762
9253
-2883
8190
6407
942
-2540
329
1660
848
-7241
-6425
-6006
-296
-3263
7259
1344
-8421
3114
-7784
-6864
4645
-8526
-51
-5229
7919
-6437
-5116
8286
-4241
4311
-2607
2913
-3518
9653
-2272
-2584
-3412
-3264
3925
-149
-2075
-8860
400
9824
-8485
-9520
-1852
3266
-1134
-5943
-7631
-9533
-806
4205
8813
4328
9368
-3439
-3780
-2272
-7765
3666
9019
6357
-1411
9206
1798
6608
-1796
8543
5004
6773
6146
-4599
-9985
-5708
2019
4169
903
1749
-8177
-7300
-9878
9999
-5169
-8653
5775
-1963
-8870
-9316
-675
-3850
-558
-7562
-5762
1415
9364
6085
-1477
-7288
7373
-3029
-2969
-3784
-8301
904
3033
1755
7635
-5077
2848
-4628
-8102
-5824
-7896
-5873
-7718
-9082
-2246
5451
7238
3130
6063
5198
8838
-2484
-6490
-3868
-7787
-5568
4922
-8329
-5326
-9186
1161
8547
8582
-8817
7262
6347
-6612
-3442
-8810
1996
-5622
6438
-6765
-7134
-1691
-43
6559
3425
-593
-1111
500
7316
-6837
-2572
10
9170
-139
-8552
6942
-1286
5006
-6556
-8102
-6600
9583
-1576
-1033
5268
9490
-9287
9913
2701
-9395
-7998
9239
8413
-6465
6879
-2961
1286
-9518
3718
-7330
-8460
5500
-4047
-982
-3750
-938
1640
-5530
-4604
7929
-2337
7718
-2660
2223
8957
9139
7093
-7071
2960
1686
-9304
-4825
-5322
-5827
4694
5284
8843
-9780
-8989
2897
-7855
7339
4304
3378
730
-7695
1556
309
6061
1353
1647
-7012
5572
6736
-3455
9717
-6250
-5228
5069
-5961
3914
-5256
5252
-1850
-8686
2933
1914
5409
-5888
1456
2396
2139
442
-2210
5244
-2158
6881
7542
-5819
-7463
-3459
-9575
-7164
-9951
-6563
7334
-5517
-3068
3885
-4879
-4583
8092
-4648
-5214
-9366
2263
8529
-1211
-3892
-6876
9411
3573
3248
5194
4628
4577
7993
7534
5613
-7313
9536
2827
-5076
3514
1801
-5369
1542
-6187
4581
1340
-8940
-7015
631
-8120
1316
1872
14
5128
4461
5888
3689
2834
-7692
-4990
4540
-5984
3449
-695
5983
-2214
-2161
-4624
-4210
1124
-2683
-3525
5920
-1762
9066
7034
-2086
8984
-6936
963
-2217
5287
4240
-7680
4407
6441
-4506
6791
-8992
-3024
8553
-7038
-9394
-6032
6364
-6610
3247
4686
-7213
7323
5284
9933
3318
-801
-848
3689
-6063
68
-4140
-4574
4275
-7261
-8181
-2115
6053
5590
6593
194
7998
4979
8891
3835
-5534
-8468
-5701
-2701
6540
-8161
-9778
4177
-8385
-6282
-9031
-969
-9736
635
9082
5456
-2305
-1164
7796
-8296
-8853
-669
-6138
501
-5702
-3807
42
-8124
-4920
-7622
-7796
396
4278
4870
-2817
-8417
-1162
-7988
4542
6127
-3973
7608
7815
5170
-7545
-1182
-1011
-5013
-4641
7750
-6234
-4702
-7307
-9618
4513
1815
-6762
-9429
-7158
683
-1697
1875
4391
160
2511
-4680
-5303
-6811
2795
7394
-3150
-6583
1879
9309
-744
-3205
5406
-4126
-5122
-8956
-9709
370
-7849
6077
5975
414
2153
9929
-20
9002
-3379
6728
-5560
4847
7038
5981
1333
6560
6338
5728
-9373
-3632
1587
6015
-2197
-9212
8601
3735
-4918
-1949
-2457
-4967
-5944
-4964
-7647
7263
-3398
106
-3760
-1043
5578
-7507
477
3240
7201
-6330
-5590
7902
2921
1753
-9166
3521
197
-4026
-7194
-9926
8808
5057
-4531
-8074
-7872
734
-386
-8660
-8712
-4485
-7531
-8615
-5798
-7438
5611
598
1154
-5333
9903
-6219
3984
9239
-6988
5981
6829
6688
6316
45
-6974
690
4955
-8005
4903
579
-2793
3102
-8880
-1534
7606
-7344
9548
-3347
1963
-8766
-7080
-5425
1787
732
9007
-1332
-9287
-5557
-2400
-6501
6133
-1871
2348
-2074
-4496
1395
-2741
6199
-1300
-2478
-5293
652
-4679
-482
-5208
-36
8975
-9685
-5801
-4989
9349
-4176
-3092
2902
-2731
989
-1272
-951
-2038
1061
-6983
6948
3405
-7066
5870
-4062
-4129
4743
-4330
-1846
-8296
-4179
4058
7806
6903
-6356
3282
8143
4162
9623
8252
4511
-5141
-8652
-9192
5537
-1161
5339
8308
8665
9879
1424
-900
-8827
-4654
7502
3249
3260
-5175
1792
-1356
5947
-5558
8558
-363
-6799
1052
2879
8368
5135
3648
-9808
-2752
-2911
8118
7134
-4758
-2028
5862
-8331
-9735
-9421
6793
-7530
5347
-3646
-7089
-9716
-2829
7633
9884
7233
2161
1488
-9002
3988
-2433
-8984
303
9260
-7296
2307
-9994
-8731
-895
8324
-9165
6602
7299
4468
-6407
8365
2737
-5062
-4947
2503
3631
-6204
-7950
8907
-493
-9854
-6143
-7794
-9204
2965
4864
-3969
-2961
-2153
7052
4161
-5940
-4721
4944
2070
-1010
8099
4454
3222
6030
4332
1461
-4096
5617
883
-4044
-1602
-5068
-6558
3249
3012
8685
-1621
5006
2750
5692
3617
9742
8354
-1083
-2897
-5018
-1993
-5438
3945
1370
-2884
9184
-3765
2856
1470
2927
3179
6389
-6580
1649
3441
-326
-2194
1075
6393
6092
2077
-7946
4553
2236
3266
-2436
5502
5346
3461
9357
8397
5484
-5024
-5074
-2504
427
-3444
-6060
3134
-9986
2787
-2583
9205
1084
-9703
2550
5410
4182
6360
1480
-7566
8800
8259
-6763
8671
5264
4974
4671
-1729
-1799
-3235
8417
1943
9095
-7289
-6298
4433
-6444
-8494
-654
-4564
2678
-3466
-2654
-5544
-2661
2751
122
-5732
-819
-110
-5112
-7459
-7207
4216
4503
6664
-205
-634
-4177
2928
7442
-4327
3671
-2050
-8087
7023
-8493
7593
9535
-5621
8193
6649
-1945
-4052
4472
1092
-5666
-4593
2363
4050
-4982
-8383
6099
6410
2227
5948
4131
3533
7696
-3336
-1651
615
-4377
3673
8820
-8987
7020
1603
265
4164
6546
-5782
-163
-7195
6471
-899
4954
-7329
-8060
7881
-5415
2262
-3374
4370
-2277
-5022
-1437
624
-1230
-8503
2182
9279
-8898
6366
4503
9412
7310
-488
-9075
2721
-2551
-9293
9210
-2974
-4942
-6906
9063
-5141
4833
-9601
9014
6370
5518
1761
2434
7795
6901
7934
99
9414
-9203
-6867
7977
271
2437
7885
-4133
777
942
7
4965
-1058
5312
-6829
-9354
-8901
5927
-4482
444
-6165
-9471
-5582
6707
225
-1562
-2343
8308
550
7061
-3753
6535
-4675
-9308
9526
6499
-3203
-6791
9312
-2694
3978
3485
6631
1757
5824
-4867
1920
-482
-2641
-9329
7531
-3619
4347
-5681
-9938
-3240
3535
7263
9199
-3537
-2477
-5358
9678
8518
-3975
-5606
-6587
6036
8574
4747
-4
-6970
7633
-705
-4517
-3397
-4364
-3552
-8251
-7909
4685
-6468
-8315
6472
-6620
4837
-865
-5198
1714
-2318
6685
9395
2033
837
-692
2189
1685
5664
7318
-3082
-8659
-8143
8259
-331
-8156
6915
-5979
3924
-7947
-8706
6898
9275
-9753
9630
6269
-8176
-7467
2556
-3826
-1342
3077
-6743
3339
8810
3043
8335
5047
8743
-2192
3451
6711
-8309
-4698
799
174
7067
2284
7705
-4536
-1308
9870
-6556
-8915
-1315
4830
-5165
-9034
7721
8985
275
9724
-8353
-4574
6541
-7781
-454
-2638
-6944
8167
-1027
-6948
-5744
8143
-9698
-1404
-7714
3327
4090
9280
-555
-1822
2838
-287
-7352
2508
1678
3182
616
-2518
-8688
1449
8610
8606
-9122
7628
-4805
8099
-1504
-3150
-9112
8807
2818
-7925
9487
2392
-9735
5749
9458
-4411
9421
-8110
-5052
-9923
-3298
-2266
3868
-6118
5420
-672
-6080
5202
-5727
1128
6483
-6814
559
-3795
3090
-5619
8538
631
9425
8503
3926
-6641
7837
-7390
1841
-8866
-9111
-1114
7364
6985
5676
-1985
-4564
328
1520
-2557
-77
6914
2018
1831
493
-2325
-3394
-8359
-9707
-3095
6434
-5031
-2536
-7699
4713
-2295
-807
-7953
2634
-2535
8216
7419
8553
-2034
8644
3341
-9642
2177
-9556
3838
-1290
-5020
101
4535
2386
9038
8746
-9856
5972
1233
-1625
1290
4875
-8820
1894
2124
2979
8290
3314
7768
-5790
-714
-9327
-963
-9162
4174
-3791
708
8592
-4517
-4198
9260
-8532
-7153
-7171
6069
-2443
-6899
368
2953
-8651
-5417
101
-1675
-2381
3630
-3782
-5746
7370
-8904
-1653
-2519
7262
-2789
-1235
630
-9493
4219
-3975
-6100
-531
7970
-313
-8048
7996
1985
8974
-3996
-5015
548
-8069
6842
9754
-9073
1067
941
4541
-868
6504
-1071
9700
-1575
8244
-6710
-6778
5325
5499
520
-2291
-6061
-7114
1871
5178
-3803
798
-3664
2901
2944
468
9775
-8087
-1189
-7083
4823
-6041
-7601
-4537
-2359
-7697
2585
9441
9686
7176
-8427
-1579
5290
-2391
-4188
7510
9154
-2046
-2924
-8791
1806
-370
-2365
9789
-4386
-3569
-4103
2344
-902
5232
1858
8400
3142
-7038
5291
9380
9059
5459
-6118
-3748
5566
4147
-6654
293
9398
-7597
7091
-9771
-7433
-4892
9043
835
8196
2054
-9940
-4313
-3532
-1284
-4338
-207
2291
6348
850
6718
7237
-2511
6332
9111
9561
2578
9783
1624
-1680
-1164
5582
837
177
-6601
-3030
-1935
-9164
-626
5697
7832
-3078
-4369
-4049
-2678
8768
-994
-8276
210
-377
1043
-224
-7852
2692
-9526
-6052
-5551
-6185
-2651
-9166
-2361
4615
-4920
-8331
-2865
8674
2580
782
9581
1538
290
-2896
-9706
-5666
-8910
-8114
-248
285
-89
-6748
-9748
-6371
-5662
-3899
2582
1193
2550
4535
-3014
8375
4696
-6759
-7312
3246
-931
4058
-4074
5250
-4527
-5463
-2328
8213
4710
6308
-859
-8661
-4667
2927
-4310
-3612
-3364
-882
-2119
-5548
353
6409
-7793
-8508
-7458
-6267
3421
8271
-8100
5775
-4590
-2661
1082
-3200
-1839
7413
-6487
3058
-5268
-6187
-204
-6890
3920
2479
5038
2029
-8071
4757
1220
-7080
-579
-9826
-2817
-2943
-828
-4645
-7056
2687
3856
-1420
-5302
-8332
3607
1555
2231
3042
8547
-7347
1409
-6864
2836
-843
999
2820
3612
-9984
5286
-5578
764
5092
-8221
2994
-8394
2145
6743
-198
-1727
8524
415
9326
5094
1013
-1594
-4501
-1821
-5693
6191
-2430
-9891
-3737
9508
-8337
8920
6399
5061
49
2422
-6993
-6841
7009
-3573
3815
6733
7447
8628
5319
-351
-7541
-1376
6676
-8726
4626
8945
5500
4031
-4904
2040
-5045
-4055
4309
3723
-5813
1154
8786
4947
7477
7991
7457
-9411
1396
6361
2766
-3499
-6219
4060
4160
4196
-6416
5065
4541
6334
-3624
1968
-6120
-4474
6767
-617
-1571
4053
6021
-4483
8855
-7313
-9162
5053
6049
-6911
-2427
8057
9537
-9819
-4910
-3163
130
8355
-1019
5520
5821
-1421
-9912
5580
7909
-7817
-8967
-5416
2967
-8443
5920
-4815
5501
7950
396
-3285
-4008
-7746
-8060
-7360
9535
-4100
-6435
-6221
1377
5897
8039
9371
-2603
567
4253
5902
-63
-9343
2582
-2934
-7595
4294
-8138
7317
9631
3668
-2970
6192
-4751
6258
-6455
-9132
-7795
4196
2352
434
8009
-8504
-2508
-3092
2435
873
-2674
5216
2112
-650
9989
7259
-6145
-5023
3749
-6465
6505
5818
-6161
9974
-264
-3303
-1294
-2695
-2571
-769
707
5563
-6793
-3651
8909
-2586
-3928
-6274
5003
-9579
-4696
-2525
-2760
-9304
5472
9971
-8162
-1853
4783
3799
-3470
-2987
2966
-2401
-3345
4454
8542
-3010
-9311
-5325
9521
-1235
-881
6383
-3541
7161
8244
-2632
2292
-2651
-1175
-8490
9481
3102
-1636
-9179
1712
3192
5414
-2140
-5188
-5846
4457
-7602
9460
5853
676
-9764
6981
702
-4574
1826
-1382
-2667
-4795
3648
-1318
-4749
-373
-3734
2360
8213
7204
9565
-9856
992
-8345
7905
-7494
6680
-3989
5675
-9074
-119
6997
7320
4230
-5147
7903
-5131
-7084
7100
4654
766
8319
1906
-3204
4150
-1617
-6051
2794
-5381
-2768
-1571
7378
-829
-8090
6017
-2474
5176
-3647
1442
-6703
-4913
-9966
8691
-133
-2984
-3272
4588
7921
9461
7414
-3136
-9016
-1903
-9371
-7114
-9671
7892
3373
-9142
782
4845
-3735
6539
-5974
-1919
-2383
5485
-70
-4608
2981
3248
-8971
-6956
8979
4215
377
-5825
-6742
-6543
8863
9170
-3978
-4620
4477
-3872
2845
8017
3059
9829
3287
-7604
7758
3631
5373
2708
-7279
-9778
2082
4942
5436
-5556
-7260
9057
-8238
4188
-432
-6950
-2240
3817
7626
5927
-6634
-1314
-4975
1051
-5762
8995
9463
-8672
-9735
6604
7102
-6648
1851
9295
167
-1113
-1602
-6329
880
-1028
7321
-14
988
8442
-3452
98
8576
-3188
8500
3153
-3215
5224
-477
2718
2724
-1405
-5019
3769
9061
7045
7452
8285
5656
-8565
2987
4151
4098
3987
-1198
-6350
4107
6996
-5356
-4964
7498
19
-348
-6480
2784
9189
-3327
6442
1470
-8999
6843
1496
-4294
-2660
-1373
6568
6197
-1473
7567
-4893
-830
6822
-4281
1872
-8397
4070
2950
509
-4846
-5919
6327
-3409
-9158
-7131
8250
-2392
-1015
-2010
-734
-5139
-8145
2011
7217
-8756
-9895
-5468
-9122
-6325
8308
-7817
3199
-794
9764
6717
-2944
-147
-3752
7507
-5413
-7279
-5529
-3273
-9753
9243
7788
-7037
7147
-9834
-991
-7805
-3480
-8639
-1813
3793
857
9672
7881
3631
-7201
7644
7598
6405
-6210
-8639
-1015
-5107
9302
-3428
3874
-4832
-9361
4860
8341
-6322
7303
3796
-2297
-5407
8472
2881
9740
-5992
7257
540
6437
1337
-2731
6473
8087
7618
7401
-1574
7937
5491
-2165
-7271
-9686
6242
-2116
-6041
-9254
-4415
4675
602
2653
1721
516
868
-8065
-3207
6394
-4430
8142
-4095
9217
-6499
-1055
-3233
1199
-1200
3135
-2713
-8771
9465
-3246
-1431
-9899
-8412
-3307
6339
-5818
4752
6685
5138
-4635
-9295
1661
-3511
9095
-484
8213
4766
-3174
-4597
-8730
2687
4382
-2287
58
-7988
3601
-8241
66
-5449
-9069
8828
1929
3524
3822
5068
-6953
-4023
3363
4870
3229
-6770
-71
-4006
-8235
-1750
7529
-9161
-9951
-3684
2127
1155
-8708
